2017_09_07-15_36_13	Starting run "all_vs_DS1"
2017_09_07-15_36_13	Starting runThread "all_vs_DS1:1 (Hierarchical_Clustering2:1,DS1:1)"
2017_09_07-15_37_07	Finished runThread "all_vs_DS1:1 (Hierarchical_Clustering2:1,DS1:1)" (Duration 54s 153ms)
2017_09_07-15_37_08	Finished run "all_vs_DS1" (Duration 54s 316ms)
