<?xml version="1.0" encoding="UTF-8"?>
<svg xmlns="http://www.w3.org/2000/svg" xmlns:xlink="http://www.w3.org/1999/xlink" width="504pt" height="504pt" viewBox="0 0 504 504" version="1.1">
<defs>
<g>
<symbol overflow="visible" id="glyph0-0">
<path style="stroke:none;" d=""/>
</symbol>
<symbol overflow="visible" id="glyph0-1">
<path style="stroke:none;" d="M 6.125 -6.015625 C 6.125 -7.453125 5.015625 -8.515625 3.40625 -8.515625 C 1.671875 -8.515625 0.65625 -7.625 0.59375 -5.5625 L 1.65625 -5.5625 C 1.734375 -6.984375 2.328125 -7.578125 3.375 -7.578125 C 4.328125 -7.578125 5.046875 -6.90625 5.046875 -5.984375 C 5.046875 -5.3125 4.65625 -4.734375 3.90625 -4.3125 L 2.796875 -3.6875 C 1.015625 -2.671875 0.5 -1.875 0.40625 0 L 6.078125 0 L 6.078125 -1.046875 L 1.59375 -1.046875 C 1.703125 -1.734375 2.09375 -2.1875 3.125 -2.796875 L 4.328125 -3.4375 C 5.515625 -4.078125 6.125 -4.96875 6.125 -6.015625 Z M 6.125 -6.015625 "/>
</symbol>
<symbol overflow="visible" id="glyph0-2">
<path style="stroke:none;" d="M 6.234375 -2.046875 L 6.234375 -2.984375 L 4.984375 -2.984375 L 4.984375 -8.515625 L 4.203125 -8.515625 L 0.34375 -3.15625 L 0.34375 -2.046875 L 3.921875 -2.046875 L 3.921875 0 L 4.984375 0 L 4.984375 -2.046875 Z M 3.921875 -2.984375 L 1.265625 -2.984375 L 3.921875 -6.703125 Z M 3.921875 -2.984375 "/>
</symbol>
<symbol overflow="visible" id="glyph0-3">
<path style="stroke:none;" d="M 6.15625 -2.640625 C 6.15625 -4.21875 5.078125 -5.296875 3.546875 -5.296875 C 2.71875 -5.296875 2.046875 -4.96875 1.59375 -4.34375 C 1.609375 -6.421875 2.28125 -7.578125 3.484375 -7.578125 C 4.234375 -7.578125 4.75 -7.109375 4.921875 -6.28125 L 5.96875 -6.28125 C 5.765625 -7.6875 4.859375 -8.515625 3.5625 -8.515625 C 1.578125 -8.515625 0.515625 -6.84375 0.515625 -3.875 C 0.515625 -1.21875 1.421875 0.1875 3.375 0.1875 C 4.984375 0.1875 6.15625 -0.96875 6.15625 -2.640625 Z M 5.078125 -2.5625 C 5.078125 -1.484375 4.359375 -0.75 3.390625 -0.75 C 2.40625 -0.75 1.65625 -1.53125 1.65625 -2.609375 C 1.65625 -3.671875 2.375 -4.359375 3.421875 -4.359375 C 4.4375 -4.359375 5.078125 -3.703125 5.078125 -2.5625 Z M 5.078125 -2.5625 "/>
</symbol>
<symbol overflow="visible" id="glyph0-4">
<path style="stroke:none;" d="M 6.15625 -2.40625 C 6.15625 -3.34375 5.671875 -4.015625 4.6875 -4.46875 C 5.5625 -5 5.859375 -5.4375 5.859375 -6.234375 C 5.859375 -7.578125 4.8125 -8.515625 3.296875 -8.515625 C 1.796875 -8.515625 0.75 -7.578125 0.75 -6.234375 C 0.75 -5.453125 1.03125 -5.015625 1.890625 -4.46875 C 0.921875 -4.015625 0.4375 -3.34375 0.4375 -2.40625 C 0.4375 -0.859375 1.625 0.1875 3.296875 0.1875 C 4.984375 0.1875 6.15625 -0.859375 6.15625 -2.40625 Z M 4.78125 -6.21875 C 4.78125 -5.421875 4.1875 -4.890625 3.296875 -4.890625 C 2.40625 -4.890625 1.828125 -5.421875 1.828125 -6.234375 C 1.828125 -7.046875 2.40625 -7.578125 3.296875 -7.578125 C 4.203125 -7.578125 4.78125 -7.046875 4.78125 -6.21875 Z M 5.078125 -2.390625 C 5.078125 -1.375 4.359375 -0.75 3.28125 -0.75 C 2.25 -0.75 1.53125 -1.390625 1.53125 -2.390625 C 1.53125 -3.390625 2.25 -4.015625 3.296875 -4.015625 C 4.359375 -4.015625 5.078125 -3.390625 5.078125 -2.390625 Z M 5.078125 -2.390625 "/>
</symbol>
<symbol overflow="visible" id="glyph0-5">
<path style="stroke:none;" d="M 4.15625 0 L 4.15625 -8.515625 L 3.46875 -8.515625 C 3.09375 -7.203125 2.859375 -7.015625 1.21875 -6.8125 L 1.21875 -6.0625 L 3.109375 -6.0625 L 3.109375 0 Z M 4.15625 0 "/>
</symbol>
<symbol overflow="visible" id="glyph0-6">
<path style="stroke:none;" d="M 6.078125 -4.09375 C 6.078125 -7.046875 5.140625 -8.515625 3.296875 -8.515625 C 1.46875 -8.515625 0.515625 -7.015625 0.515625 -4.15625 C 0.515625 -1.296875 1.46875 0.1875 3.296875 0.1875 C 5.09375 0.1875 6.078125 -1.296875 6.078125 -4.09375 Z M 5 -4.1875 C 5 -1.78125 4.453125 -0.703125 3.28125 -0.703125 C 2.15625 -0.703125 1.59375 -1.828125 1.59375 -4.15625 C 1.59375 -6.484375 2.15625 -7.578125 3.296875 -7.578125 C 4.4375 -7.578125 5 -6.46875 5 -4.1875 Z M 5 -4.1875 "/>
</symbol>
<symbol overflow="visible" id="glyph0-7">
<path style="stroke:none;" d="M 2.3125 0 L 2.3125 -8.75 L 1.203125 -8.75 L 1.203125 0 Z M 2.3125 0 "/>
</symbol>
<symbol overflow="visible" id="glyph0-8">
<path style="stroke:none;" d="M 7.109375 -7.765625 L 7.109375 -8.75 L 0.25 -8.75 L 0.25 -7.765625 L 3.125 -7.765625 L 3.125 0 L 4.25 0 L 4.25 -7.765625 Z M 7.109375 -7.765625 "/>
</symbol>
<symbol overflow="visible" id="glyph0-9">
<path style="stroke:none;" d="M 3.859375 -5.40625 L 3.859375 -6.4375 C 3.6875 -6.453125 3.59375 -6.46875 3.46875 -6.46875 C 2.8125 -6.46875 2.328125 -6.078125 1.75 -5.140625 L 1.75 -6.28125 L 0.84375 -6.28125 L 0.84375 0 L 1.84375 0 L 1.84375 -3.265625 C 1.84375 -4.6875 2.296875 -5.390625 3.859375 -5.40625 Z M 3.859375 -5.40625 "/>
</symbol>
<symbol overflow="visible" id="glyph0-10">
<path style="stroke:none;" d="M 6.421875 -0.03125 L 6.421875 -0.78125 C 6.3125 -0.75 6.265625 -0.75 6.203125 -0.75 C 5.859375 -0.75 5.65625 -0.9375 5.65625 -1.25 L 5.65625 -4.75 C 5.65625 -5.875 4.84375 -6.46875 3.296875 -6.46875 C 1.78125 -6.46875 0.84375 -5.875 0.78125 -4.421875 L 1.78125 -4.421875 C 1.875 -5.203125 2.328125 -5.546875 3.265625 -5.546875 C 4.15625 -5.546875 4.671875 -5.203125 4.671875 -4.609375 L 4.671875 -4.34375 C 4.671875 -3.921875 4.421875 -3.75 3.625 -3.640625 C 2.203125 -3.46875 1.984375 -3.421875 1.609375 -3.265625 C 0.875 -2.96875 0.5 -2.40625 0.5 -1.625 C 0.5 -0.484375 1.296875 0.1875 2.5625 0.1875 C 3.375 0.1875 4.15625 -0.15625 4.703125 -0.75 C 4.8125 -0.265625 5.25 0.078125 5.734375 0.078125 C 5.9375 0.078125 6.09375 0.0625 6.421875 -0.03125 Z M 4.671875 -2.171875 C 4.671875 -1.265625 3.75 -0.703125 2.78125 -0.703125 C 2 -0.703125 1.546875 -0.96875 1.546875 -1.65625 C 1.546875 -2.3125 1.984375 -2.609375 3.0625 -2.765625 C 4.109375 -2.90625 4.328125 -2.953125 4.671875 -3.109375 Z M 4.671875 -2.171875 "/>
</symbol>
<symbol overflow="visible" id="glyph0-11">
<path style="stroke:none;" d="M 5.84375 0 L 5.84375 -4.75 C 5.84375 -5.796875 5.0625 -6.46875 3.859375 -6.46875 C 2.921875 -6.46875 2.3125 -6.109375 1.765625 -5.234375 L 1.765625 -6.28125 L 0.84375 -6.28125 L 0.84375 0 L 1.84375 0 L 1.84375 -3.46875 C 1.84375 -4.75 2.53125 -5.59375 3.546875 -5.59375 C 4.34375 -5.59375 4.84375 -5.109375 4.84375 -4.359375 L 4.84375 0 Z M 5.84375 0 "/>
</symbol>
<symbol overflow="visible" id="glyph0-12">
<path style="stroke:none;" d="M 5.515625 -1.765625 C 5.515625 -2.703125 4.984375 -3.171875 3.734375 -3.46875 L 2.765625 -3.703125 C 1.953125 -3.890625 1.609375 -4.15625 1.609375 -4.59375 C 1.609375 -5.171875 2.125 -5.546875 2.9375 -5.546875 C 3.75 -5.546875 4.171875 -5.203125 4.203125 -4.53125 L 5.25 -4.53125 C 5.25 -5.765625 4.421875 -6.46875 2.96875 -6.46875 C 1.515625 -6.46875 0.5625 -5.71875 0.5625 -4.546875 C 0.5625 -3.5625 1.0625 -3.09375 2.5625 -2.734375 L 3.484375 -2.515625 C 4.1875 -2.34375 4.46875 -2.140625 4.46875 -1.6875 C 4.46875 -1.09375 3.875 -0.75 3 -0.75 C 2.09375 -0.75 1.59375 -0.953125 1.46875 -1.921875 L 0.40625 -1.921875 C 0.453125 -0.46875 1.265625 0.1875 2.921875 0.1875 C 4.5 0.1875 5.515625 -0.546875 5.515625 -1.765625 Z M 5.515625 -1.765625 "/>
</symbol>
<symbol overflow="visible" id="glyph0-13">
<path style="stroke:none;" d="M 8.125 -3.1875 L 6.96875 -3.1875 C 6.703125 -1.53125 6.015625 -0.765625 4.53125 -0.765625 C 2.796875 -0.765625 1.6875 -2.09375 1.6875 -4.28125 C 1.6875 -6.53125 2.75 -7.984375 4.4375 -7.984375 C 5.8125 -7.984375 6.53125 -7.375 6.796875 -6.03125 L 7.9375 -6.03125 C 7.59375 -7.953125 6.484375 -8.96875 4.578125 -8.96875 C 1.921875 -8.96875 0.578125 -6.828125 0.578125 -4.265625 C 0.578125 -1.71875 1.953125 0.21875 4.53125 0.21875 C 6.65625 0.21875 7.859375 -0.90625 8.125 -3.1875 Z M 8.125 -3.1875 "/>
</symbol>
<symbol overflow="visible" id="glyph0-14">
<path style="stroke:none;" d="M 1.8125 0 L 1.8125 -8.75 L 0.8125 -8.75 L 0.8125 0 Z M 1.8125 0 "/>
</symbol>
<symbol overflow="visible" id="glyph0-15">
<path style="stroke:none;" d="M 5.78125 0 L 5.78125 -6.28125 L 4.78125 -6.28125 L 4.78125 -2.8125 C 4.78125 -1.53125 4.109375 -0.703125 3.078125 -0.703125 C 2.28125 -0.703125 1.78125 -1.171875 1.78125 -1.9375 L 1.78125 -6.28125 L 0.78125 -6.28125 L 0.78125 -1.53125 C 0.78125 -0.484375 1.5625 0.1875 2.78125 0.1875 C 3.703125 0.1875 4.296875 -0.140625 4.890625 -0.96875 L 4.890625 0 Z M 5.78125 0 "/>
</symbol>
<symbol overflow="visible" id="glyph0-16">
<path style="stroke:none;" d="M 3.046875 0 L 3.046875 -0.84375 C 2.921875 -0.796875 2.765625 -0.796875 2.5625 -0.796875 C 2.140625 -0.796875 2.015625 -0.90625 2.015625 -1.359375 L 2.015625 -5.46875 L 3.046875 -5.46875 L 3.046875 -6.28125 L 2.015625 -6.28125 L 2.015625 -8.015625 L 1.015625 -8.015625 L 1.015625 -6.28125 L 0.171875 -6.28125 L 0.171875 -5.46875 L 1.015625 -5.46875 L 1.015625 -0.90625 C 1.015625 -0.28125 1.453125 0.078125 2.234375 0.078125 C 2.46875 0.078125 2.71875 0.0625 3.046875 0 Z M 3.046875 0 "/>
</symbol>
<symbol overflow="visible" id="glyph0-17">
<path style="stroke:none;" d="M 6.953125 -7.765625 L 6.953125 -8.75 L 1.078125 -8.75 L 1.078125 0 L 2.203125 0 L 2.203125 -3.984375 L 6.375 -3.984375 L 6.375 -4.96875 L 2.203125 -4.96875 L 2.203125 -7.765625 Z M 6.953125 -7.765625 "/>
</symbol>
<symbol overflow="visible" id="glyph0-18">
<path style="stroke:none;" d="M 6.15625 -2.859375 C 6.15625 -3.765625 6.078125 -4.34375 5.90625 -4.8125 C 5.5 -5.84375 4.53125 -6.46875 3.359375 -6.46875 C 1.609375 -6.46875 0.484375 -5.171875 0.484375 -3.109375 C 0.484375 -1.046875 1.578125 0.1875 3.34375 0.1875 C 4.78125 0.1875 5.765625 -0.640625 6.03125 -1.90625 L 5.015625 -1.90625 C 4.734375 -1.078125 4.171875 -0.75 3.375 -0.75 C 2.328125 -0.75 1.546875 -1.421875 1.53125 -2.859375 Z M 5.09375 -3.75 C 5.09375 -3.75 5.09375 -3.703125 5.078125 -3.671875 L 1.546875 -3.671875 C 1.625 -4.78125 2.34375 -5.546875 3.34375 -5.546875 C 4.328125 -5.546875 5.09375 -4.734375 5.09375 -3.75 Z M 5.09375 -3.75 "/>
</symbol>
<symbol overflow="visible" id="glyph0-19">
<path style="stroke:none;" d="M 1.84375 0 L 1.84375 -6.28125 L 0.84375 -6.28125 L 0.84375 0 Z M 1.96875 -7.234375 L 1.96875 -8.484375 L 0.71875 -8.484375 L 0.71875 -7.234375 Z M 1.96875 -7.234375 "/>
</symbol>
<symbol overflow="visible" id="glyph0-20">
<path style="stroke:none;" d="M 5.875 -1.03125 L 5.875 -6.28125 L 4.9375 -6.28125 L 4.9375 -5.375 C 4.4375 -6.125 3.828125 -6.46875 3.03125 -6.46875 C 1.421875 -6.46875 0.34375 -5.125 0.34375 -3.078125 C 0.34375 -1.109375 1.46875 0.1875 2.9375 0.1875 C 3.734375 0.1875 4.28125 -0.15625 4.9375 -0.953125 L 4.9375 -0.53125 C 4.9375 1.140625 4.265625 1.78125 3.09375 1.78125 C 2.296875 1.78125 1.6875 1.484375 1.578125 0.71875 L 0.546875 0.71875 C 0.65625 1.90625 1.578125 2.609375 3.0625 2.609375 C 5.03125 2.609375 5.875 1.734375 5.875 -1.03125 Z M 4.84375 -3.109375 C 4.84375 -1.609375 4.203125 -0.75 3.140625 -0.75 C 2.046875 -0.75 1.390625 -1.625 1.390625 -3.140625 C 1.390625 -4.65625 2.0625 -5.546875 3.125 -5.546875 C 4.21875 -5.546875 4.84375 -4.625 4.84375 -3.109375 Z M 4.84375 -3.109375 "/>
</symbol>
<symbol overflow="visible" id="glyph0-21">
<path style="stroke:none;" d="M 8.90625 -4.328125 C 8.90625 -7.046875 7.203125 -8.96875 4.6875 -8.96875 C 2.15625 -8.96875 0.453125 -7.046875 0.453125 -4.3125 C 0.453125 -1.578125 2.15625 0.21875 4.6875 0.21875 C 5.546875 0.21875 6.265625 0.03125 6.96875 -0.390625 L 8.234375 0.640625 L 8.796875 -0.046875 L 7.671875 -0.96875 C 8.5 -1.890625 8.90625 -2.953125 8.90625 -4.328125 Z M 7.78125 -4.3125 C 7.78125 -3.1875 7.484375 -2.375 6.84375 -1.640625 L 5.765625 -2.515625 L 5.21875 -1.84375 L 6.109375 -1.109375 C 5.59375 -0.859375 5.203125 -0.765625 4.671875 -0.765625 C 2.8125 -0.765625 1.578125 -2.140625 1.578125 -4.3125 C 1.578125 -6.46875 2.8125 -7.984375 4.6875 -7.984375 C 6.546875 -7.984375 7.78125 -6.46875 7.78125 -4.3125 Z M 7.78125 -4.3125 "/>
</symbol>
<symbol overflow="visible" id="glyph0-22">
<path style="stroke:none;" d="M 5.734375 -6.28125 L 4.65625 -6.28125 L 2.921875 -1.390625 L 1.3125 -6.28125 L 0.234375 -6.28125 L 2.359375 0.03125 L 1.984375 1.015625 C 1.8125 1.46875 1.609375 1.625 1.171875 1.625 C 1.03125 1.625 0.859375 1.609375 0.640625 1.5625 L 0.640625 2.453125 C 0.859375 2.5625 1.0625 2.609375 1.3125 2.609375 C 2.03125 2.609375 2.609375 2.21875 2.9375 1.3125 Z M 5.734375 -6.28125 "/>
</symbol>
<symbol overflow="visible" id="glyph0-23">
<path style="stroke:none;" d="M 9.125 0 L 9.125 -8.75 L 7.578125 -8.75 L 5.046875 -1.125 L 2.453125 -8.75 L 0.90625 -8.75 L 0.90625 0 L 1.953125 0 L 1.953125 -7.328125 L 4.4375 0 L 5.609375 0 L 8.078125 -7.328125 L 8.078125 0 Z M 9.125 0 "/>
</symbol>
<symbol overflow="visible" id="glyph0-24">
<path style="stroke:none;" d="M 8 -4.375 C 8 -7.09375 6.65625 -8.75 4.4375 -8.75 L 1.0625 -8.75 L 1.0625 0 L 4.4375 0 C 6.640625 0 8 -1.65625 8 -4.375 Z M 6.890625 -4.375 C 6.890625 -2.15625 5.96875 -0.984375 4.25 -0.984375 L 2.1875 -0.984375 L 2.1875 -7.765625 L 4.25 -7.765625 C 5.96875 -7.765625 6.890625 -6.59375 6.890625 -4.375 Z M 6.890625 -4.375 "/>
</symbol>
<symbol overflow="visible" id="glyph0-25">
<path style="stroke:none;" d="M 8.140625 0 L 8.140625 -0.28125 C 7.734375 -0.5625 7.625 -0.875 7.625 -2.046875 C 7.59375 -3.484375 7.375 -3.90625 6.4375 -4.3125 C 7.421875 -4.796875 7.8125 -5.40625 7.8125 -6.40625 C 7.8125 -7.921875 6.859375 -8.75 5.140625 -8.75 L 1.109375 -8.75 L 1.109375 0 L 2.234375 0 L 2.234375 -3.765625 L 5.109375 -3.765625 C 6.09375 -3.765625 6.5625 -3.28125 6.546875 -2.203125 L 6.546875 -1.421875 C 6.53125 -0.890625 6.640625 -0.359375 6.796875 0 Z M 6.640625 -6.25 C 6.640625 -5.21875 6.125 -4.75 4.9375 -4.75 L 2.234375 -4.75 L 2.234375 -7.765625 L 4.9375 -7.765625 C 6.1875 -7.765625 6.640625 -7.234375 6.640625 -6.25 Z M 6.640625 -6.25 "/>
</symbol>
<symbol overflow="visible" id="glyph0-26">
<path style="stroke:none;" d="M 7.40625 -6.1875 C 7.40625 -7.828125 6.4375 -8.75 4.703125 -8.75 L 1.09375 -8.75 L 1.09375 0 L 2.203125 0 L 2.203125 -3.703125 L 4.953125 -3.703125 C 6.390625 -3.703125 7.40625 -4.734375 7.40625 -6.1875 Z M 6.234375 -6.234375 C 6.234375 -5.265625 5.609375 -4.6875 4.53125 -4.6875 L 2.203125 -4.6875 L 2.203125 -7.765625 L 4.53125 -7.765625 C 5.609375 -7.765625 6.234375 -7.1875 6.234375 -6.234375 Z M 6.234375 -6.234375 "/>
</symbol>
<symbol overflow="visible" id="glyph0-27">
<path style="stroke:none;" d="M 5.9375 0 L 5.9375 -8.75 L 4.9375 -8.75 L 4.9375 -5.5 C 4.53125 -6.125 3.859375 -6.46875 3.015625 -6.46875 C 1.375 -6.46875 0.3125 -5.203125 0.3125 -3.203125 C 0.3125 -1.078125 1.359375 0.1875 3.046875 0.1875 C 3.90625 0.1875 4.515625 -0.140625 5.046875 -0.921875 L 5.046875 0 Z M 4.9375 -3.125 C 4.9375 -1.671875 4.25 -0.75 3.1875 -0.75 C 2.09375 -0.75 1.359375 -1.6875 1.359375 -3.140625 C 1.359375 -4.609375 2.09375 -5.53125 3.1875 -5.53125 C 4.265625 -5.53125 4.9375 -4.578125 4.9375 -3.125 Z M 4.9375 -3.125 "/>
</symbol>
<symbol overflow="visible" id="glyph0-28">
<path style="stroke:none;" d="M 5.671875 0 L 3.5 -3.25 L 5.609375 -6.28125 L 4.484375 -6.28125 L 2.96875 -4.015625 L 1.46875 -6.28125 L 0.328125 -6.28125 L 2.421875 -3.203125 L 0.203125 0 L 1.34375 0 L 2.9375 -2.40625 L 4.515625 0 Z M 5.671875 0 "/>
</symbol>
<symbol overflow="visible" id="glyph0-29">
<path style="stroke:none;" d="M 7.453125 -2.40625 C 7.453125 -3.484375 6.78125 -4.265625 5.59375 -4.59375 L 3.390625 -5.1875 C 2.34375 -5.453125 1.953125 -5.8125 1.953125 -6.484375 C 1.953125 -7.375 2.734375 -8.03125 3.90625 -8.03125 C 5.296875 -8.03125 6.09375 -7.390625 6.09375 -6.25 L 7.15625 -6.25 C 7.15625 -7.96875 5.96875 -8.96875 3.953125 -8.96875 C 2.03125 -8.96875 0.84375 -7.90625 0.84375 -6.328125 C 0.84375 -5.25 1.40625 -4.578125 2.5625 -4.28125 L 4.734375 -3.703125 C 5.828125 -3.421875 6.34375 -2.96875 6.34375 -2.296875 C 6.34375 -1.328125 5.609375 -0.765625 4.109375 -0.765625 C 2.453125 -0.765625 1.625 -1.59375 1.625 -2.84375 L 0.578125 -2.84375 C 0.578125 -0.78125 1.96875 0.21875 4.03125 0.21875 C 6.25 0.21875 7.453125 -0.84375 7.453125 -2.40625 Z M 7.453125 -2.40625 "/>
</symbol>
<symbol overflow="visible" id="glyph0-30">
<path style="stroke:none;" d="M 5.828125 -6.28125 L 4.703125 -6.28125 L 2.921875 -1.1875 L 1.25 -6.28125 L 0.125 -6.28125 L 2.328125 0 L 3.421875 0 Z M 5.828125 -6.28125 "/>
</symbol>
<symbol overflow="visible" id="glyph0-31">
<path style="stroke:none;" d="M 6.28125 -3.078125 C 6.28125 -5.203125 5.25 -6.46875 3.578125 -6.46875 C 2.71875 -6.46875 2.046875 -6.078125 1.578125 -5.34375 L 1.578125 -6.28125 L 0.65625 -6.28125 L 0.65625 2.609375 L 1.65625 2.609375 L 1.65625 -0.75 C 2.1875 -0.109375 2.765625 0.1875 3.59375 0.1875 C 5.203125 0.1875 6.28125 -1.078125 6.28125 -3.078125 Z M 5.234375 -3.109375 C 5.234375 -1.6875 4.5 -0.75 3.40625 -0.75 C 2.359375 -0.75 1.65625 -1.625 1.65625 -3.09375 C 1.65625 -4.578125 2.359375 -5.53125 3.40625 -5.53125 C 4.515625 -5.53125 5.234375 -4.609375 5.234375 -3.109375 Z M 5.234375 -3.109375 "/>
</symbol>
<symbol overflow="visible" id="glyph0-32">
<path style="stroke:none;" d="M 5.71875 -2.15625 L 4.71875 -2.15625 C 4.546875 -1.15625 4.03125 -0.75 3.1875 -0.75 C 2.078125 -0.75 1.421875 -1.59375 1.421875 -3.078125 C 1.421875 -4.65625 2.0625 -5.546875 3.15625 -5.546875 C 4 -5.546875 4.53125 -5.046875 4.640625 -4.171875 L 5.65625 -4.171875 C 5.53125 -5.71875 4.578125 -6.46875 3.171875 -6.46875 C 1.46875 -6.46875 0.375 -5.171875 0.375 -3.078125 C 0.375 -1.0625 1.453125 0.1875 3.15625 0.1875 C 4.65625 0.1875 5.609375 -0.71875 5.71875 -2.15625 Z M 5.71875 -2.15625 "/>
</symbol>
<symbol overflow="visible" id="glyph0-33">
<path style="stroke:none;" d="M 3.09375 -5.46875 L 3.09375 -6.28125 L 2.046875 -6.28125 L 2.046875 -7.265625 C 2.046875 -7.6875 2.296875 -7.90625 2.75 -7.90625 C 2.828125 -7.90625 2.875 -7.90625 3.09375 -7.890625 L 3.09375 -8.71875 C 2.875 -8.765625 2.734375 -8.78125 2.53125 -8.78125 C 1.609375 -8.78125 1.0625 -8.25 1.0625 -7.359375 L 1.0625 -6.28125 L 0.21875 -6.28125 L 0.21875 -5.46875 L 1.0625 -5.46875 L 1.0625 0 L 2.046875 0 L 2.046875 -5.46875 Z M 5.140625 0 L 5.140625 -6.28125 L 4.15625 -6.28125 L 4.15625 0 Z M 5.28125 -7.234375 L 5.28125 -8.484375 L 4.03125 -8.484375 L 4.03125 -7.234375 Z M 5.28125 -7.234375 "/>
</symbol>
<symbol overflow="visible" id="glyph1-0">
<path style="stroke:none;" d=""/>
</symbol>
<symbol overflow="visible" id="glyph1-1">
<path style="stroke:none;" d="M -4.09375 -6.078125 C -7.046875 -6.078125 -8.515625 -5.140625 -8.515625 -3.296875 C -8.515625 -1.46875 -7.015625 -0.515625 -4.15625 -0.515625 C -1.296875 -0.515625 0.1875 -1.46875 0.1875 -3.296875 C 0.1875 -5.09375 -1.296875 -6.078125 -4.09375 -6.078125 Z M -4.1875 -5 C -1.78125 -5 -0.703125 -4.453125 -0.703125 -3.28125 C -0.703125 -2.15625 -1.828125 -1.59375 -4.15625 -1.59375 C -6.484375 -1.59375 -7.578125 -2.15625 -7.578125 -3.296875 C -7.578125 -4.4375 -6.46875 -5 -4.1875 -5 Z M -4.1875 -5 "/>
</symbol>
<symbol overflow="visible" id="glyph1-2">
<path style="stroke:none;" d="M -6.015625 -6.125 C -7.453125 -6.125 -8.515625 -5.015625 -8.515625 -3.40625 C -8.515625 -1.671875 -7.625 -0.65625 -5.5625 -0.59375 L -5.5625 -1.65625 C -6.984375 -1.734375 -7.578125 -2.328125 -7.578125 -3.375 C -7.578125 -4.328125 -6.90625 -5.046875 -5.984375 -5.046875 C -5.3125 -5.046875 -4.734375 -4.65625 -4.3125 -3.90625 L -3.6875 -2.796875 C -2.671875 -1.015625 -1.875 -0.5 0 -0.40625 L 0 -6.078125 L -1.046875 -6.078125 L -1.046875 -1.59375 C -1.734375 -1.703125 -2.1875 -2.09375 -2.796875 -3.125 L -3.4375 -4.328125 C -4.078125 -5.515625 -4.96875 -6.125 -6.015625 -6.125 Z M -6.015625 -6.125 "/>
</symbol>
<symbol overflow="visible" id="glyph1-3">
<path style="stroke:none;" d="M -2.046875 -6.234375 L -2.984375 -6.234375 L -2.984375 -4.984375 L -8.515625 -4.984375 L -8.515625 -4.203125 L -3.15625 -0.34375 L -2.046875 -0.34375 L -2.046875 -3.921875 L 0 -3.921875 L 0 -4.984375 L -2.046875 -4.984375 Z M -2.984375 -3.921875 L -2.984375 -1.265625 L -6.703125 -3.921875 Z M -2.984375 -3.921875 "/>
</symbol>
<symbol overflow="visible" id="glyph1-4">
<path style="stroke:none;" d="M -2.640625 -6.15625 C -4.21875 -6.15625 -5.296875 -5.078125 -5.296875 -3.546875 C -5.296875 -2.71875 -4.96875 -2.046875 -4.34375 -1.59375 C -6.421875 -1.609375 -7.578125 -2.28125 -7.578125 -3.484375 C -7.578125 -4.234375 -7.109375 -4.75 -6.28125 -4.921875 L -6.28125 -5.96875 C -7.6875 -5.765625 -8.515625 -4.859375 -8.515625 -3.5625 C -8.515625 -1.578125 -6.84375 -0.515625 -3.875 -0.515625 C -1.21875 -0.515625 0.1875 -1.421875 0.1875 -3.375 C 0.1875 -4.984375 -0.96875 -6.15625 -2.640625 -6.15625 Z M -2.5625 -5.078125 C -1.484375 -5.078125 -0.75 -4.359375 -0.75 -3.390625 C -0.75 -2.40625 -1.53125 -1.65625 -2.609375 -1.65625 C -3.671875 -1.65625 -4.359375 -2.375 -4.359375 -3.421875 C -4.359375 -4.4375 -3.703125 -5.078125 -2.5625 -5.078125 Z M -2.5625 -5.078125 "/>
</symbol>
<symbol overflow="visible" id="glyph1-5">
<path style="stroke:none;" d="M -2.40625 -6.15625 C -3.34375 -6.15625 -4.015625 -5.671875 -4.46875 -4.6875 C -5 -5.5625 -5.4375 -5.859375 -6.234375 -5.859375 C -7.578125 -5.859375 -8.515625 -4.8125 -8.515625 -3.296875 C -8.515625 -1.796875 -7.578125 -0.75 -6.234375 -0.75 C -5.453125 -0.75 -5.015625 -1.03125 -4.46875 -1.890625 C -4.015625 -0.921875 -3.34375 -0.4375 -2.40625 -0.4375 C -0.859375 -0.4375 0.1875 -1.625 0.1875 -3.296875 C 0.1875 -4.984375 -0.859375 -6.15625 -2.40625 -6.15625 Z M -6.21875 -4.78125 C -5.421875 -4.78125 -4.890625 -4.1875 -4.890625 -3.296875 C -4.890625 -2.40625 -5.421875 -1.828125 -6.234375 -1.828125 C -7.046875 -1.828125 -7.578125 -2.40625 -7.578125 -3.296875 C -7.578125 -4.203125 -7.046875 -4.78125 -6.21875 -4.78125 Z M -2.390625 -5.078125 C -1.375 -5.078125 -0.75 -4.359375 -0.75 -3.28125 C -0.75 -2.25 -1.390625 -1.53125 -2.390625 -1.53125 C -3.390625 -1.53125 -4.015625 -2.25 -4.015625 -3.296875 C -4.015625 -4.359375 -3.390625 -5.078125 -2.390625 -5.078125 Z M -2.390625 -5.078125 "/>
</symbol>
<symbol overflow="visible" id="glyph1-6">
<path style="stroke:none;" d="M 0 -4.15625 L -8.515625 -4.15625 L -8.515625 -3.46875 C -7.203125 -3.09375 -7.015625 -2.859375 -6.8125 -1.21875 L -6.0625 -1.21875 L -6.0625 -3.109375 L 0 -3.109375 Z M 0 -4.15625 "/>
</symbol>
<symbol overflow="visible" id="glyph1-7">
<path style="stroke:none;" d="M -3.1875 -8.125 L -3.1875 -6.96875 C -1.53125 -6.703125 -0.765625 -6.015625 -0.765625 -4.53125 C -0.765625 -2.796875 -2.09375 -1.6875 -4.28125 -1.6875 C -6.53125 -1.6875 -7.984375 -2.75 -7.984375 -4.4375 C -7.984375 -5.8125 -7.375 -6.53125 -6.03125 -6.796875 L -6.03125 -7.9375 C -7.953125 -7.59375 -8.96875 -6.484375 -8.96875 -4.578125 C -8.96875 -1.921875 -6.828125 -0.578125 -4.265625 -0.578125 C -1.71875 -0.578125 0.21875 -1.953125 0.21875 -4.53125 C 0.21875 -6.65625 -0.90625 -7.859375 -3.1875 -8.125 Z M -3.1875 -8.125 "/>
</symbol>
<symbol overflow="visible" id="glyph1-8">
<path style="stroke:none;" d="M 0 -1.8125 L -8.75 -1.8125 L -8.75 -0.8125 L 0 -0.8125 Z M 0 -1.8125 "/>
</symbol>
<symbol overflow="visible" id="glyph1-9">
<path style="stroke:none;" d="M 0 -5.78125 L -6.28125 -5.78125 L -6.28125 -4.78125 L -2.8125 -4.78125 C -1.53125 -4.78125 -0.703125 -4.109375 -0.703125 -3.078125 C -0.703125 -2.28125 -1.171875 -1.78125 -1.9375 -1.78125 L -6.28125 -1.78125 L -6.28125 -0.78125 L -1.53125 -0.78125 C -0.484375 -0.78125 0.1875 -1.5625 0.1875 -2.78125 C 0.1875 -3.703125 -0.140625 -4.296875 -0.96875 -4.890625 L 0 -4.890625 Z M 0 -5.78125 "/>
</symbol>
<symbol overflow="visible" id="glyph1-10">
<path style="stroke:none;" d="M -1.765625 -5.515625 C -2.703125 -5.515625 -3.171875 -4.984375 -3.46875 -3.734375 L -3.703125 -2.765625 C -3.890625 -1.953125 -4.15625 -1.609375 -4.59375 -1.609375 C -5.171875 -1.609375 -5.546875 -2.125 -5.546875 -2.9375 C -5.546875 -3.75 -5.203125 -4.171875 -4.53125 -4.203125 L -4.53125 -5.25 C -5.765625 -5.25 -6.46875 -4.421875 -6.46875 -2.96875 C -6.46875 -1.515625 -5.71875 -0.5625 -4.546875 -0.5625 C -3.5625 -0.5625 -3.09375 -1.0625 -2.734375 -2.5625 L -2.515625 -3.484375 C -2.34375 -4.1875 -2.140625 -4.46875 -1.6875 -4.46875 C -1.09375 -4.46875 -0.75 -3.875 -0.75 -3 C -0.75 -2.09375 -0.953125 -1.59375 -1.921875 -1.46875 L -1.921875 -0.40625 C -0.46875 -0.453125 0.1875 -1.265625 0.1875 -2.921875 C 0.1875 -4.5 -0.546875 -5.515625 -1.765625 -5.515625 Z M -1.765625 -5.515625 "/>
</symbol>
<symbol overflow="visible" id="glyph1-11">
<path style="stroke:none;" d="M 0 -3.046875 L -0.84375 -3.046875 C -0.796875 -2.921875 -0.796875 -2.765625 -0.796875 -2.5625 C -0.796875 -2.140625 -0.90625 -2.015625 -1.359375 -2.015625 L -5.46875 -2.015625 L -5.46875 -3.046875 L -6.28125 -3.046875 L -6.28125 -2.015625 L -8.015625 -2.015625 L -8.015625 -1.015625 L -6.28125 -1.015625 L -6.28125 -0.171875 L -5.46875 -0.171875 L -5.46875 -1.015625 L -0.90625 -1.015625 C -0.28125 -1.015625 0.078125 -1.453125 0.078125 -2.234375 C 0.078125 -2.46875 0.0625 -2.71875 0 -3.046875 Z M 0 -3.046875 "/>
</symbol>
<symbol overflow="visible" id="glyph1-12">
<path style="stroke:none;" d="M -2.859375 -6.15625 C -3.765625 -6.15625 -4.34375 -6.078125 -4.8125 -5.90625 C -5.84375 -5.5 -6.46875 -4.53125 -6.46875 -3.359375 C -6.46875 -1.609375 -5.171875 -0.484375 -3.109375 -0.484375 C -1.046875 -0.484375 0.1875 -1.578125 0.1875 -3.34375 C 0.1875 -4.78125 -0.640625 -5.765625 -1.90625 -6.03125 L -1.90625 -5.015625 C -1.078125 -4.734375 -0.75 -4.171875 -0.75 -3.375 C -0.75 -2.328125 -1.421875 -1.546875 -2.859375 -1.53125 Z M -3.75 -5.09375 C -3.75 -5.09375 -3.703125 -5.09375 -3.671875 -5.078125 L -3.671875 -1.546875 C -4.78125 -1.625 -5.546875 -2.34375 -5.546875 -3.34375 C -5.546875 -4.328125 -4.734375 -5.09375 -3.75 -5.09375 Z M -3.75 -5.09375 "/>
</symbol>
<symbol overflow="visible" id="glyph1-13">
<path style="stroke:none;" d="M -5.40625 -3.859375 L -6.4375 -3.859375 C -6.453125 -3.6875 -6.46875 -3.59375 -6.46875 -3.46875 C -6.46875 -2.8125 -6.078125 -2.328125 -5.140625 -1.75 L -6.28125 -1.75 L -6.28125 -0.84375 L 0 -0.84375 L 0 -1.84375 L -3.265625 -1.84375 C -4.6875 -1.84375 -5.390625 -2.296875 -5.40625 -3.859375 Z M -5.40625 -3.859375 "/>
</symbol>
<symbol overflow="visible" id="glyph1-14">
<path style="stroke:none;" d="M 0 -1.84375 L -6.28125 -1.84375 L -6.28125 -0.84375 L 0 -0.84375 Z M -7.234375 -1.96875 L -8.484375 -1.96875 L -8.484375 -0.71875 L -7.234375 -0.71875 Z M -7.234375 -1.96875 "/>
</symbol>
<symbol overflow="visible" id="glyph1-15">
<path style="stroke:none;" d="M 0 -5.84375 L -4.75 -5.84375 C -5.796875 -5.84375 -6.46875 -5.0625 -6.46875 -3.859375 C -6.46875 -2.921875 -6.109375 -2.3125 -5.234375 -1.765625 L -6.28125 -1.765625 L -6.28125 -0.84375 L 0 -0.84375 L 0 -1.84375 L -3.46875 -1.84375 C -4.75 -1.84375 -5.59375 -2.53125 -5.59375 -3.546875 C -5.59375 -4.34375 -5.109375 -4.84375 -4.359375 -4.84375 L 0 -4.84375 Z M 0 -5.84375 "/>
</symbol>
<symbol overflow="visible" id="glyph1-16">
<path style="stroke:none;" d="M -1.03125 -5.875 L -6.28125 -5.875 L -6.28125 -4.9375 L -5.375 -4.9375 C -6.125 -4.4375 -6.46875 -3.828125 -6.46875 -3.03125 C -6.46875 -1.421875 -5.125 -0.34375 -3.078125 -0.34375 C -1.109375 -0.34375 0.1875 -1.46875 0.1875 -2.9375 C 0.1875 -3.734375 -0.15625 -4.28125 -0.953125 -4.9375 L -0.53125 -4.9375 C 1.140625 -4.9375 1.78125 -4.265625 1.78125 -3.09375 C 1.78125 -2.296875 1.484375 -1.6875 0.71875 -1.578125 L 0.71875 -0.546875 C 1.90625 -0.65625 2.609375 -1.578125 2.609375 -3.0625 C 2.609375 -5.03125 1.734375 -5.875 -1.03125 -5.875 Z M -3.109375 -4.84375 C -1.609375 -4.84375 -0.75 -4.203125 -0.75 -3.140625 C -0.75 -2.046875 -1.625 -1.390625 -3.140625 -1.390625 C -4.65625 -1.390625 -5.546875 -2.0625 -5.546875 -3.125 C -5.546875 -4.21875 -4.625 -4.84375 -3.109375 -4.84375 Z M -3.109375 -4.84375 "/>
</symbol>
<symbol overflow="visible" id="glyph1-17">
<path style="stroke:none;" d=""/>
</symbol>
<symbol overflow="visible" id="glyph1-18">
<path style="stroke:none;" d="M 2.609375 -5.9375 L -6.28125 -5.9375 L -6.28125 -5.046875 L -5.453125 -5.046875 C -6.109375 -4.578125 -6.46875 -3.875 -6.46875 -3.046875 C -6.46875 -1.390625 -5.15625 -0.3125 -3.078125 -0.3125 C -1.03125 -0.3125 0.1875 -1.34375 0.1875 -3 C 0.1875 -3.875 -0.125 -4.46875 -0.8125 -4.9375 L 2.609375 -4.9375 Z M -3.109375 -4.9375 C -1.671875 -4.9375 -0.75 -4.25 -0.75 -3.1875 C -0.75 -2.09375 -1.6875 -1.359375 -3.140625 -1.359375 C -4.59375 -1.359375 -5.53125 -2.09375 -5.53125 -3.1875 C -5.53125 -4.265625 -4.578125 -4.9375 -3.109375 -4.9375 Z M -3.109375 -4.9375 "/>
</symbol>
<symbol overflow="visible" id="glyph1-19">
<path style="stroke:none;" d="M -0.03125 -6.421875 L -0.78125 -6.421875 C -0.75 -6.3125 -0.75 -6.265625 -0.75 -6.203125 C -0.75 -5.859375 -0.9375 -5.65625 -1.25 -5.65625 L -4.75 -5.65625 C -5.875 -5.65625 -6.46875 -4.84375 -6.46875 -3.296875 C -6.46875 -1.78125 -5.875 -0.84375 -4.421875 -0.78125 L -4.421875 -1.78125 C -5.203125 -1.875 -5.546875 -2.328125 -5.546875 -3.265625 C -5.546875 -4.15625 -5.203125 -4.671875 -4.609375 -4.671875 L -4.34375 -4.671875 C -3.921875 -4.671875 -3.75 -4.421875 -3.640625 -3.625 C -3.46875 -2.203125 -3.421875 -1.984375 -3.265625 -1.609375 C -2.96875 -0.875 -2.40625 -0.5 -1.625 -0.5 C -0.484375 -0.5 0.1875 -1.296875 0.1875 -2.5625 C 0.1875 -3.375 -0.15625 -4.15625 -0.75 -4.703125 C -0.265625 -4.8125 0.078125 -5.25 0.078125 -5.734375 C 0.078125 -5.9375 0.0625 -6.09375 -0.03125 -6.421875 Z M -2.171875 -4.671875 C -1.265625 -4.671875 -0.703125 -3.75 -0.703125 -2.78125 C -0.703125 -2 -0.96875 -1.546875 -1.65625 -1.546875 C -2.3125 -1.546875 -2.609375 -1.984375 -2.765625 -3.0625 C -2.90625 -4.109375 -2.953125 -4.328125 -3.109375 -4.671875 Z M -2.171875 -4.671875 "/>
</symbol>
<symbol overflow="visible" id="glyph1-20">
<path style="stroke:none;" d="M -6.28125 -5.734375 L -6.28125 -4.65625 L -1.390625 -2.921875 L -6.28125 -1.3125 L -6.28125 -0.234375 L 0.03125 -2.359375 L 1.015625 -1.984375 C 1.46875 -1.8125 1.625 -1.609375 1.625 -1.171875 C 1.625 -1.03125 1.609375 -0.859375 1.5625 -0.640625 L 2.453125 -0.640625 C 2.5625 -0.859375 2.609375 -1.0625 2.609375 -1.3125 C 2.609375 -2.03125 2.21875 -2.609375 1.3125 -2.9375 Z M -6.28125 -5.734375 "/>
</symbol>
<symbol overflow="visible" id="glyph2-0">
<path style="stroke:none;" d=""/>
</symbol>
<symbol overflow="visible" id="glyph2-1">
<path style="stroke:none;" d="M 11.171875 0 L 11.171875 -10.5 L 7.921875 -10.5 L 6.078125 -2.140625 L 4.171875 -10.5 L 0.953125 -10.5 L 0.953125 0 L 3.109375 0 L 3.109375 -8.1875 L 5 0 L 7.15625 0 L 9.015625 -8.1875 L 9.015625 0 Z M 11.171875 0 "/>
</symbol>
<symbol overflow="visible" id="glyph2-2">
<path style="stroke:none;" d="M 9.875 -3.59375 L 7.765625 -3.59375 C 7.640625 -2.25 6.78125 -1.640625 5.453125 -1.640625 C 3.78125 -1.640625 2.796875 -2.921875 2.796875 -5.21875 C 2.796875 -7.53125 3.8125 -8.828125 5.515625 -8.828125 C 6.6875 -8.828125 7.453125 -8.296875 7.765625 -6.9375 L 9.828125 -6.9375 C 9.640625 -9.359375 7.8125 -10.671875 5.453125 -10.671875 C 2.484375 -10.671875 0.640625 -8.640625 0.640625 -5.25 C 0.640625 -1.875 2.46875 0.171875 5.390625 0.171875 C 8 0.171875 9.734375 -1.1875 9.875 -3.59375 Z M 9.875 -3.59375 "/>
</symbol>
<symbol overflow="visible" id="glyph2-3">
<path style="stroke:none;" d="M 8.34375 0 L 8.34375 -1.796875 L 3.3125 -1.796875 L 3.3125 -10.5 L 1.15625 -10.5 L 1.15625 0 Z M 8.34375 0 "/>
</symbol>
<symbol overflow="visible" id="glyph2-4">
<path style="stroke:none;" d=""/>
</symbol>
<symbol overflow="visible" id="glyph2-5">
<path style="stroke:none;" d="M 7.71875 -7.78125 L 5.59375 -7.78125 L 4.015625 -2.09375 L 2.328125 -7.78125 L 0.203125 -7.78125 L 2.921875 0 L 5.046875 0 Z M 7.71875 -7.78125 "/>
</symbol>
<symbol overflow="visible" id="glyph2-6">
<path style="stroke:none;" d="M 7.484375 -2.3125 L 7.484375 -2.40625 C 7.484375 -3.296875 6.984375 -3.96875 5.96875 -4.265625 L 3.421875 -5 C 2.859375 -5.15625 2.703125 -5.28125 2.703125 -5.609375 C 2.703125 -6.03125 3.171875 -6.328125 3.875 -6.328125 C 4.84375 -6.328125 5.3125 -5.984375 5.328125 -5.265625 L 7.28125 -5.265625 C 7.25 -6.921875 5.984375 -7.90625 3.890625 -7.90625 C 1.921875 -7.90625 0.6875 -6.921875 0.6875 -5.3125 C 0.6875 -4.359375 0.953125 -3.84375 2.390625 -3.40625 L 4.796875 -2.65625 C 5.296875 -2.5 5.46875 -2.328125 5.46875 -2.125 C 5.46875 -1.640625 4.90625 -1.453125 3.96875 -1.453125 C 3.046875 -1.453125 2.5625 -1.625 2.390625 -2.46875 L 0.421875 -2.46875 C 0.46875 -0.765625 1.734375 0.125 4.09375 0.125 C 6.28125 0.125 7.484375 -0.734375 7.484375 -2.3125 Z M 7.484375 -2.3125 "/>
</symbol>
<symbol overflow="visible" id="glyph2-7">
<path style="stroke:none;" d="M 3.078125 0 L 3.078125 -2.109375 L 0.921875 -2.109375 L 0.921875 0 Z M 3.078125 0 "/>
</symbol>
<symbol overflow="visible" id="glyph2-8">
<path style="stroke:none;" d="M 9.8125 -5.265625 C 9.8125 -6.875 9.359375 -8.296875 8.53125 -9.296875 C 7.828125 -10.140625 6.828125 -10.5 5.21875 -10.5 L 1.109375 -10.5 L 1.109375 0 L 5.21875 0 C 6.8125 0 7.8125 -0.375 8.53125 -1.21875 C 9.34375 -2.203125 9.8125 -3.625 9.8125 -5.265625 Z M 7.65625 -5.25 C 7.65625 -2.9375 6.84375 -1.796875 5.21875 -1.796875 L 3.265625 -1.796875 L 3.265625 -8.703125 L 5.21875 -8.703125 C 6.84375 -8.703125 7.65625 -7.5625 7.65625 -5.25 Z M 7.65625 -5.25 "/>
</symbol>
<symbol overflow="visible" id="glyph2-9">
<path style="stroke:none;" d="M 9.125 -3.15625 C 9.125 -4.8125 8.28125 -5.59375 6.34375 -5.96875 L 4.703125 -6.28125 C 3.15625 -6.578125 2.703125 -6.890625 2.703125 -7.65625 C 2.703125 -8.4375 3.421875 -8.953125 4.53125 -8.953125 C 5.890625 -8.953125 6.734375 -8.375 6.734375 -7.296875 L 8.75 -7.296875 C 8.75 -9.515625 7.1875 -10.671875 4.625 -10.671875 C 2.109375 -10.671875 0.640625 -9.5 0.640625 -7.453125 C 0.640625 -5.8125 1.46875 -5.046875 3.59375 -4.625 L 5.078125 -4.34375 C 6.515625 -4.046875 7.046875 -3.75 7.046875 -2.890625 C 7.046875 -2.015625 6.234375 -1.5625 4.921875 -1.5625 C 3.453125 -1.5625 2.5625 -2.171875 2.5625 -3.296875 L 0.46875 -3.296875 C 0.46875 -1.046875 2.125 0.171875 4.8125 0.171875 C 7.515625 0.171875 9.125 -1.015625 9.125 -3.15625 Z M 9.125 -3.15625 "/>
</symbol>
<symbol overflow="visible" id="glyph2-10">
<path style="stroke:none;" d="M 5.453125 0 L 5.453125 -10.21875 L 4.109375 -10.21875 C 3.78125 -9 2.734375 -8.390625 0.984375 -8.390625 L 0.984375 -7.046875 L 3.421875 -7.046875 L 3.421875 0 Z M 5.453125 0 "/>
</symbol>
<symbol overflow="visible" id="glyph2-11">
<path style="stroke:none;" d="M 4.1875 -10.28125 L 2.796875 -10.28125 L -0.171875 0.203125 L 1.21875 0.203125 Z M 4.1875 -10.28125 "/>
</symbol>
<symbol overflow="visible" id="glyph2-12">
<path style="stroke:none;" d="M 8.328125 0 L 8.328125 -1.796875 L 2.96875 -1.796875 L 8.328125 -8.703125 L 8.328125 -10.5 L 0.4375 -10.5 L 0.4375 -8.703125 L 5.8125 -8.703125 L 0.4375 -1.796875 L 0.4375 0 Z M 8.328125 0 "/>
</symbol>
<symbol overflow="visible" id="glyph2-13">
<path style="stroke:none;" d="M 7.546875 0 L 7.546875 -0.25 C 7.1875 -0.578125 7.09375 -0.796875 7.09375 -1.203125 L 7.09375 -5.515625 C 7.09375 -7.109375 6 -7.90625 3.90625 -7.90625 C 1.796875 -7.90625 0.703125 -7.015625 0.578125 -5.21875 L 2.515625 -5.21875 C 2.625 -6.015625 2.953125 -6.28125 3.953125 -6.28125 C 4.71875 -6.28125 5.109375 -6.015625 5.109375 -5.5 C 5.109375 -4.6875 4.515625 -4.765625 3.5 -4.59375 L 2.6875 -4.453125 C 1.15625 -4.171875 0.40625 -3.515625 0.40625 -2.109375 C 0.40625 -0.59375 1.46875 0.125 2.765625 0.125 C 3.625 0.125 4.421875 -0.25 5.125 -0.984375 C 5.125 -0.578125 5.171875 -0.234375 5.359375 0 Z M 5.109375 -3.328125 C 5.109375 -2.15625 4.53125 -1.5 3.515625 -1.5 C 2.84375 -1.5 2.421875 -1.75 2.421875 -2.328125 C 2.421875 -2.921875 2.734375 -3.140625 3.578125 -3.296875 L 4.265625 -3.421875 C 4.796875 -3.53125 4.890625 -3.5625 5.109375 -3.671875 Z M 5.109375 -3.328125 "/>
</symbol>
<symbol overflow="visible" id="glyph2-14">
<path style="stroke:none;" d="M 7.515625 -2.6875 L 5.59375 -2.6875 C 5.328125 -1.890625 4.921875 -1.5 4.15625 -1.5 C 3.125 -1.5 2.5 -2.3125 2.5 -3.828125 C 2.5 -5.265625 2.875 -6.28125 4.15625 -6.28125 C 4.96875 -6.28125 5.359375 -5.890625 5.59375 -4.875 L 7.515625 -4.875 C 7.375 -6.765625 6.109375 -7.90625 4.15625 -7.90625 C 1.84375 -7.90625 0.484375 -6.484375 0.484375 -3.828125 C 0.484375 -1.265625 1.828125 0.125 4.140625 0.125 C 6.015625 0.125 7.328125 -1.03125 7.515625 -2.6875 Z M 7.515625 -2.6875 "/>
</symbol>
<symbol overflow="visible" id="glyph2-15">
<path style="stroke:none;" d="M 7.796875 0 L 7.796875 -5.21875 C 7.796875 -7.03125 6.734375 -7.90625 5.265625 -7.90625 C 4.265625 -7.90625 3.546875 -7.5 2.984375 -6.65625 L 2.984375 -10.5 L 0.96875 -10.5 L 0.96875 0 L 2.984375 0 L 2.984375 -4.671875 C 2.984375 -5.5625 3.625 -6.1875 4.53125 -6.1875 C 5.265625 -6.1875 5.78125 -5.8125 5.78125 -4.75 L 5.78125 0 Z M 7.796875 0 "/>
</symbol>
<symbol overflow="visible" id="glyph2-16">
<path style="stroke:none;" d="M 5.328125 -5.84375 L 5.328125 -7.890625 C 5.21875 -7.90625 5.140625 -7.90625 5.078125 -7.90625 C 4.15625 -7.90625 3.359375 -7.296875 2.921875 -6.25 L 2.921875 -7.78125 L 0.90625 -7.78125 L 0.90625 0 L 2.921875 0 L 2.921875 -4.140625 C 2.921875 -5.3125 3.515625 -5.90625 4.703125 -5.90625 C 4.90625 -5.90625 5.0625 -5.890625 5.328125 -5.84375 Z M 5.328125 -5.84375 "/>
</symbol>
<symbol overflow="visible" id="glyph2-17">
<path style="stroke:none;" d="M 7.75 -7.78125 L 5.671875 -7.78125 L 4.0625 -2.125 L 2.34375 -7.78125 L 0.125 -7.78125 L 3.03125 0.328125 L 3.03125 0.375 C 3.03125 1.109375 2.484375 1.671875 1.765625 1.671875 C 1.609375 1.671875 1.5 1.65625 1.234375 1.578125 L 1.234375 3.09375 C 1.546875 3.140625 1.71875 3.15625 1.953125 3.15625 C 3.3125 3.15625 4.015625 2.90625 4.546875 1.421875 Z M 7.75 -7.78125 "/>
</symbol>
<symbol overflow="visible" id="glyph2-18">
<path style="stroke:none;" d="M 8.328125 2.71875 L 8.328125 1.734375 L -0.3125 1.734375 L -0.3125 2.71875 Z M 8.328125 2.71875 "/>
</symbol>
<symbol overflow="visible" id="glyph2-19">
<path style="stroke:none;" d="M 7.890625 0 L 5.0625 -4.84375 L 7.703125 -7.78125 L 5.421875 -7.78125 L 2.859375 -4.75 L 2.859375 -10.5 L 0.84375 -10.5 L 0.84375 0 L 2.859375 0 L 2.859375 -2.546875 L 3.671875 -3.421875 L 5.53125 0 Z M 7.890625 0 "/>
</symbol>
<symbol overflow="visible" id="glyph2-20">
<path style="stroke:none;" d="M 4.34375 0 L 4.34375 -1.40625 C 4.140625 -1.390625 4.015625 -1.375 3.875 -1.375 C 3.34375 -1.375 3.21875 -1.53125 3.21875 -2.21875 L 3.21875 -6.28125 L 4.34375 -6.28125 L 4.34375 -7.625 L 3.21875 -7.625 L 3.21875 -9.703125 L 1.203125 -9.703125 L 1.203125 -7.625 L 0.203125 -7.625 L 0.203125 -6.28125 L 1.203125 -6.28125 L 1.203125 -1.671875 C 1.203125 -0.453125 1.84375 0.0625 3.171875 0.0625 C 3.609375 0.0625 3.96875 0.015625 4.34375 0 Z M 4.34375 0 "/>
</symbol>
<symbol overflow="visible" id="glyph2-21">
<path style="stroke:none;" d="M 7.5625 -3.59375 C 7.5625 -6.28125 6.203125 -7.90625 3.921875 -7.90625 C 1.6875 -7.90625 0.3125 -6.390625 0.3125 -3.78125 C 0.3125 -1.296875 1.671875 0.125 3.875 0.125 C 5.625 0.125 7.03125 -0.65625 7.484375 -2.1875 L 5.484375 -2.1875 C 5.3125 -1.625 4.6875 -1.40625 3.953125 -1.40625 C 3 -1.40625 2.390625 -1.84375 2.328125 -3.359375 L 7.546875 -3.359375 Z M 5.453125 -4.703125 L 2.359375 -4.703125 C 2.5 -5.78125 3 -6.375 3.890625 -6.375 C 4.75 -6.375 5.359375 -5.8125 5.453125 -4.703125 Z M 5.453125 -4.703125 "/>
</symbol>
<symbol overflow="visible" id="glyph2-22">
<path style="stroke:none;" d="M 2.984375 0 L 2.984375 -10.5 L 0.96875 -10.5 L 0.96875 0 Z M 2.984375 0 "/>
</symbol>
<symbol overflow="visible" id="glyph2-23">
<path style="stroke:none;" d="M 7.796875 0 L 7.796875 -7.78125 L 5.78125 -7.78125 L 5.78125 -3.109375 C 5.78125 -2.1875 5.125 -1.578125 4.15625 -1.578125 C 3.28125 -1.578125 2.859375 -2.046875 2.859375 -2.984375 L 2.859375 -7.78125 L 0.828125 -7.78125 L 0.828125 -2.5625 C 0.828125 -0.84375 1.78125 0.125 3.4375 0.125 C 4.5 0.125 5.203125 -0.265625 5.78125 -1.015625 L 5.78125 0 Z M 7.796875 0 "/>
</symbol>
<symbol overflow="visible" id="glyph2-24">
<path style="stroke:none;" d="M 8.28125 -3.78125 C 8.28125 -6 7.0625 -7.90625 5.015625 -7.90625 C 4.046875 -7.90625 3.359375 -7.546875 2.859375 -6.765625 L 2.859375 -10.5 L 0.84375 -10.5 L 0.84375 0 L 2.859375 0 L 2.859375 -0.890625 C 3.359375 -0.234375 4.03125 0.125 5.015625 0.125 C 6.875 0.125 8.28125 -1.4375 8.28125 -3.78125 Z M 6.265625 -3.875 C 6.265625 -2.46875 5.5625 -1.5625 4.5625 -1.5625 C 3.546875 -1.5625 2.859375 -2.4375 2.859375 -3.921875 C 2.859375 -5.328125 3.5625 -6.21875 4.5625 -6.21875 C 5.5625 -6.21875 6.265625 -5.3125 6.265625 -3.875 Z M 6.265625 -3.875 "/>
</symbol>
<symbol overflow="visible" id="glyph2-25">
<path style="stroke:none;" d="M 2.984375 0 L 2.984375 -7.78125 L 0.96875 -7.78125 L 0.96875 0 Z M 3.015625 -8.71875 L 3.015625 -10.734375 L 1 -10.734375 L 1 -8.71875 Z M 3.015625 -8.71875 "/>
</symbol>
<symbol overflow="visible" id="glyph2-26">
<path style="stroke:none;" d="M 11.875 0 L 11.875 -5.5 C 11.875 -7.015625 10.953125 -7.90625 9.390625 -7.90625 C 8.40625 -7.90625 7.71875 -7.5625 7.109375 -6.75 C 6.734375 -7.484375 5.96875 -7.90625 5 -7.90625 C 4.109375 -7.90625 3.53125 -7.609375 2.859375 -6.8125 L 2.859375 -7.78125 L 0.859375 -7.78125 L 0.859375 0 L 2.875 0 L 2.875 -4.671875 C 2.875 -5.625 3.40625 -6.1875 4.265625 -6.1875 C 4.9375 -6.1875 5.359375 -5.8125 5.359375 -5.1875 L 5.359375 0 L 7.375 0 L 7.375 -4.671875 C 7.375 -5.625 7.890625 -6.1875 8.765625 -6.1875 C 9.4375 -6.1875 9.859375 -5.8125 9.859375 -5.1875 L 9.859375 0 Z M 11.875 0 "/>
</symbol>
<symbol overflow="visible" id="glyph2-27">
<path style="stroke:none;" d="M 7.703125 0 L 5.109375 -3.921875 L 7.65625 -7.78125 L 5.234375 -7.78125 L 3.96875 -5.4375 L 2.703125 -7.78125 L 0.28125 -7.78125 L 2.828125 -3.921875 L 0.234375 0 L 2.65625 0 L 3.96875 -2.421875 L 5.28125 0 Z M 7.703125 0 "/>
</symbol>
<symbol overflow="visible" id="glyph2-28">
<path style="stroke:none;" d="M 8.265625 -3.890625 C 8.265625 -6.1875 7.046875 -7.90625 5.015625 -7.90625 C 4.03125 -7.90625 3.34375 -7.484375 2.859375 -6.625 L 2.859375 -7.78125 L 0.828125 -7.78125 L 0.828125 3.140625 L 2.859375 3.140625 L 2.859375 -1.03125 C 3.34375 -0.171875 4.03125 0.125 5.015625 0.125 C 6.890625 0.125 8.265625 -1.53125 8.265625 -3.890625 Z M 6.25 -3.859375 C 6.25 -2.453125 5.546875 -1.5625 4.546875 -1.5625 C 3.546875 -1.5625 2.859375 -2.4375 2.859375 -3.890625 C 2.859375 -5.34375 3.546875 -6.21875 4.546875 -6.21875 C 5.578125 -6.21875 6.25 -5.34375 6.25 -3.859375 Z M 6.25 -3.859375 "/>
</symbol>
<symbol overflow="visible" id="glyph2-29">
<path style="stroke:none;" d="M 9.75 0 L 9.75 -0.390625 C 9.421875 -0.578125 9.296875 -0.796875 9.296875 -1.25 C 9.234375 -4.34375 9.171875 -4.5 7.84375 -5.078125 C 9.015625 -5.53125 9.609375 -6.375 9.609375 -7.671875 C 9.609375 -9.296875 8.640625 -10.5 6.78125 -10.5 L 1.15625 -10.5 L 1.15625 0 L 3.3125 0 L 3.3125 -4.15625 L 5.796875 -4.15625 C 6.734375 -4.15625 7.125 -3.78125 7.125 -2.90625 L 7.109375 -1.796875 C 7.109375 -0.828125 7.15625 -0.5 7.4375 0 Z M 7.453125 -7.359375 C 7.453125 -6.421875 7.140625 -5.96875 5.921875 -5.96875 L 3.3125 -5.96875 L 3.3125 -8.703125 L 5.921875 -8.703125 C 7.109375 -8.703125 7.453125 -8.265625 7.453125 -7.359375 Z M 7.453125 -7.359375 "/>
</symbol>
<symbol overflow="visible" id="glyph2-30">
<path style="stroke:none;" d="M 8.203125 -3.828125 C 8.203125 -6.46875 6.765625 -7.90625 4.34375 -7.90625 C 1.953125 -7.90625 0.5 -6.4375 0.5 -3.890625 C 0.5 -1.328125 1.953125 0.125 4.34375 0.125 C 6.71875 0.125 8.203125 -1.34375 8.203125 -3.828125 Z M 6.1875 -3.859375 C 6.1875 -2.40625 5.4375 -1.5 4.34375 -1.5 C 3.25 -1.5 2.515625 -2.40625 2.515625 -3.890625 C 2.515625 -5.375 3.25 -6.28125 4.34375 -6.28125 C 5.453125 -6.28125 6.1875 -5.390625 6.1875 -3.859375 Z M 6.1875 -3.859375 "/>
</symbol>
<symbol overflow="visible" id="glyph2-31">
<path style="stroke:none;" d="M 11.03125 -7.78125 L 8.953125 -7.78125 L 7.765625 -2.328125 L 6.59375 -7.78125 L 4.578125 -7.78125 L 3.40625 -2.328125 L 2.15625 -7.78125 L 0.078125 -7.78125 L 2.265625 0 L 4.34375 0 L 5.578125 -5.484375 L 6.734375 0 L 8.828125 0 Z M 11.03125 -7.78125 "/>
</symbol>
</g>
<clipPath id="clip1">
  <path d="M 59.039062 59.039062 L 296 59.039062 L 296 175 L 59.039062 175 Z M 59.039062 59.039062 "/>
</clipPath>
</defs>
<g id="surface1">
<rect x="0" y="0" width="504" height="504" style="fill:rgb(100%,100%,100%);fill-opacity:1;stroke:none;"/>
<path style="fill-rule:nonzero;fill:rgb(0%,0%,0%);fill-opacity:1;stroke-width:0.75;stroke-linecap:round;stroke-linejoin:round;stroke:rgb(0%,0%,0%);stroke-opacity:1;stroke-miterlimit:10;" d="M 118.867188 344.941406 C 118.867188 347.34375 115.265625 347.34375 115.265625 344.941406 C 115.265625 342.542969 118.867188 342.542969 118.867188 344.941406 "/>
<path style="fill-rule:nonzero;fill:rgb(0%,0%,0%);fill-opacity:1;stroke-width:0.75;stroke-linecap:round;stroke-linejoin:round;stroke:rgb(0%,0%,0%);stroke-opacity:1;stroke-miterlimit:10;" d="M 161.535156 310.925781 C 161.535156 313.324219 157.933594 313.324219 157.933594 310.925781 C 157.933594 308.523438 161.535156 308.523438 161.535156 310.925781 "/>
<path style="fill-rule:nonzero;fill:rgb(0%,0%,0%);fill-opacity:1;stroke-width:0.75;stroke-linecap:round;stroke-linejoin:round;stroke:rgb(0%,0%,0%);stroke-opacity:1;stroke-miterlimit:10;" d="M 76.199219 378.960938 C 76.199219 381.359375 72.601562 381.359375 72.601562 378.960938 C 72.601562 376.558594 76.199219 376.558594 76.199219 378.960938 "/>
<path style="fill-rule:nonzero;fill:rgb(0%,0%,0%);fill-opacity:1;stroke-width:0.75;stroke-linecap:round;stroke-linejoin:round;stroke:rgb(0%,0%,0%);stroke-opacity:1;stroke-miterlimit:10;" d="M 246.867188 242.890625 C 246.867188 245.289062 243.265625 245.289062 243.265625 242.890625 C 243.265625 240.488281 246.867188 240.488281 246.867188 242.890625 "/>
<path style="fill-rule:nonzero;fill:rgb(0%,0%,0%);fill-opacity:1;stroke-width:0.75;stroke-linecap:round;stroke-linejoin:round;stroke:rgb(0%,0%,0%);stroke-opacity:1;stroke-miterlimit:10;" d="M 204.199219 276.90625 C 204.199219 279.308594 200.601562 279.308594 200.601562 276.90625 C 200.601562 274.507812 204.199219 274.507812 204.199219 276.90625 "/>
<path style="fill-rule:nonzero;fill:rgb(0%,0%,0%);fill-opacity:1;stroke-width:0.75;stroke-linecap:round;stroke-linejoin:round;stroke:rgb(0%,0%,0%);stroke-opacity:1;stroke-miterlimit:10;" d="M 289.535156 208.871094 C 289.535156 211.269531 285.933594 211.269531 285.933594 208.871094 C 285.933594 206.472656 289.535156 206.472656 289.535156 208.871094 "/>
<path style="fill-rule:nonzero;fill:rgb(0%,0%,0%);fill-opacity:1;stroke-width:0.75;stroke-linecap:round;stroke-linejoin:round;stroke:rgb(0%,0%,0%);stroke-opacity:1;stroke-miterlimit:10;" d="M 332.199219 174.851562 C 332.199219 177.253906 328.601562 177.253906 328.601562 174.851562 C 328.601562 172.453125 332.199219 172.453125 332.199219 174.851562 "/>
<path style="fill-rule:nonzero;fill:rgb(0%,0%,0%);fill-opacity:1;stroke-width:0.75;stroke-linecap:round;stroke-linejoin:round;stroke:rgb(0%,0%,0%);stroke-opacity:1;stroke-miterlimit:10;" d="M 374.867188 140.835938 C 374.867188 143.234375 371.265625 143.234375 371.265625 140.835938 C 371.265625 138.4375 374.867188 138.4375 374.867188 140.835938 "/>
<path style="fill-rule:nonzero;fill:rgb(0%,0%,0%);fill-opacity:1;stroke-width:0.75;stroke-linecap:round;stroke-linejoin:round;stroke:rgb(0%,0%,0%);stroke-opacity:1;stroke-miterlimit:10;" d="M 417.535156 106.816406 C 417.535156 109.21875 413.933594 109.21875 413.933594 106.816406 C 413.933594 104.417969 417.535156 104.417969 417.535156 106.816406 "/>
<path style="fill-rule:nonzero;fill:rgb(0%,0%,0%);fill-opacity:1;stroke-width:0.75;stroke-linecap:round;stroke-linejoin:round;stroke:rgb(0%,0%,0%);stroke-opacity:1;stroke-miterlimit:10;" d="M 460.199219 72.800781 C 460.199219 75.199219 456.601562 75.199219 456.601562 72.800781 C 456.601562 70.398438 460.199219 70.398438 460.199219 72.800781 "/>
<path style="fill:none;stroke-width:0.75;stroke-linecap:round;stroke-linejoin:round;stroke:rgb(0%,0%,0%);stroke-opacity:1;stroke-miterlimit:10;" d="M 117.066406 430.558594 L 458.398438 430.558594 "/>
<path style="fill:none;stroke-width:0.75;stroke-linecap:round;stroke-linejoin:round;stroke:rgb(0%,0%,0%);stroke-opacity:1;stroke-miterlimit:10;" d="M 117.066406 430.558594 L 117.066406 437.761719 "/>
<path style="fill:none;stroke-width:0.75;stroke-linecap:round;stroke-linejoin:round;stroke:rgb(0%,0%,0%);stroke-opacity:1;stroke-miterlimit:10;" d="M 202.398438 430.558594 L 202.398438 437.761719 "/>
<path style="fill:none;stroke-width:0.75;stroke-linecap:round;stroke-linejoin:round;stroke:rgb(0%,0%,0%);stroke-opacity:1;stroke-miterlimit:10;" d="M 287.734375 430.558594 L 287.734375 437.761719 "/>
<path style="fill:none;stroke-width:0.75;stroke-linecap:round;stroke-linejoin:round;stroke:rgb(0%,0%,0%);stroke-opacity:1;stroke-miterlimit:10;" d="M 373.066406 430.558594 L 373.066406 437.761719 "/>
<path style="fill:none;stroke-width:0.75;stroke-linecap:round;stroke-linejoin:round;stroke:rgb(0%,0%,0%);stroke-opacity:1;stroke-miterlimit:10;" d="M 458.398438 430.558594 L 458.398438 437.761719 "/>
<g style="fill:rgb(0%,0%,0%);fill-opacity:1;">
  <use xlink:href="#glyph0-1" x="113.566406" y="456.256836"/>
</g>
<g style="fill:rgb(0%,0%,0%);fill-opacity:1;">
  <use xlink:href="#glyph0-2" x="198.898438" y="456.256836"/>
</g>
<g style="fill:rgb(0%,0%,0%);fill-opacity:1;">
  <use xlink:href="#glyph0-3" x="284.234375" y="456.256836"/>
</g>
<g style="fill:rgb(0%,0%,0%);fill-opacity:1;">
  <use xlink:href="#glyph0-4" x="369.566406" y="456.256836"/>
</g>
<g style="fill:rgb(0%,0%,0%);fill-opacity:1;">
  <use xlink:href="#glyph0-5" x="451.398438" y="456.256836"/>
  <use xlink:href="#glyph0-6" x="458.070312" y="456.256836"/>
</g>
<path style="fill:none;stroke-width:0.75;stroke-linecap:round;stroke-linejoin:round;stroke:rgb(0%,0%,0%);stroke-opacity:1;stroke-miterlimit:10;" d="M 59.039062 416.800781 L 59.039062 72.800781 "/>
<path style="fill:none;stroke-width:0.75;stroke-linecap:round;stroke-linejoin:round;stroke:rgb(0%,0%,0%);stroke-opacity:1;stroke-miterlimit:10;" d="M 59.039062 416.800781 L 51.839844 416.800781 "/>
<path style="fill:none;stroke-width:0.75;stroke-linecap:round;stroke-linejoin:round;stroke:rgb(0%,0%,0%);stroke-opacity:1;stroke-miterlimit:10;" d="M 59.039062 348 L 51.839844 348 "/>
<path style="fill:none;stroke-width:0.75;stroke-linecap:round;stroke-linejoin:round;stroke:rgb(0%,0%,0%);stroke-opacity:1;stroke-miterlimit:10;" d="M 59.039062 279.199219 L 51.839844 279.199219 "/>
<path style="fill:none;stroke-width:0.75;stroke-linecap:round;stroke-linejoin:round;stroke:rgb(0%,0%,0%);stroke-opacity:1;stroke-miterlimit:10;" d="M 59.039062 210.398438 L 51.839844 210.398438 "/>
<path style="fill:none;stroke-width:0.75;stroke-linecap:round;stroke-linejoin:round;stroke:rgb(0%,0%,0%);stroke-opacity:1;stroke-miterlimit:10;" d="M 59.039062 141.601562 L 51.839844 141.601562 "/>
<path style="fill:none;stroke-width:0.75;stroke-linecap:round;stroke-linejoin:round;stroke:rgb(0%,0%,0%);stroke-opacity:1;stroke-miterlimit:10;" d="M 59.039062 72.800781 L 51.839844 72.800781 "/>
<g style="fill:rgb(0%,0%,0%);fill-opacity:1;">
  <use xlink:href="#glyph1-1" x="41.538086" y="420.300781"/>
</g>
<g style="fill:rgb(0%,0%,0%);fill-opacity:1;">
  <use xlink:href="#glyph1-2" x="41.538086" y="351.5"/>
</g>
<g style="fill:rgb(0%,0%,0%);fill-opacity:1;">
  <use xlink:href="#glyph1-3" x="41.538086" y="282.699219"/>
</g>
<g style="fill:rgb(0%,0%,0%);fill-opacity:1;">
  <use xlink:href="#glyph1-4" x="41.538086" y="213.898438"/>
</g>
<g style="fill:rgb(0%,0%,0%);fill-opacity:1;">
  <use xlink:href="#glyph1-5" x="41.538086" y="145.101562"/>
</g>
<g style="fill:rgb(0%,0%,0%);fill-opacity:1;">
  <use xlink:href="#glyph1-6" x="41.538086" y="79.800781"/>
  <use xlink:href="#glyph1-1" x="41.538086" y="73.128906"/>
</g>
<path style="fill:none;stroke-width:0.75;stroke-linecap:round;stroke-linejoin:round;stroke:rgb(0%,0%,0%);stroke-opacity:1;stroke-miterlimit:10;" d="M 59.039062 430.558594 L 473.761719 430.558594 L 473.761719 59.039062 L 59.039062 59.039062 L 59.039062 430.558594 "/>
<g style="fill:rgb(0%,0%,0%);fill-opacity:1;">
  <use xlink:href="#glyph2-1" x="38.398438" y="34.21875"/>
  <use xlink:href="#glyph2-2" x="50.393555" y="34.21875"/>
  <use xlink:href="#glyph2-3" x="60.790039" y="34.21875"/>
  <use xlink:href="#glyph2-4" x="69.587891" y="34.21875"/>
  <use xlink:href="#glyph2-5" x="73.59082" y="34.21875"/>
  <use xlink:href="#glyph2-6" x="81.380859" y="34.21875"/>
  <use xlink:href="#glyph2-7" x="89.386719" y="34.21875"/>
  <use xlink:href="#glyph2-4" x="93.389648" y="34.21875"/>
  <use xlink:href="#glyph2-8" x="97.392578" y="34.21875"/>
  <use xlink:href="#glyph2-9" x="107.789062" y="34.21875"/>
  <use xlink:href="#glyph2-10" x="117.393555" y="34.21875"/>
  <use xlink:href="#glyph2-11" x="125.399414" y="34.21875"/>
  <use xlink:href="#glyph2-12" x="129.402344" y="34.21875"/>
  <use xlink:href="#glyph2-13" x="138.200195" y="34.21875"/>
  <use xlink:href="#glyph2-14" x="146.206055" y="34.21875"/>
  <use xlink:href="#glyph2-15" x="154.211914" y="34.21875"/>
  <use xlink:href="#glyph2-13" x="163.009766" y="34.21875"/>
  <use xlink:href="#glyph2-16" x="171.015625" y="34.21875"/>
  <use xlink:href="#glyph2-17" x="176.977539" y="34.21875"/>
  <use xlink:href="#glyph2-18" x="184.983398" y="34.21875"/>
  <use xlink:href="#glyph2-19" x="192.989258" y="34.21875"/>
  <use xlink:href="#glyph2-13" x="200.995117" y="34.21875"/>
  <use xlink:href="#glyph2-16" x="209.000977" y="34.21875"/>
  <use xlink:href="#glyph2-13" x="214.674805" y="34.21875"/>
  <use xlink:href="#glyph2-20" x="222.680664" y="34.21875"/>
  <use xlink:href="#glyph2-21" x="227.40332" y="34.21875"/>
  <use xlink:href="#glyph2-18" x="235.40918" y="34.21875"/>
  <use xlink:href="#glyph2-14" x="243.415039" y="34.21875"/>
  <use xlink:href="#glyph2-22" x="251.420898" y="34.21875"/>
  <use xlink:href="#glyph2-23" x="255.423828" y="34.21875"/>
  <use xlink:href="#glyph2-24" x="264.22168" y="34.21875"/>
  <use xlink:href="#glyph2-18" x="273.019531" y="34.21875"/>
  <use xlink:href="#glyph2-6" x="281.025391" y="34.21875"/>
  <use xlink:href="#glyph2-25" x="289.03125" y="34.21875"/>
  <use xlink:href="#glyph2-26" x="293.03418" y="34.21875"/>
  <use xlink:href="#glyph2-25" x="305.834961" y="34.21875"/>
  <use xlink:href="#glyph2-22" x="309.837891" y="34.21875"/>
  <use xlink:href="#glyph2-13" x="313.84082" y="34.21875"/>
  <use xlink:href="#glyph2-16" x="321.84668" y="34.21875"/>
  <use xlink:href="#glyph2-25" x="327.448242" y="34.21875"/>
  <use xlink:href="#glyph2-20" x="331.451172" y="34.21875"/>
  <use xlink:href="#glyph2-25" x="336.246094" y="34.21875"/>
  <use xlink:href="#glyph2-21" x="340.249023" y="34.21875"/>
  <use xlink:href="#glyph2-6" x="348.254883" y="34.21875"/>
  <use xlink:href="#glyph2-7" x="356.260742" y="34.21875"/>
  <use xlink:href="#glyph2-20" x="360.263672" y="34.21875"/>
  <use xlink:href="#glyph2-27" x="365.058594" y="34.21875"/>
  <use xlink:href="#glyph2-20" x="373.064453" y="34.21875"/>
  <use xlink:href="#glyph2-7" x="377.859375" y="34.21875"/>
  <use xlink:href="#glyph2-5" x="381.862305" y="34.21875"/>
  <use xlink:href="#glyph2-10" x="389.868164" y="34.21875"/>
  <use xlink:href="#glyph2-7" x="397.874023" y="34.21875"/>
  <use xlink:href="#glyph2-6" x="401.876953" y="34.21875"/>
  <use xlink:href="#glyph2-20" x="409.882812" y="34.21875"/>
  <use xlink:href="#glyph2-16" x="414.677734" y="34.21875"/>
  <use xlink:href="#glyph2-25" x="420.279297" y="34.21875"/>
  <use xlink:href="#glyph2-28" x="424.282227" y="34.21875"/>
  <use xlink:href="#glyph2-7" x="433.080078" y="34.21875"/>
  <use xlink:href="#glyph2-29" x="437.083008" y="34.21875"/>
  <use xlink:href="#glyph2-30" x="447.407227" y="34.21875"/>
  <use xlink:href="#glyph2-31" x="456.060547" y="34.21875"/>
  <use xlink:href="#glyph2-9" x="467.263672" y="34.21875"/>
  <use xlink:href="#glyph2-25" x="476.868164" y="34.21875"/>
  <use xlink:href="#glyph2-26" x="480.871094" y="34.21875"/>
</g>
<g style="fill:rgb(0%,0%,0%);fill-opacity:1;">
  <use xlink:href="#glyph0-7" x="264.398438" y="485.057617"/>
</g>
<g style="fill:rgb(0%,0%,0%);fill-opacity:1;">
  <use xlink:href="#glyph1-7" x="12.737305" y="290.800781"/>
  <use xlink:href="#glyph1-8" x="12.737305" y="282.136719"/>
  <use xlink:href="#glyph1-9" x="12.737305" y="279.472656"/>
  <use xlink:href="#glyph1-10" x="12.737305" y="272.800781"/>
  <use xlink:href="#glyph1-11" x="12.737305" y="266.860352"/>
  <use xlink:href="#glyph1-12" x="12.737305" y="263.704102"/>
  <use xlink:href="#glyph1-13" x="12.737305" y="257.032227"/>
  <use xlink:href="#glyph1-14" x="12.737305" y="253.036133"/>
  <use xlink:href="#glyph1-15" x="12.737305" y="250.37207"/>
  <use xlink:href="#glyph1-16" x="12.737305" y="243.700195"/>
  <use xlink:href="#glyph1-17" x="12.737305" y="237.02832"/>
  <use xlink:href="#glyph1-18" x="12.737305" y="233.692383"/>
  <use xlink:href="#glyph1-9" x="12.737305" y="226.960938"/>
  <use xlink:href="#glyph1-19" x="12.737305" y="220.289062"/>
  <use xlink:href="#glyph1-8" x="12.737305" y="213.617188"/>
  <use xlink:href="#glyph1-14" x="12.737305" y="210.953125"/>
  <use xlink:href="#glyph1-11" x="12.737305" y="208.289062"/>
  <use xlink:href="#glyph1-20" x="12.737305" y="204.953125"/>
</g>
<path style="fill-rule:nonzero;fill:rgb(100%,0%,0%);fill-opacity:1;stroke-width:0.75;stroke-linecap:round;stroke-linejoin:round;stroke:rgb(100%,0%,0%);stroke-opacity:1;stroke-miterlimit:10;" d="M 118.867188 388.121094 C 118.867188 390.523438 115.265625 390.523438 115.265625 388.121094 C 115.265625 385.722656 118.867188 385.722656 118.867188 388.121094 "/>
<path style="fill-rule:nonzero;fill:rgb(100%,0%,0%);fill-opacity:1;stroke-width:0.75;stroke-linecap:round;stroke-linejoin:round;stroke:rgb(100%,0%,0%);stroke-opacity:1;stroke-miterlimit:10;" d="M 161.535156 388.121094 C 161.535156 390.523438 157.933594 390.523438 157.933594 388.121094 C 157.933594 385.722656 161.535156 385.722656 161.535156 388.121094 "/>
<path style="fill-rule:nonzero;fill:rgb(100%,0%,0%);fill-opacity:1;stroke-width:0.75;stroke-linecap:round;stroke-linejoin:round;stroke:rgb(100%,0%,0%);stroke-opacity:1;stroke-miterlimit:10;" d="M 76.199219 388.121094 C 76.199219 390.523438 72.601562 390.523438 72.601562 388.121094 C 72.601562 385.722656 76.199219 385.722656 76.199219 388.121094 "/>
<path style="fill-rule:nonzero;fill:rgb(100%,0%,0%);fill-opacity:1;stroke-width:0.75;stroke-linecap:round;stroke-linejoin:round;stroke:rgb(100%,0%,0%);stroke-opacity:1;stroke-miterlimit:10;" d="M 246.867188 388.121094 C 246.867188 390.523438 243.265625 390.523438 243.265625 388.121094 C 243.265625 385.722656 246.867188 385.722656 246.867188 388.121094 "/>
<path style="fill-rule:nonzero;fill:rgb(100%,0%,0%);fill-opacity:1;stroke-width:0.75;stroke-linecap:round;stroke-linejoin:round;stroke:rgb(100%,0%,0%);stroke-opacity:1;stroke-miterlimit:10;" d="M 204.199219 388.121094 C 204.199219 390.523438 200.601562 390.523438 200.601562 388.121094 C 200.601562 385.722656 204.199219 385.722656 204.199219 388.121094 "/>
<path style="fill-rule:nonzero;fill:rgb(100%,0%,0%);fill-opacity:1;stroke-width:0.75;stroke-linecap:round;stroke-linejoin:round;stroke:rgb(100%,0%,0%);stroke-opacity:1;stroke-miterlimit:10;" d="M 289.535156 382.398438 C 289.535156 384.800781 285.933594 384.800781 285.933594 382.398438 C 285.933594 380 289.535156 380 289.535156 382.398438 "/>
<path style="fill-rule:nonzero;fill:rgb(100%,0%,0%);fill-opacity:1;stroke-width:0.75;stroke-linecap:round;stroke-linejoin:round;stroke:rgb(100%,0%,0%);stroke-opacity:1;stroke-miterlimit:10;" d="M 332.199219 382.398438 C 332.199219 384.800781 328.601562 384.800781 328.601562 382.398438 C 328.601562 380 332.199219 380 332.199219 382.398438 "/>
<path style="fill-rule:nonzero;fill:rgb(100%,0%,0%);fill-opacity:1;stroke-width:0.75;stroke-linecap:round;stroke-linejoin:round;stroke:rgb(100%,0%,0%);stroke-opacity:1;stroke-miterlimit:10;" d="M 374.867188 382.398438 C 374.867188 384.800781 371.265625 384.800781 371.265625 382.398438 C 371.265625 380 374.867188 380 374.867188 382.398438 "/>
<path style="fill-rule:nonzero;fill:rgb(100%,0%,0%);fill-opacity:1;stroke-width:0.75;stroke-linecap:round;stroke-linejoin:round;stroke:rgb(100%,0%,0%);stroke-opacity:1;stroke-miterlimit:10;" d="M 417.535156 382.398438 C 417.535156 384.800781 413.933594 384.800781 413.933594 382.398438 C 413.933594 380 417.535156 380 417.535156 382.398438 "/>
<path style="fill-rule:nonzero;fill:rgb(100%,0%,0%);fill-opacity:1;stroke-width:0.75;stroke-linecap:round;stroke-linejoin:round;stroke:rgb(100%,0%,0%);stroke-opacity:1;stroke-miterlimit:10;" d="M 460.199219 382.398438 C 460.199219 384.800781 456.601562 384.800781 456.601562 382.398438 C 456.601562 380 460.199219 380 460.199219 382.398438 "/>
<path style="fill-rule:nonzero;fill:rgb(0%,80.392157%,0%);fill-opacity:1;stroke-width:0.75;stroke-linecap:round;stroke-linejoin:round;stroke:rgb(0%,80.392157%,0%);stroke-opacity:1;stroke-miterlimit:10;" d="M 118.867188 399.140625 C 118.867188 401.539062 115.265625 401.539062 115.265625 399.140625 C 115.265625 396.738281 118.867188 396.738281 118.867188 399.140625 "/>
<path style="fill-rule:nonzero;fill:rgb(0%,80.392157%,0%);fill-opacity:1;stroke-width:0.75;stroke-linecap:round;stroke-linejoin:round;stroke:rgb(0%,80.392157%,0%);stroke-opacity:1;stroke-miterlimit:10;" d="M 161.535156 399.140625 C 161.535156 401.539062 157.933594 401.539062 157.933594 399.140625 C 157.933594 396.738281 161.535156 396.738281 161.535156 399.140625 "/>
<path style="fill-rule:nonzero;fill:rgb(0%,80.392157%,0%);fill-opacity:1;stroke-width:0.75;stroke-linecap:round;stroke-linejoin:round;stroke:rgb(0%,80.392157%,0%);stroke-opacity:1;stroke-miterlimit:10;" d="M 76.199219 399.140625 C 76.199219 401.539062 72.601562 401.539062 72.601562 399.140625 C 72.601562 396.738281 76.199219 396.738281 76.199219 399.140625 "/>
<path style="fill-rule:nonzero;fill:rgb(0%,80.392157%,0%);fill-opacity:1;stroke-width:0.75;stroke-linecap:round;stroke-linejoin:round;stroke:rgb(0%,80.392157%,0%);stroke-opacity:1;stroke-miterlimit:10;" d="M 246.867188 399.140625 C 246.867188 401.539062 243.265625 401.539062 243.265625 399.140625 C 243.265625 396.738281 246.867188 396.738281 246.867188 399.140625 "/>
<path style="fill-rule:nonzero;fill:rgb(0%,80.392157%,0%);fill-opacity:1;stroke-width:0.75;stroke-linecap:round;stroke-linejoin:round;stroke:rgb(0%,80.392157%,0%);stroke-opacity:1;stroke-miterlimit:10;" d="M 204.199219 399.140625 C 204.199219 401.539062 200.601562 401.539062 200.601562 399.140625 C 200.601562 396.738281 204.199219 396.738281 204.199219 399.140625 "/>
<path style="fill-rule:nonzero;fill:rgb(0%,80.392157%,0%);fill-opacity:1;stroke-width:0.75;stroke-linecap:round;stroke-linejoin:round;stroke:rgb(0%,80.392157%,0%);stroke-opacity:1;stroke-miterlimit:10;" d="M 289.535156 416.800781 C 289.535156 419.199219 285.933594 419.199219 285.933594 416.800781 C 285.933594 414.398438 289.535156 414.398438 289.535156 416.800781 "/>
<path style="fill-rule:nonzero;fill:rgb(0%,80.392157%,0%);fill-opacity:1;stroke-width:0.75;stroke-linecap:round;stroke-linejoin:round;stroke:rgb(0%,80.392157%,0%);stroke-opacity:1;stroke-miterlimit:10;" d="M 332.199219 416.800781 C 332.199219 419.199219 328.601562 419.199219 328.601562 416.800781 C 328.601562 414.398438 332.199219 414.398438 332.199219 416.800781 "/>
<path style="fill-rule:nonzero;fill:rgb(0%,80.392157%,0%);fill-opacity:1;stroke-width:0.75;stroke-linecap:round;stroke-linejoin:round;stroke:rgb(0%,80.392157%,0%);stroke-opacity:1;stroke-miterlimit:10;" d="M 374.867188 416.800781 C 374.867188 419.199219 371.265625 419.199219 371.265625 416.800781 C 371.265625 414.398438 374.867188 414.398438 374.867188 416.800781 "/>
<path style="fill-rule:nonzero;fill:rgb(0%,80.392157%,0%);fill-opacity:1;stroke-width:0.75;stroke-linecap:round;stroke-linejoin:round;stroke:rgb(0%,80.392157%,0%);stroke-opacity:1;stroke-miterlimit:10;" d="M 417.535156 416.800781 C 417.535156 419.199219 413.933594 419.199219 413.933594 416.800781 C 413.933594 414.398438 417.535156 414.398438 417.535156 416.800781 "/>
<path style="fill-rule:nonzero;fill:rgb(0%,80.392157%,0%);fill-opacity:1;stroke-width:0.75;stroke-linecap:round;stroke-linejoin:round;stroke:rgb(0%,80.392157%,0%);stroke-opacity:1;stroke-miterlimit:10;" d="M 460.199219 416.800781 C 460.199219 419.199219 456.601562 419.199219 456.601562 416.800781 C 456.601562 414.398438 460.199219 414.398438 460.199219 416.800781 "/>
<path style="fill-rule:nonzero;fill:rgb(0%,0%,100%);fill-opacity:1;stroke-width:0.75;stroke-linecap:round;stroke-linejoin:round;stroke:rgb(0%,0%,100%);stroke-opacity:1;stroke-miterlimit:10;" d="M 118.867188 382.398438 C 118.867188 384.800781 115.265625 384.800781 115.265625 382.398438 C 115.265625 380 118.867188 380 118.867188 382.398438 "/>
<path style="fill-rule:nonzero;fill:rgb(0%,0%,100%);fill-opacity:1;stroke-width:0.75;stroke-linecap:round;stroke-linejoin:round;stroke:rgb(0%,0%,100%);stroke-opacity:1;stroke-miterlimit:10;" d="M 161.535156 382.398438 C 161.535156 384.800781 157.933594 384.800781 157.933594 382.398438 C 157.933594 380 161.535156 380 161.535156 382.398438 "/>
<path style="fill-rule:nonzero;fill:rgb(0%,0%,100%);fill-opacity:1;stroke-width:0.75;stroke-linecap:round;stroke-linejoin:round;stroke:rgb(0%,0%,100%);stroke-opacity:1;stroke-miterlimit:10;" d="M 76.199219 382.398438 C 76.199219 384.800781 72.601562 384.800781 72.601562 382.398438 C 72.601562 380 76.199219 380 76.199219 382.398438 "/>
<path style="fill-rule:nonzero;fill:rgb(0%,0%,100%);fill-opacity:1;stroke-width:0.75;stroke-linecap:round;stroke-linejoin:round;stroke:rgb(0%,0%,100%);stroke-opacity:1;stroke-miterlimit:10;" d="M 246.867188 382.398438 C 246.867188 384.800781 243.265625 384.800781 243.265625 382.398438 C 243.265625 380 246.867188 380 246.867188 382.398438 "/>
<path style="fill-rule:nonzero;fill:rgb(0%,0%,100%);fill-opacity:1;stroke-width:0.75;stroke-linecap:round;stroke-linejoin:round;stroke:rgb(0%,0%,100%);stroke-opacity:1;stroke-miterlimit:10;" d="M 204.199219 382.398438 C 204.199219 384.800781 200.601562 384.800781 200.601562 382.398438 C 200.601562 380 204.199219 380 204.199219 382.398438 "/>
<path style="fill-rule:nonzero;fill:rgb(0%,0%,100%);fill-opacity:1;stroke-width:0.75;stroke-linecap:round;stroke-linejoin:round;stroke:rgb(0%,0%,100%);stroke-opacity:1;stroke-miterlimit:10;" d="M 289.535156 416.800781 C 289.535156 419.199219 285.933594 419.199219 285.933594 416.800781 C 285.933594 414.398438 289.535156 414.398438 289.535156 416.800781 "/>
<path style="fill-rule:nonzero;fill:rgb(0%,0%,100%);fill-opacity:1;stroke-width:0.75;stroke-linecap:round;stroke-linejoin:round;stroke:rgb(0%,0%,100%);stroke-opacity:1;stroke-miterlimit:10;" d="M 332.199219 416.800781 C 332.199219 419.199219 328.601562 419.199219 328.601562 416.800781 C 328.601562 414.398438 332.199219 414.398438 332.199219 416.800781 "/>
<path style="fill-rule:nonzero;fill:rgb(0%,0%,100%);fill-opacity:1;stroke-width:0.75;stroke-linecap:round;stroke-linejoin:round;stroke:rgb(0%,0%,100%);stroke-opacity:1;stroke-miterlimit:10;" d="M 374.867188 416.800781 C 374.867188 419.199219 371.265625 419.199219 371.265625 416.800781 C 371.265625 414.398438 374.867188 414.398438 374.867188 416.800781 "/>
<path style="fill-rule:nonzero;fill:rgb(0%,0%,100%);fill-opacity:1;stroke-width:0.75;stroke-linecap:round;stroke-linejoin:round;stroke:rgb(0%,0%,100%);stroke-opacity:1;stroke-miterlimit:10;" d="M 417.535156 416.800781 C 417.535156 419.199219 413.933594 419.199219 413.933594 416.800781 C 413.933594 414.398438 417.535156 414.398438 417.535156 416.800781 "/>
<path style="fill-rule:nonzero;fill:rgb(0%,0%,100%);fill-opacity:1;stroke-width:0.75;stroke-linecap:round;stroke-linejoin:round;stroke:rgb(0%,0%,100%);stroke-opacity:1;stroke-miterlimit:10;" d="M 460.199219 416.800781 C 460.199219 419.199219 456.601562 419.199219 456.601562 416.800781 C 456.601562 414.398438 460.199219 414.398438 460.199219 416.800781 "/>
<path style="fill-rule:nonzero;fill:rgb(0%,100%,100%);fill-opacity:1;stroke-width:0.75;stroke-linecap:round;stroke-linejoin:round;stroke:rgb(0%,100%,100%);stroke-opacity:1;stroke-miterlimit:10;" d="M 118.867188 400.058594 C 118.867188 402.460938 115.265625 402.460938 115.265625 400.058594 C 115.265625 397.660156 118.867188 397.660156 118.867188 400.058594 "/>
<path style="fill-rule:nonzero;fill:rgb(0%,100%,100%);fill-opacity:1;stroke-width:0.75;stroke-linecap:round;stroke-linejoin:round;stroke:rgb(0%,100%,100%);stroke-opacity:1;stroke-miterlimit:10;" d="M 161.535156 400.058594 C 161.535156 402.460938 157.933594 402.460938 157.933594 400.058594 C 157.933594 397.660156 161.535156 397.660156 161.535156 400.058594 "/>
<path style="fill-rule:nonzero;fill:rgb(0%,100%,100%);fill-opacity:1;stroke-width:0.75;stroke-linecap:round;stroke-linejoin:round;stroke:rgb(0%,100%,100%);stroke-opacity:1;stroke-miterlimit:10;" d="M 76.199219 400.058594 C 76.199219 402.460938 72.601562 402.460938 72.601562 400.058594 C 72.601562 397.660156 76.199219 397.660156 76.199219 400.058594 "/>
<path style="fill-rule:nonzero;fill:rgb(0%,100%,100%);fill-opacity:1;stroke-width:0.75;stroke-linecap:round;stroke-linejoin:round;stroke:rgb(0%,100%,100%);stroke-opacity:1;stroke-miterlimit:10;" d="M 246.867188 400.058594 C 246.867188 402.460938 243.265625 402.460938 243.265625 400.058594 C 243.265625 397.660156 246.867188 397.660156 246.867188 400.058594 "/>
<path style="fill-rule:nonzero;fill:rgb(0%,100%,100%);fill-opacity:1;stroke-width:0.75;stroke-linecap:round;stroke-linejoin:round;stroke:rgb(0%,100%,100%);stroke-opacity:1;stroke-miterlimit:10;" d="M 204.199219 400.058594 C 204.199219 402.460938 200.601562 402.460938 200.601562 400.058594 C 200.601562 397.660156 204.199219 397.660156 204.199219 400.058594 "/>
<path style="fill-rule:nonzero;fill:rgb(0%,100%,100%);fill-opacity:1;stroke-width:0.75;stroke-linecap:round;stroke-linejoin:round;stroke:rgb(0%,100%,100%);stroke-opacity:1;stroke-miterlimit:10;" d="M 289.535156 382.398438 C 289.535156 384.800781 285.933594 384.800781 285.933594 382.398438 C 285.933594 380 289.535156 380 289.535156 382.398438 "/>
<path style="fill-rule:nonzero;fill:rgb(0%,100%,100%);fill-opacity:1;stroke-width:0.75;stroke-linecap:round;stroke-linejoin:round;stroke:rgb(0%,100%,100%);stroke-opacity:1;stroke-miterlimit:10;" d="M 332.199219 382.398438 C 332.199219 384.800781 328.601562 384.800781 328.601562 382.398438 C 328.601562 380 332.199219 380 332.199219 382.398438 "/>
<path style="fill-rule:nonzero;fill:rgb(0%,100%,100%);fill-opacity:1;stroke-width:0.75;stroke-linecap:round;stroke-linejoin:round;stroke:rgb(0%,100%,100%);stroke-opacity:1;stroke-miterlimit:10;" d="M 374.867188 382.398438 C 374.867188 384.800781 371.265625 384.800781 371.265625 382.398438 C 371.265625 380 374.867188 380 374.867188 382.398438 "/>
<path style="fill-rule:nonzero;fill:rgb(0%,100%,100%);fill-opacity:1;stroke-width:0.75;stroke-linecap:round;stroke-linejoin:round;stroke:rgb(0%,100%,100%);stroke-opacity:1;stroke-miterlimit:10;" d="M 417.535156 382.398438 C 417.535156 384.800781 413.933594 384.800781 413.933594 382.398438 C 413.933594 380 417.535156 380 417.535156 382.398438 "/>
<path style="fill-rule:nonzero;fill:rgb(0%,100%,100%);fill-opacity:1;stroke-width:0.75;stroke-linecap:round;stroke-linejoin:round;stroke:rgb(0%,100%,100%);stroke-opacity:1;stroke-miterlimit:10;" d="M 460.199219 382.398438 C 460.199219 384.800781 456.601562 384.800781 456.601562 382.398438 C 456.601562 380 460.199219 380 460.199219 382.398438 "/>
<path style="fill-rule:nonzero;fill:rgb(100%,0%,100%);fill-opacity:1;stroke-width:0.75;stroke-linecap:round;stroke-linejoin:round;stroke:rgb(100%,0%,100%);stroke-opacity:1;stroke-miterlimit:10;" d="M 118.867188 382.398438 C 118.867188 384.800781 115.265625 384.800781 115.265625 382.398438 C 115.265625 380 118.867188 380 118.867188 382.398438 "/>
<path style="fill-rule:nonzero;fill:rgb(100%,0%,100%);fill-opacity:1;stroke-width:0.75;stroke-linecap:round;stroke-linejoin:round;stroke:rgb(100%,0%,100%);stroke-opacity:1;stroke-miterlimit:10;" d="M 161.535156 382.398438 C 161.535156 384.800781 157.933594 384.800781 157.933594 382.398438 C 157.933594 380 161.535156 380 161.535156 382.398438 "/>
<path style="fill-rule:nonzero;fill:rgb(100%,0%,100%);fill-opacity:1;stroke-width:0.75;stroke-linecap:round;stroke-linejoin:round;stroke:rgb(100%,0%,100%);stroke-opacity:1;stroke-miterlimit:10;" d="M 76.199219 382.398438 C 76.199219 384.800781 72.601562 384.800781 72.601562 382.398438 C 72.601562 380 76.199219 380 76.199219 382.398438 "/>
<path style="fill-rule:nonzero;fill:rgb(100%,0%,100%);fill-opacity:1;stroke-width:0.75;stroke-linecap:round;stroke-linejoin:round;stroke:rgb(100%,0%,100%);stroke-opacity:1;stroke-miterlimit:10;" d="M 246.867188 382.398438 C 246.867188 384.800781 243.265625 384.800781 243.265625 382.398438 C 243.265625 380 246.867188 380 246.867188 382.398438 "/>
<path style="fill-rule:nonzero;fill:rgb(100%,0%,100%);fill-opacity:1;stroke-width:0.75;stroke-linecap:round;stroke-linejoin:round;stroke:rgb(100%,0%,100%);stroke-opacity:1;stroke-miterlimit:10;" d="M 204.199219 382.398438 C 204.199219 384.800781 200.601562 384.800781 200.601562 382.398438 C 200.601562 380 204.199219 380 204.199219 382.398438 "/>
<path style="fill-rule:nonzero;fill:rgb(100%,0%,100%);fill-opacity:1;stroke-width:0.75;stroke-linecap:round;stroke-linejoin:round;stroke:rgb(100%,0%,100%);stroke-opacity:1;stroke-miterlimit:10;" d="M 289.535156 382.398438 C 289.535156 384.800781 285.933594 384.800781 285.933594 382.398438 C 285.933594 380 289.535156 380 289.535156 382.398438 "/>
<path style="fill-rule:nonzero;fill:rgb(100%,0%,100%);fill-opacity:1;stroke-width:0.75;stroke-linecap:round;stroke-linejoin:round;stroke:rgb(100%,0%,100%);stroke-opacity:1;stroke-miterlimit:10;" d="M 332.199219 382.398438 C 332.199219 384.800781 328.601562 384.800781 328.601562 382.398438 C 328.601562 380 332.199219 380 332.199219 382.398438 "/>
<path style="fill-rule:nonzero;fill:rgb(100%,0%,100%);fill-opacity:1;stroke-width:0.75;stroke-linecap:round;stroke-linejoin:round;stroke:rgb(100%,0%,100%);stroke-opacity:1;stroke-miterlimit:10;" d="M 374.867188 382.398438 C 374.867188 384.800781 371.265625 384.800781 371.265625 382.398438 C 371.265625 380 374.867188 380 374.867188 382.398438 "/>
<path style="fill-rule:nonzero;fill:rgb(100%,0%,100%);fill-opacity:1;stroke-width:0.75;stroke-linecap:round;stroke-linejoin:round;stroke:rgb(100%,0%,100%);stroke-opacity:1;stroke-miterlimit:10;" d="M 417.535156 382.398438 C 417.535156 384.800781 413.933594 384.800781 413.933594 382.398438 C 413.933594 380 417.535156 380 417.535156 382.398438 "/>
<path style="fill-rule:nonzero;fill:rgb(100%,0%,100%);fill-opacity:1;stroke-width:0.75;stroke-linecap:round;stroke-linejoin:round;stroke:rgb(100%,0%,100%);stroke-opacity:1;stroke-miterlimit:10;" d="M 460.199219 382.398438 C 460.199219 384.800781 456.601562 384.800781 456.601562 382.398438 C 456.601562 380 460.199219 380 460.199219 382.398438 "/>
<path style="fill-rule:nonzero;fill:rgb(0%,0%,0%);fill-opacity:1;stroke-width:0.75;stroke-linecap:round;stroke-linejoin:round;stroke:rgb(0%,0%,0%);stroke-opacity:1;stroke-miterlimit:10;" d="M 118.867188 416.800781 C 118.867188 419.199219 115.265625 419.199219 115.265625 416.800781 C 115.265625 414.398438 118.867188 414.398438 118.867188 416.800781 "/>
<path style="fill-rule:nonzero;fill:rgb(0%,0%,0%);fill-opacity:1;stroke-width:0.75;stroke-linecap:round;stroke-linejoin:round;stroke:rgb(0%,0%,0%);stroke-opacity:1;stroke-miterlimit:10;" d="M 161.535156 416.800781 C 161.535156 419.199219 157.933594 419.199219 157.933594 416.800781 C 157.933594 414.398438 161.535156 414.398438 161.535156 416.800781 "/>
<path style="fill-rule:nonzero;fill:rgb(0%,0%,0%);fill-opacity:1;stroke-width:0.75;stroke-linecap:round;stroke-linejoin:round;stroke:rgb(0%,0%,0%);stroke-opacity:1;stroke-miterlimit:10;" d="M 76.199219 416.800781 C 76.199219 419.199219 72.601562 419.199219 72.601562 416.800781 C 72.601562 414.398438 76.199219 414.398438 76.199219 416.800781 "/>
<path style="fill-rule:nonzero;fill:rgb(0%,0%,0%);fill-opacity:1;stroke-width:0.75;stroke-linecap:round;stroke-linejoin:round;stroke:rgb(0%,0%,0%);stroke-opacity:1;stroke-miterlimit:10;" d="M 246.867188 416.800781 C 246.867188 419.199219 243.265625 419.199219 243.265625 416.800781 C 243.265625 414.398438 246.867188 414.398438 246.867188 416.800781 "/>
<path style="fill-rule:nonzero;fill:rgb(0%,0%,0%);fill-opacity:1;stroke-width:0.75;stroke-linecap:round;stroke-linejoin:round;stroke:rgb(0%,0%,0%);stroke-opacity:1;stroke-miterlimit:10;" d="M 204.199219 416.800781 C 204.199219 419.199219 200.601562 419.199219 200.601562 416.800781 C 200.601562 414.398438 204.199219 414.398438 204.199219 416.800781 "/>
<path style="fill-rule:nonzero;fill:rgb(0%,0%,0%);fill-opacity:1;stroke-width:0.75;stroke-linecap:round;stroke-linejoin:round;stroke:rgb(0%,0%,0%);stroke-opacity:1;stroke-miterlimit:10;" d="M 289.535156 382.398438 C 289.535156 384.800781 285.933594 384.800781 285.933594 382.398438 C 285.933594 380 289.535156 380 289.535156 382.398438 "/>
<path style="fill-rule:nonzero;fill:rgb(0%,0%,0%);fill-opacity:1;stroke-width:0.75;stroke-linecap:round;stroke-linejoin:round;stroke:rgb(0%,0%,0%);stroke-opacity:1;stroke-miterlimit:10;" d="M 332.199219 382.398438 C 332.199219 384.800781 328.601562 384.800781 328.601562 382.398438 C 328.601562 380 332.199219 380 332.199219 382.398438 "/>
<path style="fill-rule:nonzero;fill:rgb(0%,0%,0%);fill-opacity:1;stroke-width:0.75;stroke-linecap:round;stroke-linejoin:round;stroke:rgb(0%,0%,0%);stroke-opacity:1;stroke-miterlimit:10;" d="M 374.867188 382.398438 C 374.867188 384.800781 371.265625 384.800781 371.265625 382.398438 C 371.265625 380 374.867188 380 374.867188 382.398438 "/>
<path style="fill-rule:nonzero;fill:rgb(0%,0%,0%);fill-opacity:1;stroke-width:0.75;stroke-linecap:round;stroke-linejoin:round;stroke:rgb(0%,0%,0%);stroke-opacity:1;stroke-miterlimit:10;" d="M 417.535156 382.398438 C 417.535156 384.800781 413.933594 384.800781 413.933594 382.398438 C 413.933594 380 417.535156 380 417.535156 382.398438 "/>
<path style="fill-rule:nonzero;fill:rgb(0%,0%,0%);fill-opacity:1;stroke-width:0.75;stroke-linecap:round;stroke-linejoin:round;stroke:rgb(0%,0%,0%);stroke-opacity:1;stroke-miterlimit:10;" d="M 460.199219 382.398438 C 460.199219 384.800781 456.601562 384.800781 456.601562 382.398438 C 456.601562 380 460.199219 380 460.199219 382.398438 "/>
<g clip-path="url(#clip1)" clip-rule="nonzero">
<path style="fill-rule:nonzero;fill:rgb(100%,100%,100%);fill-opacity:1;stroke-width:0.75;stroke-linecap:round;stroke-linejoin:round;stroke:rgb(0%,0%,0%);stroke-opacity:1;stroke-miterlimit:10;" d="M 59.039062 59.039062 L 295.039062 59.039062 L 295.039062 174.238281 L 59.039062 174.238281 Z M 59.039062 59.039062 "/>
</g>
<path style="fill-rule:nonzero;fill:rgb(0%,0%,0%);fill-opacity:1;stroke-width:0.75;stroke-linecap:round;stroke-linejoin:round;stroke:rgb(0%,0%,0%);stroke-opacity:1;stroke-miterlimit:10;" d="M 71.640625 73.441406 C 71.640625 75.839844 68.039062 75.839844 68.039062 73.441406 C 68.039062 71.039062 71.640625 71.039062 71.640625 73.441406 "/>
<path style="fill-rule:nonzero;fill:rgb(100%,0%,0%);fill-opacity:1;stroke-width:0.75;stroke-linecap:round;stroke-linejoin:round;stroke:rgb(100%,0%,0%);stroke-opacity:1;stroke-miterlimit:10;" d="M 71.640625 87.839844 C 71.640625 90.238281 68.039062 90.238281 68.039062 87.839844 C 68.039062 85.441406 71.640625 85.441406 71.640625 87.839844 "/>
<path style="fill-rule:nonzero;fill:rgb(0%,80.392157%,0%);fill-opacity:1;stroke-width:0.75;stroke-linecap:round;stroke-linejoin:round;stroke:rgb(0%,80.392157%,0%);stroke-opacity:1;stroke-miterlimit:10;" d="M 71.640625 102.238281 C 71.640625 104.640625 68.039062 104.640625 68.039062 102.238281 C 68.039062 99.839844 71.640625 99.839844 71.640625 102.238281 "/>
<path style="fill-rule:nonzero;fill:rgb(0%,0%,100%);fill-opacity:1;stroke-width:0.75;stroke-linecap:round;stroke-linejoin:round;stroke:rgb(0%,0%,100%);stroke-opacity:1;stroke-miterlimit:10;" d="M 71.640625 116.640625 C 71.640625 119.039062 68.039062 119.039062 68.039062 116.640625 C 68.039062 114.238281 71.640625 114.238281 71.640625 116.640625 "/>
<path style="fill-rule:nonzero;fill:rgb(0%,100%,100%);fill-opacity:1;stroke-width:0.75;stroke-linecap:round;stroke-linejoin:round;stroke:rgb(0%,100%,100%);stroke-opacity:1;stroke-miterlimit:10;" d="M 71.640625 131.039062 C 71.640625 133.441406 68.039062 133.441406 68.039062 131.039062 C 68.039062 128.640625 71.640625 128.640625 71.640625 131.039062 "/>
<path style="fill-rule:nonzero;fill:rgb(100%,0%,100%);fill-opacity:1;stroke-width:0.75;stroke-linecap:round;stroke-linejoin:round;stroke:rgb(100%,0%,100%);stroke-opacity:1;stroke-miterlimit:10;" d="M 71.640625 145.441406 C 71.640625 147.839844 68.039062 147.839844 68.039062 145.441406 C 68.039062 143.039062 71.640625 143.039062 71.640625 145.441406 "/>
<path style="fill-rule:nonzero;fill:rgb(0%,0%,0%);fill-opacity:1;stroke-width:0.75;stroke-linecap:round;stroke-linejoin:round;stroke:rgb(0%,0%,0%);stroke-opacity:1;stroke-miterlimit:10;" d="M 71.640625 159.839844 C 71.640625 162.238281 68.039062 162.238281 68.039062 159.839844 C 68.039062 157.441406 71.640625 157.441406 71.640625 159.839844 "/>
<g style="fill:rgb(0%,0%,0%);fill-opacity:1;">
  <use xlink:href="#glyph0-7" x="80.640625" y="77.717773"/>
</g>
<g style="fill:rgb(0%,0%,0%);fill-opacity:1;">
  <use xlink:href="#glyph0-8" x="80.640625" y="92.116211"/>
  <use xlink:href="#glyph0-9" x="86.892578" y="92.116211"/>
  <use xlink:href="#glyph0-10" x="90.829102" y="92.116211"/>
  <use xlink:href="#glyph0-11" x="97.500977" y="92.116211"/>
  <use xlink:href="#glyph0-12" x="104.172852" y="92.116211"/>
  <use xlink:href="#glyph0-13" x="110.172852" y="92.116211"/>
  <use xlink:href="#glyph0-14" x="118.836914" y="92.116211"/>
  <use xlink:href="#glyph0-15" x="121.500977" y="92.116211"/>
  <use xlink:href="#glyph0-12" x="128.172852" y="92.116211"/>
  <use xlink:href="#glyph0-16" x="134.113281" y="92.116211"/>
  <use xlink:href="#glyph0-17" x="137.449219" y="92.116211"/>
  <use xlink:href="#glyph0-1" x="144.78125" y="92.116211"/>
  <use xlink:href="#glyph0-13" x="151.453125" y="92.116211"/>
  <use xlink:href="#glyph0-14" x="160.117188" y="92.116211"/>
  <use xlink:href="#glyph0-15" x="162.78125" y="92.116211"/>
  <use xlink:href="#glyph0-12" x="169.453125" y="92.116211"/>
  <use xlink:href="#glyph0-16" x="175.393555" y="92.116211"/>
  <use xlink:href="#glyph0-18" x="178.549805" y="92.116211"/>
  <use xlink:href="#glyph0-9" x="185.22168" y="92.116211"/>
  <use xlink:href="#glyph0-19" x="189.217773" y="92.116211"/>
  <use xlink:href="#glyph0-11" x="191.881836" y="92.116211"/>
  <use xlink:href="#glyph0-20" x="198.553711" y="92.116211"/>
  <use xlink:href="#glyph0-21" x="205.225586" y="92.116211"/>
  <use xlink:href="#glyph0-15" x="214.561523" y="92.116211"/>
  <use xlink:href="#glyph0-10" x="221.233398" y="92.116211"/>
  <use xlink:href="#glyph0-14" x="227.905273" y="92.116211"/>
  <use xlink:href="#glyph0-19" x="230.569336" y="92.116211"/>
  <use xlink:href="#glyph0-16" x="233.233398" y="92.116211"/>
  <use xlink:href="#glyph0-22" x="236.569336" y="92.116211"/>
  <use xlink:href="#glyph0-23" x="242.569336" y="92.116211"/>
  <use xlink:href="#glyph0-18" x="252.56543" y="92.116211"/>
  <use xlink:href="#glyph0-10" x="259.237305" y="92.116211"/>
  <use xlink:href="#glyph0-12" x="265.90918" y="92.116211"/>
  <use xlink:href="#glyph0-15" x="271.90918" y="92.116211"/>
  <use xlink:href="#glyph0-9" x="278.581055" y="92.116211"/>
  <use xlink:href="#glyph0-18" x="282.457031" y="92.116211"/>
</g>
<g style="fill:rgb(0%,0%,0%);fill-opacity:1;">
  <use xlink:href="#glyph0-17" x="80.640625" y="106.514648"/>
  <use xlink:href="#glyph0-24" x="87.972656" y="106.514648"/>
  <use xlink:href="#glyph0-25" x="96.636719" y="106.514648"/>
  <use xlink:href="#glyph0-13" x="105.121094" y="106.514648"/>
  <use xlink:href="#glyph0-14" x="113.785156" y="106.514648"/>
  <use xlink:href="#glyph0-15" x="116.449219" y="106.514648"/>
  <use xlink:href="#glyph0-12" x="123.121094" y="106.514648"/>
  <use xlink:href="#glyph0-16" x="129.061523" y="106.514648"/>
  <use xlink:href="#glyph0-18" x="132.217773" y="106.514648"/>
  <use xlink:href="#glyph0-9" x="138.889648" y="106.514648"/>
  <use xlink:href="#glyph0-19" x="142.885742" y="106.514648"/>
  <use xlink:href="#glyph0-11" x="145.549805" y="106.514648"/>
  <use xlink:href="#glyph0-20" x="152.22168" y="106.514648"/>
  <use xlink:href="#glyph0-21" x="158.893555" y="106.514648"/>
  <use xlink:href="#glyph0-15" x="168.229492" y="106.514648"/>
  <use xlink:href="#glyph0-10" x="174.901367" y="106.514648"/>
  <use xlink:href="#glyph0-14" x="181.573242" y="106.514648"/>
  <use xlink:href="#glyph0-19" x="184.237305" y="106.514648"/>
  <use xlink:href="#glyph0-16" x="186.901367" y="106.514648"/>
  <use xlink:href="#glyph0-22" x="190.237305" y="106.514648"/>
  <use xlink:href="#glyph0-23" x="196.237305" y="106.514648"/>
  <use xlink:href="#glyph0-18" x="206.233398" y="106.514648"/>
  <use xlink:href="#glyph0-10" x="212.905273" y="106.514648"/>
  <use xlink:href="#glyph0-12" x="219.577148" y="106.514648"/>
  <use xlink:href="#glyph0-15" x="225.577148" y="106.514648"/>
  <use xlink:href="#glyph0-9" x="232.249023" y="106.514648"/>
  <use xlink:href="#glyph0-18" x="236.125" y="106.514648"/>
</g>
<g style="fill:rgb(0%,0%,0%);fill-opacity:1;">
  <use xlink:href="#glyph0-17" x="80.640625" y="120.916992"/>
  <use xlink:href="#glyph0-26" x="87.972656" y="120.916992"/>
  <use xlink:href="#glyph0-25" x="95.976562" y="120.916992"/>
  <use xlink:href="#glyph0-13" x="104.460938" y="120.916992"/>
  <use xlink:href="#glyph0-14" x="113.125" y="120.916992"/>
  <use xlink:href="#glyph0-15" x="115.789062" y="120.916992"/>
  <use xlink:href="#glyph0-12" x="122.460938" y="120.916992"/>
  <use xlink:href="#glyph0-16" x="128.401367" y="120.916992"/>
  <use xlink:href="#glyph0-18" x="131.557617" y="120.916992"/>
  <use xlink:href="#glyph0-9" x="138.229492" y="120.916992"/>
  <use xlink:href="#glyph0-19" x="142.225586" y="120.916992"/>
  <use xlink:href="#glyph0-11" x="144.889648" y="120.916992"/>
  <use xlink:href="#glyph0-20" x="151.561523" y="120.916992"/>
  <use xlink:href="#glyph0-21" x="158.233398" y="120.916992"/>
  <use xlink:href="#glyph0-15" x="167.569336" y="120.916992"/>
  <use xlink:href="#glyph0-10" x="174.241211" y="120.916992"/>
  <use xlink:href="#glyph0-14" x="180.913086" y="120.916992"/>
  <use xlink:href="#glyph0-19" x="183.577148" y="120.916992"/>
  <use xlink:href="#glyph0-16" x="186.241211" y="120.916992"/>
  <use xlink:href="#glyph0-22" x="189.577148" y="120.916992"/>
  <use xlink:href="#glyph0-23" x="195.577148" y="120.916992"/>
  <use xlink:href="#glyph0-18" x="205.573242" y="120.916992"/>
  <use xlink:href="#glyph0-10" x="212.245117" y="120.916992"/>
  <use xlink:href="#glyph0-12" x="218.916992" y="120.916992"/>
  <use xlink:href="#glyph0-15" x="224.916992" y="120.916992"/>
  <use xlink:href="#glyph0-9" x="231.588867" y="120.916992"/>
  <use xlink:href="#glyph0-18" x="235.464844" y="120.916992"/>
</g>
<g style="fill:rgb(0%,0%,0%);fill-opacity:1;">
  <use xlink:href="#glyph0-25" x="80.640625" y="135.31543"/>
  <use xlink:href="#glyph0-10" x="89.125" y="135.31543"/>
  <use xlink:href="#glyph0-11" x="95.796875" y="135.31543"/>
  <use xlink:href="#glyph0-27" x="102.46875" y="135.31543"/>
  <use xlink:href="#glyph0-7" x="109.140625" y="135.31543"/>
  <use xlink:href="#glyph0-11" x="112.476562" y="135.31543"/>
  <use xlink:href="#glyph0-27" x="119.148438" y="135.31543"/>
  <use xlink:href="#glyph0-18" x="125.820312" y="135.31543"/>
  <use xlink:href="#glyph0-28" x="132.192383" y="135.31543"/>
  <use xlink:href="#glyph0-13" x="138.192383" y="135.31543"/>
  <use xlink:href="#glyph0-14" x="146.856445" y="135.31543"/>
  <use xlink:href="#glyph0-15" x="149.520508" y="135.31543"/>
  <use xlink:href="#glyph0-12" x="156.192383" y="135.31543"/>
  <use xlink:href="#glyph0-16" x="162.132812" y="135.31543"/>
  <use xlink:href="#glyph0-18" x="165.289062" y="135.31543"/>
  <use xlink:href="#glyph0-9" x="171.960938" y="135.31543"/>
  <use xlink:href="#glyph0-19" x="175.957031" y="135.31543"/>
  <use xlink:href="#glyph0-11" x="178.621094" y="135.31543"/>
  <use xlink:href="#glyph0-20" x="185.292969" y="135.31543"/>
  <use xlink:href="#glyph0-21" x="191.964844" y="135.31543"/>
  <use xlink:href="#glyph0-15" x="201.300781" y="135.31543"/>
  <use xlink:href="#glyph0-10" x="207.972656" y="135.31543"/>
  <use xlink:href="#glyph0-14" x="214.644531" y="135.31543"/>
  <use xlink:href="#glyph0-19" x="217.308594" y="135.31543"/>
  <use xlink:href="#glyph0-16" x="219.972656" y="135.31543"/>
  <use xlink:href="#glyph0-22" x="223.308594" y="135.31543"/>
  <use xlink:href="#glyph0-23" x="229.308594" y="135.31543"/>
  <use xlink:href="#glyph0-18" x="239.304688" y="135.31543"/>
  <use xlink:href="#glyph0-10" x="245.976562" y="135.31543"/>
  <use xlink:href="#glyph0-12" x="252.648438" y="135.31543"/>
  <use xlink:href="#glyph0-15" x="258.648438" y="135.31543"/>
  <use xlink:href="#glyph0-9" x="265.320312" y="135.31543"/>
  <use xlink:href="#glyph0-18" x="269.196289" y="135.31543"/>
</g>
<g style="fill:rgb(0%,0%,0%);fill-opacity:1;">
  <use xlink:href="#glyph0-29" x="80.640625" y="149.717773"/>
  <use xlink:href="#glyph0-18" x="88.644531" y="149.717773"/>
  <use xlink:href="#glyph0-11" x="95.316406" y="149.717773"/>
  <use xlink:href="#glyph0-12" x="101.988281" y="149.717773"/>
  <use xlink:href="#glyph0-19" x="107.988281" y="149.717773"/>
  <use xlink:href="#glyph0-16" x="110.652344" y="149.717773"/>
  <use xlink:href="#glyph0-19" x="113.988281" y="149.717773"/>
  <use xlink:href="#glyph0-30" x="116.652344" y="149.717773"/>
  <use xlink:href="#glyph0-19" x="122.652344" y="149.717773"/>
  <use xlink:href="#glyph0-16" x="125.316406" y="149.717773"/>
  <use xlink:href="#glyph0-22" x="128.652344" y="149.717773"/>
  <use xlink:href="#glyph0-13" x="134.652344" y="149.717773"/>
  <use xlink:href="#glyph0-14" x="143.316406" y="149.717773"/>
  <use xlink:href="#glyph0-15" x="145.980469" y="149.717773"/>
  <use xlink:href="#glyph0-12" x="152.652344" y="149.717773"/>
  <use xlink:href="#glyph0-16" x="158.592773" y="149.717773"/>
  <use xlink:href="#glyph0-18" x="161.749023" y="149.717773"/>
  <use xlink:href="#glyph0-9" x="168.420898" y="149.717773"/>
  <use xlink:href="#glyph0-19" x="172.416992" y="149.717773"/>
  <use xlink:href="#glyph0-11" x="175.081055" y="149.717773"/>
  <use xlink:href="#glyph0-20" x="181.75293" y="149.717773"/>
  <use xlink:href="#glyph0-21" x="188.424805" y="149.717773"/>
  <use xlink:href="#glyph0-15" x="197.760742" y="149.717773"/>
  <use xlink:href="#glyph0-10" x="204.432617" y="149.717773"/>
  <use xlink:href="#glyph0-14" x="211.104492" y="149.717773"/>
  <use xlink:href="#glyph0-19" x="213.768555" y="149.717773"/>
  <use xlink:href="#glyph0-16" x="216.432617" y="149.717773"/>
  <use xlink:href="#glyph0-22" x="219.768555" y="149.717773"/>
  <use xlink:href="#glyph0-23" x="225.768555" y="149.717773"/>
  <use xlink:href="#glyph0-18" x="235.764648" y="149.717773"/>
  <use xlink:href="#glyph0-10" x="242.436523" y="149.717773"/>
  <use xlink:href="#glyph0-12" x="249.108398" y="149.717773"/>
  <use xlink:href="#glyph0-15" x="255.108398" y="149.717773"/>
  <use xlink:href="#glyph0-9" x="261.780273" y="149.717773"/>
  <use xlink:href="#glyph0-18" x="265.65625" y="149.717773"/>
</g>
<g style="fill:rgb(0%,0%,0%);fill-opacity:1;">
  <use xlink:href="#glyph0-29" x="80.640625" y="164.116211"/>
  <use xlink:href="#glyph0-31" x="88.644531" y="164.116211"/>
  <use xlink:href="#glyph0-18" x="95.316406" y="164.116211"/>
  <use xlink:href="#glyph0-32" x="101.988281" y="164.116211"/>
  <use xlink:href="#glyph0-19" x="107.988281" y="164.116211"/>
  <use xlink:href="#glyph0-33" x="110.652344" y="164.116211"/>
  <use xlink:href="#glyph0-32" x="116.652344" y="164.116211"/>
  <use xlink:href="#glyph0-19" x="122.652344" y="164.116211"/>
  <use xlink:href="#glyph0-16" x="125.316406" y="164.116211"/>
  <use xlink:href="#glyph0-22" x="128.652344" y="164.116211"/>
  <use xlink:href="#glyph0-13" x="134.652344" y="164.116211"/>
  <use xlink:href="#glyph0-14" x="143.316406" y="164.116211"/>
  <use xlink:href="#glyph0-15" x="145.980469" y="164.116211"/>
  <use xlink:href="#glyph0-12" x="152.652344" y="164.116211"/>
  <use xlink:href="#glyph0-16" x="158.592773" y="164.116211"/>
  <use xlink:href="#glyph0-18" x="161.749023" y="164.116211"/>
  <use xlink:href="#glyph0-9" x="168.420898" y="164.116211"/>
  <use xlink:href="#glyph0-19" x="172.416992" y="164.116211"/>
  <use xlink:href="#glyph0-11" x="175.081055" y="164.116211"/>
  <use xlink:href="#glyph0-20" x="181.75293" y="164.116211"/>
  <use xlink:href="#glyph0-21" x="188.424805" y="164.116211"/>
  <use xlink:href="#glyph0-15" x="197.760742" y="164.116211"/>
  <use xlink:href="#glyph0-10" x="204.432617" y="164.116211"/>
  <use xlink:href="#glyph0-14" x="211.104492" y="164.116211"/>
  <use xlink:href="#glyph0-19" x="213.768555" y="164.116211"/>
  <use xlink:href="#glyph0-16" x="216.432617" y="164.116211"/>
  <use xlink:href="#glyph0-22" x="219.768555" y="164.116211"/>
  <use xlink:href="#glyph0-23" x="225.768555" y="164.116211"/>
  <use xlink:href="#glyph0-18" x="235.764648" y="164.116211"/>
  <use xlink:href="#glyph0-10" x="242.436523" y="164.116211"/>
  <use xlink:href="#glyph0-12" x="249.108398" y="164.116211"/>
  <use xlink:href="#glyph0-15" x="255.108398" y="164.116211"/>
  <use xlink:href="#glyph0-9" x="261.780273" y="164.116211"/>
  <use xlink:href="#glyph0-18" x="265.65625" y="164.116211"/>
</g>
</g>
</svg>
