2017_11_08-17_59_19	Starting run "toolRuntimeEvaluation_TransClust_2_v1_toolRuntimeEval_cassini100.tsv_v1"
2017_11_08-17_59_19	Starting runThread "toolRuntimeEvaluation_TransClust_2_v1_toolRuntimeEval_cassini100.tsv_v1:1 (TransClust_2:1,toolRuntimeEval_cassini100.tsv:1)"
2017_11_08-17_59_21	Finished runThread "toolRuntimeEvaluation_TransClust_2_v1_toolRuntimeEval_cassini100.tsv_v1:1 (TransClust_2:1,toolRuntimeEval_cassini100.tsv:1)" (Duration 1s 600ms)
2017_11_08-17_59_21	Finished run "toolRuntimeEvaluation_TransClust_2_v1_toolRuntimeEval_cassini100.tsv_v1" (Duration 1s 604ms)
