2017_11_08-17_33_46	Starting run "toolRuntimeEvaluation_KMeans_Clustering_v1_toolRuntimeEval_cassini50.tsv_v1"
2017_11_08-17_33_46	Starting runThread "toolRuntimeEvaluation_KMeans_Clustering_v1_toolRuntimeEval_cassini50.tsv_v1:1 (KMeans_Clustering:1,toolRuntimeEval_cassini50.tsv:1)"
2017_11_08-17_33_46	Finished runThread "toolRuntimeEvaluation_KMeans_Clustering_v1_toolRuntimeEval_cassini50.tsv_v1:1 (KMeans_Clustering:1,toolRuntimeEval_cassini50.tsv:1)" (Duration 197ms)
2017_11_08-17_33_46	Finished run "toolRuntimeEvaluation_KMeans_Clustering_v1_toolRuntimeEval_cassini50.tsv_v1" (Duration 209ms)
2017_11_08-17_33_46	Starting run "toolRuntimeEvaluation_KMeans_Clustering_v1_toolRuntimeEval_cassini50.tsv_v1"
2017_11_08-17_33_46	Starting runThread "toolRuntimeEvaluation_KMeans_Clustering_v1_toolRuntimeEval_cassini50.tsv_v1:1 (KMeans_Clustering:1,toolRuntimeEval_cassini50.tsv:1)"
2017_11_08-17_33_46	Finished runThread "toolRuntimeEvaluation_KMeans_Clustering_v1_toolRuntimeEval_cassini50.tsv_v1:1 (KMeans_Clustering:1,toolRuntimeEval_cassini50.tsv:1)" (Duration 5ms)
2017_11_08-17_33_46	Finished run "toolRuntimeEvaluation_KMeans_Clustering_v1_toolRuntimeEval_cassini50.tsv_v1" (Duration 12ms)
