-----------------------------------
Running ... TransClust v1.0
Tue Dec 20 23:48:55 CET 2016
-----------------------------------

Clustering Mode: cluster iterativ

Threshold range: 0.8484848484848485 to 0.8484848484848485
Stepsize: 0.01

calculating clusters for threshold 0.8484848484848485

fmeasure: 0.5824763471822295
cluster distribution: 8:1, 6:1, 3:1, 2:3, 1:11, 

