2017_11_07-00_09_31	Starting run "toolRuntimeEvaluation_KMeans_Clustering_v1_toolRuntimeEval_cassini25.tsv_v1"
2017_11_07-00_09_31	Starting runThread "toolRuntimeEvaluation_KMeans_Clustering_v1_toolRuntimeEval_cassini25.tsv_v1:1 (KMeans_Clustering:1,toolRuntimeEval_cassini25.tsv:1)"
2017_11_07-00_09_31	Finished runThread "toolRuntimeEvaluation_KMeans_Clustering_v1_toolRuntimeEval_cassini25.tsv_v1:1 (KMeans_Clustering:1,toolRuntimeEval_cassini25.tsv:1)" (Duration 77ms)
2017_11_07-00_09_31	Finished run "toolRuntimeEvaluation_KMeans_Clustering_v1_toolRuntimeEval_cassini25.tsv_v1" (Duration 82ms)
