-----------------------------------
Running ... TransClust v1.0
Tue Dec 20 23:49:07 CET 2016
-----------------------------------

Clustering Mode: cluster iterativ

Threshold range: 1.4141414141414141 to 1.4141414141414141
Stepsize: 0.01

calculating clusters for threshold 1.4141414141414141

fmeasure: 0.4868635201116019
cluster distribution: 6:1, 5:1, 3:1, 2:4, 1:12, 

