Press 'q' to abort ...
[?1049h[1;24r(B[m[4l[?7h[H[2J
[24;1H[?1049l
[?1l>[?1049h[1;24r(B[m[4l[?7h[H[2J

[24;1H[?1049l
[?1l>[?1049h[1;24r(B[m[4l[?7h[H[2J


[24;1H[?1049l
[?1l>[?1049h[1;24r(B[m[4l[?7h[H[2J



[24;1H[?1049l
[?1l>[?1049h[1;24r(B[m[4l[?7h[H[2J[6d[24;1H[?1049l
[?1l>[?1049h[1;24r(B[m[4l[?7h[H[2J[7d[24;1H[?1049l
[?1l>[?1049h[1;24r(B[m[4l[?7h[H[2J[8d[24;1H[?1049l
[?1l>[?1049h[1;24r(B[m[4l[?7h[H[2J[9d[24;1H[?1049l
[?1l>[?1049h[1;24r(B[m[4l[?7h[H[2J[10d[24;1H[?1049l
[?1l>[?1049h[1;24r(B[m[4l[?7h[H[2J[11d[24;1H[?1049l
[?1l>[?1049h[1;24r(B[m[4l[?7h[H[2J[12d[24;1H[?1049l
[?1l>[?1049h[1;24r(B[m[4l[?7h[H[2J[13d[24;1H[?1049l
[?1l>[?1049h[1;24r(B[m[4l[?7h[H[2J[14d[24;1H[?1049l
[?1l>[?1049h[1;24r(B[m[4l[?7h[H[2J[15d[24;1H[?1049l
[?1l>[?1049h[1;24r(B[m[4l[?7h[H[2J[16d[24;1H[?1049l
[?1l>[?1049h[1;24r(B[m[4l[?7h[H[2J[17d[24;1H[?1049l
[?1l>[?1049h[1;24r(B[m[4l[?7h[H[2J[18d[24;1H[?1049l
[?1l>[?1049h[1;24r(B[m[4l[?7h[H[2J[19d[24;1H[?1049l
[?1l>[?1049h[1;24r(B[m[4l[?7h[H[2J[20d[24;1H[?1049l
[?1l>[?1049h[1;24r(B[m[4l[?7h[H[2J[21d[24;1H[?1049l
[?1l>[?1049h[1;24r(B[m[4l[?7h[H[2J[22d[24;1H[?1049l
[?1l>[?1049h[1;24r(B[m[4l[?7h[H[2J[23d[24;1H[?1049l
[?1l>[?1049h[1;24r(B[m[4l[?7h[H[2J[24d[24;1H[?1049l
[?1l>[?1049h[1;24r(B[m[4l[?7h[H[2J[24d[24;1H[?1049l
[?1l>[?1049h[1;24r(B[m[4l[?7h[H[2J[24d[24;1H[?1049l
[?1l>[?1049h[1;24r(B[m[4l[?7h[H[2J[24d[24;1H[?1049l
[?1l>[?1049h[1;24r(B[m[4l[?7h[H[2J[24d[24;1H[?1049l
[?1l>[?1049h[1;24r(B[m[4l[?7h[H[2J[24d[24;1H[?1049l
[?1l>[?1049h[1;24r(B[m[4l[?7h[H[2J[24d[24;1H[?1049l
[?1l>[?1049h[1;24r(B[m[4l[?7h[H[2J[24d[24;1H[?1049l
[?1l>[?1049h[1;24r(B[m[4l[?7h[H[2J[24d[24;1H[?1049l
[?1l>[?1049h[1;24r(B[m[4l[?7h[H[2J[24d[24;1H[?1049l
[?1l>[?1049h[1;24r(B[m[4l[?7h[H[2J[24d[24;1H[?1049l
[?1l>[?1049h[1;24r(B[m[4l[?7h[H[2J[24d[24;1H[?1049l
[?1l>[?1049h[1;24r(B[m[4l[?7h[H[2J[24d[24;1H[?1049l
[?1l>[?1049h[1;24r(B[m[4l[?7h[H[2J[24d[24;1H[?1049l
[?1l>[?1049h[1;24r(B[m[4l[?7h[H[2J[24d[24;1H[?1049l
[?1l>[?1049h[1;24r(B[m[4l[?7h[H[2J[24d[24;1H[?1049l
[?1l>[?1049h[1;24r(B[m[4l[?7h[H[2J[24d[24;1H[?1049l
[?1l>[?1049h[1;24r(B[m[4l[?7h[H[2J[24d[24;1H[?1049l
[?1l>[?1049h[1;24r(B[m[4l[?7h[H[2J[24d[24;1H[?1049l
[?1l>[?1049h[1;24r(B[m[4l[?7h[H[2J[24d[24;1H[?1049l
[?1l>[?1049h[1;24r(B[m[4l[?7h[H[2J[24d[24;1H[?1049l
[?1l>[?1049h[1;24r(B[m[4l[?7h[H[2J[24d[24;1H[?1049l
[?1l>[?1049h[1;24r(B[m[4l[?7h[H[2J[24d[24;1H[?1049l
[?1l>[?1049h[1;24r(B[m[4l[?7h[H[2J[24d[24;1H[?1049l
[?1l>[?1049h[1;24r(B[m[4l[?7h[H[2J[24d[24;1H[?1049l
[?1l>[?1049h[1;24r(B[m[4l[?7h[H[2J[24d[24;1H[?1049l
[?1l>[?1049h[1;24r(B[m[4l[?7h[H[2J[24d[24;1H[?1049l
[?1l>[?1049h[1;24r(B[m[4l[?7h[H[2J[24d[24;1H[?1049l
[?1l>[?1049h[1;24r(B[m[4l[?7h[H[2J[24d[24;1H[?1049l
[?1l>[?1049h[1;24r(B[m[4l[?7h[H[2J[24d[24;1H[?1049l
[?1l>[?1049h[1;24r(B[m[4l[?7h[H[2J[24d[24;1H[?1049l
[?1l>[?1049h[1;24r(B[m[4l[?7h[H[2J[24d[24;1H[?1049l
[?1l>[?1049h[1;24r(B[m[4l[?7h[H[2J[24d[24;1H[?1049l
[?1l>[?1049h[1;24r(B[m[4l[?7h[H[2J[24d[24;1H[?1049l
[?1l>[?1049h[1;24r(B[m[4l[?7h[H[2J[24d[24;1H[?1049l
[?1l>[?1049h[1;24r(B[m[4l[?7h[H[2J[24d[24;1H[?1049l
[?1l>[?1049h[1;24r(B[m[4l[?7h[H[2J[24d[24;1H[?1049l
[?1l>[?1049h[1;24r(B[m[4l[?7h[H[2J[24d[24;1H[?1049l
[?1l>[?1049h[1;24r(B[m[4l[?7h[H[2J[24d[24;1H[?1049l
[?1l>[?1049h[1;24r(B[m[4l[?7h[H[2J[24d[24;1H[?1049l
[?1l>[?1049h[1;24r(B[m[4l[?7h[H[2J[24d[24;1H[?1049l
[?1l>[?1049h[1;24r(B[m[4l[?7h[H[2J[24d[24;1H[?1049l
[?1l>[?1049h[1;24r(B[m[4l[?7h[H[2J[24d[24;1H[?1049l
[?1l>[?1049h[1;24r(B[m[4l[?7h[H[2J[24d[24;1H[?1049l
[?1l>[?1049h[1;24r(B[m[4l[?7h[H[2J[24d[24;1H[?1049l
[?1l>[?1049h[1;24r(B[m[4l[?7h[H[2J[24d[24;1H[?1049l
[?1l>[?1049h[1;24r(B[m[4l[?7h[H[2J[24d[24;1H[?1049l
[?1l>[?1049h[1;24r(B[m[4l[?7h[H[2J[24d[24;1H[?1049l
[?1l>[?1049h[1;24r(B[m[4l[?7h[H[2J[24d[24;1H[?1049l
[?1l>[?1049h[1;24r(B[m[4l[?7h[H[2J[24d[24;1H[?1049l
[?1l>[?1049h[1;24r(B[m[4l[?7h[H[2J[24d[24;1H[?1049l
[?1l>[?1049h[1;24r(B[m[4l[?7h[H[2J[24d[24;1H[?1049l
[?1l>[?1049h[1;24r(B[m[4l[?7h[H[2J[24d[24;1H[?1049l
[?1l>[?1049h[1;24r(B[m[4l[?7h[H[2J[24d[24;1H[?1049l
[?1l>[?1049h[1;24r(B[m[4l[?7h[H[2J[24d[24;1H[?1049l
[?1l>[?1049h[1;24r(B[m[4l[?7h[H[2J[24d[24;1H[?1049l
[?1l>[?1049h[1;24r(B[m[4l[?7h[H[2J[24d[24;1H[?1049l
[?1l>[?1049h[1;24r(B[m[4l[?7h[H[2J[24d[24;1H[?1049l
[?1l>[?1049h[1;24r(B[m[4l[?7h[H[2J[24d[24;1H[?1049l
[?1l>[?1049h[1;24r(B[m[4l[?7h[H[2J[24d[24;1H[?1049l
[?1l>[?1049h[1;24r(B[m[4l[?7h[H[2J[24d[24;1H[?1049l
[?1l>[?1049h[1;24r(B[m[4l[?7h[H[2J[24d[24;1H[?1049l
[?1l>[?1049h[1;24r(B[m[4l[?7h[H[2J[24d[24;1H[?1049l
[?1l>[?1049h[1;24r(B[m[4l[?7h[H[2J[24d[24;1H[?1049l
[?1l>[?1049h[1;24r(B[m[4l[?7h[H[2J[24d[24;1H[?1049l
[?1l>[?1049h[1;24r(B[m[4l[?7h[H[2J[24d[24;1H[?1049l
[?1l>[?1049h[1;24r(B[m[4l[?7h[H[2J[24d[24;1H[?1049l
[?1l>[?1049h[1;24r(B[m[4l[?7h[H[2J[24d[24;1H[?1049l
[?1l>[?1049h[1;24r(B[m[4l[?7h[H[2J[24d[24;1H[?1049l
[?1l>[?1049h[1;24r(B[m[4l[?7h[H[2J[24d[24;1H[?1049l
[?1l>[?1049h[1;24r(B[m[4l[?7h[H[2J[24d[24;1H[?1049l
[?1l>[?1049h[1;24r(B[m[4l[?7h[H[2J[24d[24;1H[?1049l
[?1l>[?1049h[1;24r(B[m[4l[?7h[H[2J[24d[24;1H[?1049l
[?1l>[?1049h[1;24r(B[m[4l[?7h[H[2J[24d[24;1H[?1049l
[?1l>[?1049h[1;24r(B[m[4l[?7h[H[2J[24d[24;1H[?1049l
[?1l>[?1049h[1;24r(B[m[4l[?7h[H[2J[24d[24;1H[?1049l
[?1l>[?1049h[1;24r(B[m[4l[?7h[H[2J[24d[24;1H[?1049l
[?1l>[?1049h[1;24r(B[m[4l[?7h[H[2J[24d[24;1H[?1049l
[?1l>[?1049h[1;24r(B[m[4l[?7h[H[2J[24d[24;1H[?1049l
[?1l>[?1049h[1;24r(B[m[4l[?7h[H[2J[24d[24;1H[?1049l
[?1l>[?1049h[1;24r(B[m[4l[?7h[H[2J[24d[24;1H[?1049l
[?1l>[?1049h[1;24r(B[m[4l[?7h[H[2J[24d[24;1H[?1049l
[?1l>[?1049h[1;24r(B[m[4l[?7h[H[2J[24d[24;1H[?1049l
[?1l>[?1049h[1;24r(B[m[4l[?7h[H[2J[24d[24;1H[?1049l
[?1l>[?1049h[1;24r(B[m[4l[?7h[H[2J[24d[24;1H[?1049l
[?1l>[?1049h[1;24r(B[m[4l[?7h[H[2J[24d[24;1H[?1049l
[?1l>[?1049h[1;24r(B[m[4l[?7h[H[2J[24d[24;1H[?1049l
[?1l>[?1049h[1;24r(B[m[4l[?7h[H[2J[24d[24;1H[?1049l
[?1l>[?1049h[1;24r(B[m[4l[?7h[H[2J[24d[24;1H[?1049l
[?1l>[?1049h[1;24r(B[m[4l[?7h[H[2J[24d[24;1H[?1049l
[?1l>[?1049h[1;24r(B[m[4l[?7h[H[2J[24d[24;1H[?1049l
[?1l>[?1049h[1;24r(B[m[4l[?7h[H[2J[24d[24;1H[?1049l
[?1l>[?1049h[1;24r(B[m[4l[?7h[H[2J[24d[24;1H[?1049l
[?1l>[?1049h[1;24r(B[m[4l[?7h[H[2J[24d[24;1H[?1049l
[?1l>[?1049h[1;24r(B[m[4l[?7h[H[2J[24d[24;1H[?1049l
[?1l>[?1049h[1;24r(B[m[4l[?7h[H[2J[24d[24;1H[?1049l
[?1l>[?1049h[1;24r(B[m[4l[?7h[H[2J[24d[24;1H[?1049l
[?1l>[?1049h[1;24r(B[m[4l[?7h[H[2J[24d[24;1H[?1049l
[?1l>[?1049h[1;24r(B[m[4l[?7h[H[2J[24d[24;1H[?1049l
[?1l>[?1049h[1;24r(B[m[4l[?7h[H[2J[24d[24;1H[?1049l
[?1l>[?1049h[1;24r(B[m[4l[?7h[H[2J[24d[24;1H[?1049l
[?1l>[?1049h[1;24r(B[m[4l[?7h[H[2J[24d[24;1H[?1049l
[?1l>[?1049h[1;24r(B[m[4l[?7h[H[2J[24d[24;1H[?1049l
[?1l>[?1049h[1;24r(B[m[4l[?7h[H[2J[24d[24;1H[?1049l
[?1l>[?1049h[1;24r(B[m[4l[?7h[H[2J[24d[24;1H[?1049l
[?1l>[?1049h[1;24r(B[m[4l[?7h[H[2J[24d[24;1H[?1049l
[?1l>[?1049h[1;24r(B[m[4l[?7h[H[2J[24d[24;1H[?1049l
[?1l>[?1049h[1;24r(B[m[4l[?7h[H[2J[24d[24;1H[?1049l
[?1l>[?1049h[1;24r(B[m[4l[?7h[H[2J[24d[24;1H[?1049l
[?1l>[?1049h[1;24r(B[m[4l[?7h[H[2J[24d[24;1H[?1049l
[?1l>[?1049h[1;24r(B[m[4l[?7h[H[2J[24d[24;1H[?1049l
[?1l>[?1049h[1;24r(B[m[4l[?7h[H[2J[24d[24;1H[?1049l
[?1l>[?1049h[1;24r(B[m[4l[?7h[H[2J[24d[24;1H[?1049l
[?1l>[?1049h[1;24r(B[m[4l[?7h[H[2J[24d[24;1H[?1049l
[?1l>[?1049h[1;24r(B[m[4l[?7h[H[2J[24d[24;1H[?1049l
[?1l>[?1049h[1;24r(B[m[4l[?7h[H[2J[24d[24;1H[?1049l
[?1l>[?1049h[1;24r(B[m[4l[?7h[H[2J[24d[24;1H[?1049l
[?1l>[?1049h[1;24r(B[m[4l[?7h[H[2J[24d[24;1H[?1049l
[?1l>[?1049h[1;24r(B[m[4l[?7h[H[2J[24d[24;1H[?1049l
[?1l>[?1049h[1;24r(B[m[4l[?7h[H[2J[24d[24;1H[?1049l
[?1l>[?1049h[1;24r(B[m[4l[?7h[H[2J[24d[24;1H[?1049l
[?1l>[?1049h[1;24r(B[m[4l[?7h[H[2J[24d[24;1H[?1049l
[?1l>[?1049h[1;24r(B[m[4l[?7h[H[2J[24d[24;1H[?1049l
[?1l>[?1049h[1;24r(B[m[4l[?7h[H[2J[24d[24;1H[?1049l
[?1l>[?1049h[1;24r(B[m[4l[?7h[H[2J[24d[24;1H[?1049l
[?1l>[?1049h[1;24r(B[m[4l[?7h[H[2J[24d[24;1H[?1049l
[?1l>[?1049h[1;24r(B[m[4l[?7h[H[2J[24d[24;1H[?1049l
[?1l>[?1049h[1;24r(B[m[4l[?7h[H[2J[24d[24;1H[?1049l
[?1l>[?1049h[1;24r(B[m[4l[?7h[H[2J[24d[24;1H[?1049l
[?1l>[?1049h[1;24r(B[m[4l[?7h[H[2J[24d[24;1H[?1049l
[?1l>[?1049h[1;24r(B[m[4l[?7h[H[2J[24d[24;1H[?1049l
[?1l>[?1049h[1;24r(B[m[4l[?7h[H[2J[24d[24;1H[?1049l
[?1l>[?1049h[1;24r(B[m[4l[?7h[H[2J[24d[24;1H[?1049l
[?1l>[?1049h[1;24r(B[m[4l[?7h[H[2J[24d[24;1H[?1049l
[?1l>[?1049h[1;24r(B[m[4l[?7h[H[2J[24d[24;1H[?1049l
[?1l>[?1049h[1;24r(B[m[4l[?7h[H[2J[24d[24;1H[?1049l
[?1l>[?1049h[1;24r(B[m[4l[?7h[H[2J[24d[24;1H[?1049l
[?1l>[?1049h[1;24r(B[m[4l[?7h[H[2J[24d[24;1H[?1049l
[?1l>[?1049h[1;24r(B[m[4l[?7h[H[2J[24d[24;1H[?1049l
[?1l>[?1049h[1;24r(B[m[4l[?7h[H[2J[24d[24;1H[?1049l
[?1l>[?1049h[1;24r(B[m[4l[?7h[H[2J[24d[24;1H[?1049l
[?1l>[?1049h[1;24r(B[m[4l[?7h[H[2J[24d[24;1H[?1049l
[?1l>[?1049h[1;24r(B[m[4l[?7h[H[2J[24d[24;1H[?1049l
[?1l>[?1049h[1;24r(B[m[4l[?7h[H[2J[24d[24;1H[?1049l
[?1l>[?1049h[1;24r(B[m[4l[?7h[H[2J[24d[24;1H[?1049l
[?1l>[?1049h[1;24r(B[m[4l[?7h[H[2J[24d[24;1H[?1049l
[?1l>[?1049h[1;24r(B[m[4l[?7h[H[2J[24d[24;1H[?1049l
[?1l>[?1049h[1;24r(B[m[4l[?7h[H[2J[24d[24;1H[?1049l
[?1l>[?1049h[1;24r(B[m[4l[?7h[H[2J[24d[24;1H[?1049l
[?1l>[?1049h[1;24r(B[m[4l[?7h[H[2J[24d[24;1H[?1049l
[?1l>[?1049h[1;24r(B[m[4l[?7h[H[2J[24d[24;1H[?1049l
[?1l>[?1049h[1;24r(B[m[4l[?7h[H[2J[24d[24;1H[?1049l
[?1l>[?1049h[1;24r(B[m[4l[?7h[H[2J[24d[24;1H[?1049l
[?1l>[?1049h[1;24r(B[m[4l[?7h[H[2J[24d[24;1H[?1049l
[?1l>[?1049h[1;24r(B[m[4l[?7h[H[2J[24d[24;1H[?1049l
[?1l>[?1049h[1;24r(B[m[4l[?7h[H[2J[24d[24;1H[?1049l
[?1l>[?1049h[1;24r(B[m[4l[?7h[H[2J[24d[24;1H[?1049l
[?1l>[?1049h[1;24r(B[m[4l[?7h[H[2J[24d[24;1H[?1049l
[?1l>[?1049h[1;24r(B[m[4l[?7h[H[2J[24d[24;1H[?1049l
[?1l>[?1049h[1;24r(B[m[4l[?7h[H[2J[24d[24;1H[?1049l
[?1l>[?1049h[1;24r(B[m[4l[?7h[H[2J[24d[24;1H[?1049l
[?1l>[?1049h[1;24r(B[m[4l[?7h[H[2J[24d[24;1H[?1049l
[?1l>[?1049h[1;24r(B[m[4l[?7h[H[2J[24d[24;1H[?1049l
[?1l>[?1049h[1;24r(B[m[4l[?7h[H[2J[24d[24;1H[?1049l
[?1l>[?1049h[1;24r(B[m[4l[?7h[H[2J[24d[24;1H[?1049l
[?1l>[?1049h[1;24r(B[m[4l[?7h[H[2J[24d[24;1H[?1049l
[?1l>[?1049h[1;24r(B[m[4l[?7h[H[2J[24d[24;1H[?1049l
[?1l>[?1049h[1;24r(B[m[4l[?7h[H[2J[24d[24;1H[?1049l
[?1l>[?1049h[1;24r(B[m[4l[?7h[H[2J[24d[24;1H[?1049l
[?1l>[?1049h[1;24r(B[m[4l[?7h[H[2J[24d[24;1H[?1049l
[?1l>[?1049h[1;24r(B[m[4l[?7h[H[2J[24d[24;1H[?1049l
[?1l>[?1049h[1;24r(B[m[4l[?7h[H[2J[24d[24;1H[?1049l
[?1l>[?1049h[1;24r(B[m[4l[?7h[H[2J[24d[24;1H[?1049l
[?1l>[?1049h[1;24r(B[m[4l[?7h[H[2J[24d[24;1H[?1049l
[?1l>[?1049h[1;24r(B[m[4l[?7h[H[2J[24d[24;1H[?1049l
[?1l>[?1049h[1;24r(B[m[4l[?7h[H[2J[24d[24;1H[?1049l
[?1l>[?1049h[1;24r(B[m[4l[?7h[H[2J[24d[24;1H[?1049l
[?1l>[?1049h[1;24r(B[m[4l[?7h[H[2J[24d[24;1H[?1049l
[?1l>[?1049h[1;24r(B[m[4l[?7h[H[2J[24d[24;1H[?1049l
[?1l>[?1049h[1;24r(B[m[4l[?7h[H[2J[24d[24;1H[?1049l
[?1l>[?1049h[1;24r(B[m[4l[?7h[H[2J[24d[24;1H[?1049l
[?1l>[?1049h[1;24r(B[m[4l[?7h[H[2J[24d[24;1H[?1049l
[?1l>[?1049h[1;24r(B[m[4l[?7h[H[2J[24d[24;1H[?1049l
[?1l>[?1049h[1;24r(B[m[4l[?7h[H[2J[24d[24;1H[?1049l
[?1l>[?1049h[1;24r(B[m[4l[?7h[H[2J[24d[24;1H[?1049l
[?1l>[?1049h[1;24r(B[m[4l[?7h[H[2J[24d[24;1H[?1049l
[?1l>[?1049h[1;24r(B[m[4l[?7h[H[2J[24d[24;1H[?1049l
[?1l>[?1049h[1;24r(B[m[4l[?7h[H[2J[24d[24;1H[?1049l
[?1l>[?1049h[1;24r(B[m[4l[?7h[H[2J[24d[24;1H[?1049l
[?1l>[?1049h[1;24r(B[m[4l[?7h[H[2J[24d[24;1H[?1049l
[?1l>[?1049h[1;24r(B[m[4l[?7h[H[2J[24d[24;1H[?1049l
[?1l>[?1049h[1;24r(B[m[4l[?7h[H[2J[24d[24;1H[?1049l
[?1l>[?1049h[1;24r(B[m[4l[?7h[H[2J[24d[24;1H[?1049l
[?1l>[?1049h[1;24r(B[m[4l[?7h[H[2J[24d[24;1H[?1049l
[?1l>[?1049h[1;24r(B[m[4l[?7h[H[2J[24d[24;1H[?1049l
[?1l>[?1049h[1;24r(B[m[4l[?7h[H[2J[24d[24;1H[?1049l
[?1l>[?1049h[1;24r(B[m[4l[?7h[H[2J[24d[24;1H[?1049l
[?1l>[?1049h[1;24r(B[m[4l[?7h[H[2J[24d[24;1H[?1049l
[?1l>[?1049h[1;24r(B[m[4l[?7h[H[2J[24d[24;1H[?1049l
[?1l>[?1049h[1;24r(B[m[4l[?7h[H[2J[24d[24;1H[?1049l
[?1l>[?1049h[1;24r(B[m[4l[?7h[H[2J[24d[24;1H[?1049l
[?1l>[?1049h[1;24r(B[m[4l[?7h[H[2J[24d[24;1H[?1049l
[?1l>[?1049h[1;24r(B[m[4l[?7h[H[2J[24d[24;1H[?1049l
[?1l>[?1049h[1;24r(B[m[4l[?7h[H[2J[24d[24;1H[?1049l
[?1l>[?1049h[1;24r(B[m[4l[?7h[H[2J[24d[24;1H[?1049l
[?1l>[?1049h[1;24r(B[m[4l[?7h[H[2J[24d[24;1H[?1049l
[?1l>[?1049h[1;24r(B[m[4l[?7h[H[2J[24d[24;1H[?1049l
[?1l>[?1049h[1;24r(B[m[4l[?7h[H[2J[24d[24;1H[?1049l
[?1l>[?1049h[1;24r(B[m[4l[?7h[H[2J[24d[24;1H[?1049l
[?1l>[?1049h[1;24r(B[m[4l[?7h[H[2J[24d[24;1H[?1049l
[?1l>[?1049h[1;24r(B[m[4l[?7h[H[2J[24d[24;1H[?1049l
[?1l>[?1049h[1;24r(B[m[4l[?7h[H[2J[24d[24;1H[?1049l
[?1l>[?1049h[1;24r(B[m[4l[?7h[H[2J[24d[24;1H[?1049l
[?1l>[?1049h[1;24r(B[m[4l[?7h[H[2J[24d[24;1H[?1049l
[?1l>[?1049h[1;24r(B[m[4l[?7h[H[2J[24d[24;1H[?1049l
[?1l>[?1049h[1;24r(B[m[4l[?7h[H[2J[24d[24;1H[?1049l
[?1l>[?1049h[1;24r(B[m[4l[?7h[H[2J[24d[24;1H[?1049l
[?1l>[?1049h[1;24r(B[m[4l[?7h[H[2J[24d[24;1H[?1049l
[?1l>[?1049h[1;24r(B[m[4l[?7h[H[2J[24d[24;1H[?1049l
[?1l>[?1049h[1;24r(B[m[4l[?7h[H[2J[24d[24;1H[?1049l
[?1l>[?1049h[1;24r(B[m[4l[?7h[H[2J[24d[24;1H[?1049l
[?1l>[?1049h[1;24r(B[m[4l[?7h[H[2J[24d[24;1H[?1049l
[?1l>[?1049h[1;24r(B[m[4l[?7h[H[2J[24d[24;1H[?1049l
[?1l>[?1049h[1;24r(B[m[4l[?7h[H[2J[24d[24;1H[?1049l
[?1l>[?1049h[1;24r(B[m[4l[?7h[H[2J[24d[24;1H[?1049l
[?1l>[?1049h[1;24r(B[m[4l[?7h[H[2J[24d[24;1H[?1049l
[?1l>[?1049h[1;24r(B[m[4l[?7h[H[2J[24d[24;1H[?1049l
[?1l>[?1049h[1;24r(B[m[4l[?7h[H[2J[24d[24;1H[?1049l
[?1l>[?1049h[1;24r(B[m[4l[?7h[H[2J[24d[24;1H[?1049l
[?1l>[?1049h[1;24r(B[m[4l[?7h[H[2J[24d[24;1H[?1049l
[?1l>[?1049h[1;24r(B[m[4l[?7h[H[2J[24d[24;1H[?1049l
[?1l>[?1049h[1;24r(B[m[4l[?7h[H[2J[24d[24;1H[?1049l
[?1l>[?1049h[1;24r(B[m[4l[?7h[H[2J[24d[24;1H[?1049l
[?1l>[?1049h[1;24r(B[m[4l[?7h[H[2J[24d[24;1H[?1049l
[?1l>[?1049h[1;24r(B[m[4l[?7h[H[2J[24d[24;1H[?1049l
[?1l>[?1049h[1;24r(B[m[4l[?7h[H[2J[24d[24;1H[?1049l
[?1l>[?1049h[1;24r(B[m[4l[?7h[H[2J[24d[24;1H[?1049l
[?1l>[?1049h[1;24r(B[m[4l[?7h[H[2J[24d[24;1H[?1049l
[?1l>[?1049h[1;24r(B[m[4l[?7h[H[2J[24d[24;1H[?1049l
[?1l>[?1049h[1;24r(B[m[4l[?7h[H[2J[24d[24;1H[?1049l
[?1l>[?1049h[1;24r(B[m[4l[?7h[H[2J[24d[24;1H[?1049l
[?1l>[?1049h[1;24r(B[m[4l[?7h[H[2J[24d[24;1H[?1049l
[?1l>[?1049h[1;24r(B[m[4l[?7h[H[2J[24d[24;1H[?1049l
[?1l>[?1049h[1;24r(B[m[4l[?7h[H[2J[24d[24;1H[?1049l
[?1l>[?1049h[1;24r(B[m[4l[?7h[H[2J[24d[24;1H[?1049l
[?1l>[?1049h[1;24r(B[m[4l[?7h[H[2J[24d[24;1H[?1049l
[?1l>[?1049h[1;24r(B[m[4l[?7h[H[2J[24d[24;1H[?1049l
[?1l>[?1049h[1;24r(B[m[4l[?7h[H[2J[24d[24;1H[?1049l
[?1l>[?1049h[1;24r(B[m[4l[?7h[H[2J[24d[24;1H[?1049l
[?1l>[?1049h[1;24r(B[m[4l[?7h[H[2J[24d[24;1H[?1049l
[?1l>[?1049h[1;24r(B[m[4l[?7h[H[2J[24d[24;1H[?1049l
[?1l>[?1049h[1;24r(B[m[4l[?7h[H[2J[24d[24;1H[?1049l
[?1l>[?1049h[1;24r(B[m[4l[?7h[H[2J[24d[24;1H[?1049l
[?1l>[?1049h[1;24r(B[m[4l[?7h[H[2J[24d[24;1H[?1049l
[?1l>[?1049h[1;24r(B[m[4l[?7h[H[2J[24d[24;1H[?1049l
[?1l>[?1049h[1;24r(B[m[4l[?7h[H[2J[24d[24;1H[?1049l
[?1l>
maxits=2000
convits=200
dampfact=0.900000
number of data points: 250
Preferences: 0.684166

Number of identified clusters: 14
Net similarity:
	 719.869678
Sum of data point-to-exemplar similarities:
	 710.291351
Sum of exemplar preferences:
	 9.578327
Number of iterations: 276

Start:	April 06, 2013, Saturday, 16:34:59 CEST
End:	April 06, 2013, Saturday, 16:35:01 CEST

For more information, please read the files under "/local/wiwie/ClustEval/repository/results/04_06_2013-15_56_18_paper_run_synthetic/clusters/APcluster_1_synthetic_spirals250.155.results/" ...

