...[mcl] new tab created
[mcl] pid 3022
 ite -------------------  chaos  time hom(avg,lo,hi) expa expb expc fmv
  1  ...................   0.24  0.05 1.06/0.97/1.19 1.00 1.00 1.00 100
  2  ...................   0.66  0.05 0.75/0.73/0.79 1.00 1.00 1.00 100
  3  ...................   1.57  0.05 0.46/0.45/0.46 1.00 1.00 1.00 100
  4  ...................   0.83  0.07 0.88/0.88/0.88 1.00 0.54 0.54 100
  5  ...................   0.57  0.02 0.82/0.82/0.82 1.00 0.27 0.15 100
  6  ...................   1.83  0.00 0.44/0.44/0.44 1.00 1.00 0.15 100
  7  ...................   3.95  0.01 0.46/0.46/0.46 1.00 0.89 0.13 100
  8  ...................   0.99  0.00 0.80/0.80/0.80 1.00 0.27 0.04 100
  9  ...................   0.36  0.00 0.76/0.76/0.76 1.00 0.33 0.01 100
 10  ...................   0.04  0.00 0.96/0.96/0.96 1.00 0.67 0.01   0
 11  ...................   0.00  0.00 1.00/1.00/1.00 1.00 0.50 0.00   0
[mcl] jury pruning marks: <100,100,100>, out of 100
[mcl] jury pruning synopsis: <100.0 or really really really good> (cf -scheme, -do log)
[mcl] output is in /local/wiwie/ClustEval/repository/results/04_06_2013-15_56_18_paper_run_synthetic/clusters/MCL_norm_synthetic_cuboid250.56.results
[mcl] 1 clusters found
[mcl] output is in /local/wiwie/ClustEval/repository/results/04_06_2013-15_56_18_paper_run_synthetic/clusters/MCL_norm_synthetic_cuboid250.56.results

Please cite:
    Stijn van Dongen, Graph Clustering by Flow Simulation.  PhD thesis,
    University of Utrecht, May 2000.
       (  http://www.library.uu.nl/digiarchief/dip/diss/1895620/full.pdf
       or  http://micans.org/mcl/lit/svdthesis.pdf.gz)
OR
    Stijn van Dongen, A cluster algorithm for graphs. Technical
    Report INS-R0010, National Research Institute for Mathematics
    and Computer Science in the Netherlands, Amsterdam, May 2000.
       (  http://www.cwi.nl/ftp/CWIreports/INS/INS-R0010.ps.Z
       or  http://micans.org/mcl/lit/INS-R0010.ps.Z)

