...[mcl] new tab created
[mcl] pid 35134
 ite -------------------  chaos  time hom(avg,lo,hi) expa expb expc fmv
  1  ...................   0.24  0.06 1.05/0.98/1.16 1.00 1.00 1.00 100
  2  ...................   0.20  0.05 0.97/0.96/1.00 1.00 1.00 1.00 100
  3  ...................   0.22  0.06 0.95/0.95/0.95 1.00 1.00 1.00 100
  4  ...................   0.24  0.05 0.94/0.94/0.94 1.00 1.00 1.00 100
  5  ...................   0.26  0.05 0.92/0.92/0.92 1.00 1.00 1.00 100
  6  ...................   0.29  0.07 0.91/0.91/0.91 1.00 1.00 1.00 100
  7  ...................   0.32  0.05 0.89/0.89/0.89 1.00 1.00 1.00 100
  8  ...................   0.35  0.05 0.88/0.88/0.88 1.00 1.00 1.00 100
  9  ...................   0.38  0.05 0.86/0.86/0.86 1.00 1.00 1.00 100
 10  ...................   0.41  0.05 0.84/0.84/0.84 1.00 1.00 1.00 100
 11  ...................   0.45  0.05 0.81/0.81/0.81 1.00 1.00 1.00 100
 12  ...................   0.50  0.06 0.79/0.79/0.79 1.00 1.00 1.00 100
 13  ...................   0.54  0.06 0.76/0.76/0.76 1.00 1.00 1.00 100
 14  ...................   0.59  0.05 0.74/0.74/0.74 1.00 1.00 1.00 100
 15  ...................   0.65  0.06 0.71/0.71/0.71 1.00 1.00 1.00 100
 16  ...................   0.70  0.05 0.69/0.69/0.69 1.00 1.00 1.00 100
 17  ...................   0.77  0.06 0.66/0.66/0.66 1.00 1.00 1.00 100
 18  ...................   0.83  0.05 0.64/0.64/0.64 1.00 1.00 1.00 100
 19  ...................   0.90  0.07 0.62/0.62/0.62 1.00 1.00 1.00 100
 20  ...................   0.98  0.05 0.60/0.60/0.60 1.00 1.00 1.00 100
 21  ...................   1.06  0.05 0.59/0.59/0.59 1.00 1.00 1.00 100
 22  ...................   1.14  0.05 0.58/0.58/0.58 1.00 1.00 1.00 100
 23  ...................   1.23  0.05 0.58/0.58/0.58 1.00 1.00 1.00 100
 24  ...................   1.32  0.06 0.57/0.57/0.57 1.00 1.00 1.00 100
 25  ...................   1.41  0.05 0.58/0.58/0.58 1.00 1.00 1.00 100
 26  ...................   1.51  0.05 0.58/0.58/0.58 1.00 1.00 1.00 100
 27  ...................   1.61  0.05 0.59/0.59/0.59 1.00 1.00 1.00 100
 28  ...................   1.66  0.05 0.60/0.60/0.60 1.00 0.96 0.96 100
 29  ...................   1.70  0.04 0.61/0.61/0.61 1.00 0.96 0.92 100
 30  ...................   1.72  0.05 0.63/0.63/0.63 1.00 0.95 0.87 100
 31  ...................   1.73  0.04 0.64/0.64/0.64 1.00 0.94 0.82 100
 32  ...................   1.70  0.04 0.65/0.65/0.65 1.00 0.92 0.75 100
 33  ...................   1.69  0.03 0.66/0.66/0.66 1.00 0.93 0.69 100
 34  ...................   1.73  0.02 0.67/0.67/0.67 1.00 0.95 0.66 100
 35  ...................   1.69  0.03 0.67/0.67/0.67 1.00 0.90 0.59 100
 36  ...................   1.66  0.03 0.68/0.68/0.68 1.00 0.91 0.54 100
 37  ...................   1.68  0.02 0.67/0.67/0.67 1.00 0.93 0.50 100
 38  ...................   1.64  0.02 0.66/0.66/0.66 1.00 0.90 0.44 100
 39  ...................   1.67  0.03 0.65/0.65/0.65 1.00 0.93 0.41 100
 40  ...................   1.77  0.02 0.64/0.64/0.64 1.00 0.96 0.40 100
 41  ...................   1.80  0.01 0.62/0.62/0.62 1.00 0.92 0.36 100
 42  ...................   1.81  0.01 0.59/0.59/0.59 1.00 0.91 0.33 100
 43  ...................   1.79  0.01 0.57/0.57/0.57 1.00 0.89 0.30 100
 44  ...................   1.93  0.01 0.54/0.54/0.54 1.00 0.97 0.29 100
 45  ...................   2.02  0.01 0.51/0.51/0.51 1.00 0.94 0.27 100
 46  ...................   2.11  0.01 0.48/0.48/0.48 1.00 0.94 0.26 100
 47  ...................   2.19  0.01 0.46/0.46/0.46 1.00 0.94 0.24 100
 48  ...................   2.30  0.01 0.43/0.43/0.43 1.00 0.95 0.23 100
 49  ...................   2.37  0.01 0.41/0.41/0.41 1.00 0.93 0.21 100
 50  ...................   2.51  0.01 0.40/0.40/0.40 1.00 0.96 0.20 100
 51  ...................   2.71  0.00 0.38/0.38/0.38 1.00 0.98 0.20 100
 52  ...................   2.96  0.01 0.38/0.38/0.38 1.00 1.00 0.20 100
 53  ...................   3.22  0.01 0.38/0.38/0.38 1.00 1.00 0.20 100
 54  ...................   3.40  0.00 0.38/0.38/0.38 1.00 0.98 0.20 100
 55  ...................   3.64  0.00 0.39/0.39/0.39 1.00 1.00 0.20 100
 56  ...................   3.62  0.01 0.41/0.41/0.41 1.00 0.94 0.18 100
 57  ...................   3.62  0.01 0.43/0.43/0.43 1.00 0.96 0.18 100
 58  ...................   3.48  0.00 0.46/0.46/0.46 1.00 0.93 0.16 100
 59  ...................   3.20  0.01 0.50/0.50/0.50 1.00 0.90 0.15 100
 60  ...................   3.14  0.00 0.54/0.54/0.54 1.00 0.97 0.14 100
 61  ...................   2.86  0.01 0.58/0.58/0.58 1.00 0.92 0.13 100
 62  ...................   2.65  0.00 0.63/0.63/0.63 1.00 0.94 0.12 100
 63  ...................   2.43  0.01 0.67/0.67/0.67 1.00 0.94 0.12 100
 64  ...................   2.13  0.00 0.71/0.71/0.71 1.00 0.90 0.10 100
 65  ...................   2.01  0.01 0.75/0.75/0.75 1.00 0.96 0.10 100
 66  ...................   1.75  0.00 0.78/0.78/0.78 1.00 0.88 0.09 100
 67  ...................   1.52  0.00 0.81/0.81/0.81 1.00 0.86 0.08 100
 68  ...................   1.37  0.00 0.82/0.82/0.82 1.00 0.89 0.07 100
 69  ...................   1.08  0.00 0.83/0.83/0.83 1.00 0.76 0.05 100
 70  ...................   1.03  0.00 0.83/0.83/0.83 1.00 0.92 0.05 100
 71  ...................   0.90  0.01 0.83/0.83/0.83 1.00 0.83 0.04 100
 72  ...................   0.76  0.00 0.82/0.82/0.82 1.00 0.80 0.03 100
 73  ...................   0.80  0.00 0.81/0.81/0.81 1.00 1.00 0.03 100
 74  ...................   0.74  0.00 0.79/0.79/0.79 1.00 0.87 0.03 100
 75  ...................   0.67  0.00 0.78/0.78/0.78 1.00 0.86 0.02 100
 76  ...................   0.59  0.00 0.76/0.76/0.76 1.00 0.83 0.02 100
 77  ...................   0.62  0.00 0.74/0.74/0.74 1.00 1.00 0.02 100
 78  ...................   0.52  0.00 0.73/0.73/0.73 1.00 0.80 0.02 100
 79  ...................   0.40  0.00 0.72/0.72/0.72 1.00 0.75 0.01   0
 80  ...................   0.42  0.00 0.71/0.71/0.71 1.00 1.00 0.01   0
 81  ...................   0.43  0.00 0.70/0.70/0.70 1.00 1.00 0.01   0
 82  ...................   0.44  0.00 0.69/0.69/0.69 1.00 1.00 0.01   0
 83  ...................   0.44  0.00 0.69/0.69/0.69 1.00 1.00 0.01   0
 84  ...................   0.44  0.00 0.69/0.69/0.69 1.00 1.00 0.01   0
 85  ...................   0.44  0.00 0.70/0.70/0.70 1.00 1.00 0.01   0
 86  ...................   0.43  0.00 0.71/0.71/0.71 1.00 1.00 0.01   0
 87  ...................   0.41  0.01 0.72/0.72/0.72 1.00 1.00 0.01   0
 88  ...................   0.39  0.00 0.74/0.74/0.74 1.00 1.00 0.01   0
 89  ...................   0.36  0.00 0.75/0.75/0.75 1.00 1.00 0.01   0
 90  ...................   0.33  0.00 0.78/0.78/0.78 1.00 1.00 0.01   0
 91  ...................   0.30  0.00 0.80/0.80/0.80 1.00 1.00 0.01   0
 92  ...................   0.26  0.00 0.82/0.82/0.82 1.00 1.00 0.01   0
 93  ...................   0.23  0.00 0.85/0.85/0.85 1.00 1.00 0.01   0
 94  ...................   0.19  0.00 0.87/0.87/0.87 1.00 1.00 0.01   0
 95  ...................   0.15  0.00 0.90/0.90/0.90 1.00 1.00 0.01   0
 96  ...................   0.12  0.00 0.92/0.92/0.92 1.00 1.00 0.01   0
 97  ...................   0.09  0.00 0.94/0.94/0.94 1.00 1.00 0.01   0
 98  ...................   0.04  0.00 0.96/0.96/0.96 1.00 0.67 0.01   0
 99  ...................   0.03  0.00 0.97/0.97/0.97 1.00 1.00 0.01   0
100  ...................   0.02  0.00 0.98/0.98/0.98 1.00 1.00 0.01   0
101  ...................   0.01  0.00 0.99/0.99/0.99 1.00 1.00 0.01   0
102  ...................   0.01  0.00 0.99/0.99/0.99 1.00 1.00 0.01   0
103  ...................   0.00  0.00 1.00/1.00/1.00 1.00 1.00 0.01   0
104  ...................   0.00  0.00 1.00/1.00/1.00 1.00 1.00 0.01   0
105  ...................   0.00  0.00 1.00/1.00/1.00 1.00 1.00 0.01   0
106  ...................   0.00  0.00 1.00/1.00/1.00 1.00 1.00 0.01   0
107  ...................   0.00  0.00 1.00/1.00/1.00 1.00 1.00 0.01   0
108  ...................   0.00  0.00 1.00/1.00/1.00 1.00 0.50 0.00   0
[mcl] jury pruning marks: <100,100,100>, out of 100
[mcl] jury pruning synopsis: <100.0 or really really really good> (cf -scheme, -do log)
[mcl] output is in /local/wiwie/ClustEval/repository/results/04_06_2013-15_56_18_paper_run_synthetic/clusters/MCL_norm_synthetic_cassini250.162.results
[mcl] 1 clusters found
[mcl] output is in /local/wiwie/ClustEval/repository/results/04_06_2013-15_56_18_paper_run_synthetic/clusters/MCL_norm_synthetic_cassini250.162.results

Please cite:
    Stijn van Dongen, Graph Clustering by Flow Simulation.  PhD thesis,
    University of Utrecht, May 2000.
       (  http://www.library.uu.nl/digiarchief/dip/diss/1895620/full.pdf
       or  http://micans.org/mcl/lit/svdthesis.pdf.gz)
OR
    Stijn van Dongen, A cluster algorithm for graphs. Technical
    Report INS-R0010, National Research Institute for Mathematics
    and Computer Science in the Netherlands, Amsterdam, May 2000.
       (  http://www.cwi.nl/ftp/CWIreports/INS/INS-R0010.ps.Z
       or  http://micans.org/mcl/lit/INS-R0010.ps.Z)

