...[mcl] new tab created
[mcl] pid 3843
 ite -------------------  chaos  time hom(avg,lo,hi) expa expb expc fmv
  1  ...................   0.24  0.06 1.05/0.98/1.16 1.00 1.00 1.00 100
  2  ...................   0.85  0.04 0.73/0.69/0.80 1.00 1.00 1.00 100
  3  ...................   1.78  0.07 0.69/0.67/0.71 1.00 0.60 0.60 100
  4  ...................   3.02  0.02 0.38/0.37/0.38 1.05 0.33 0.20 100
  5  ...................   0.68  0.00 0.85/0.85/0.85 1.00 0.24 0.05 100
  6  ...................   0.21  0.00 0.92/0.92/0.92 1.00 0.25 0.01 100
  7  ...................   0.23  0.00 0.78/0.78/0.78 1.00 0.67 0.01   0
  8  ...................   0.00  0.01 1.00/1.00/1.00 1.00 1.00 0.01   0
  9  ...................   0.00  0.00 1.00/1.00/1.00 1.00 0.50 0.00   0
[mcl] jury pruning marks: <100,100,99>, out of 100
[mcl] jury pruning synopsis: <99.9 or perfect> (cf -scheme, -do log)
[mcl] output is in /local/wiwie/ClustEval/repository/results/04_06_2013-15_56_18_paper_run_synthetic/clusters/MCL_norm_synthetic_cassini250.15.results
[mcl] 1 clusters found
[mcl] output is in /local/wiwie/ClustEval/repository/results/04_06_2013-15_56_18_paper_run_synthetic/clusters/MCL_norm_synthetic_cassini250.15.results

Please cite:
    Stijn van Dongen, Graph Clustering by Flow Simulation.  PhD thesis,
    University of Utrecht, May 2000.
       (  http://www.library.uu.nl/digiarchief/dip/diss/1895620/full.pdf
       or  http://micans.org/mcl/lit/svdthesis.pdf.gz)
OR
    Stijn van Dongen, A cluster algorithm for graphs. Technical
    Report INS-R0010, National Research Institute for Mathematics
    and Computer Science in the Netherlands, Amsterdam, May 2000.
       (  http://www.cwi.nl/ftp/CWIreports/INS/INS-R0010.ps.Z
       or  http://micans.org/mcl/lit/INS-R0010.ps.Z)

