...[mcl] new tab created
[mcl] pid 872
 ite -------------------  chaos  time hom(avg,lo,hi) expa expb expc fmv
  1  ...................   0.24  0.09 1.06/0.97/1.19 1.00 1.00 1.00 100
  2  ...................   0.25  0.05 0.96/0.95/0.97 1.00 1.00 1.00 100
  3  ...................   0.28  0.05 0.94/0.94/0.94 1.00 1.00 1.00 100
  4  ...................   0.31  0.05 0.92/0.92/0.92 1.00 1.00 1.00 100
  5  ...................   0.34  0.05 0.91/0.91/0.91 1.00 1.00 1.00 100
  6  ...................   0.37  0.05 0.89/0.89/0.89 1.00 1.00 1.00 100
  7  ...................   0.41  0.05 0.87/0.87/0.87 1.00 1.00 1.00 100
  8  ...................   0.45  0.06 0.84/0.84/0.84 1.00 1.00 1.00 100
  9  ...................   0.50  0.05 0.82/0.82/0.82 1.00 1.00 1.00 100
 10  ...................   0.55  0.06 0.78/0.78/0.78 1.00 1.00 1.00 100
 11  ...................   0.60  0.05 0.75/0.75/0.75 1.00 1.00 1.00 100
 12  ...................   0.66  0.05 0.71/0.71/0.71 1.00 1.00 1.00 100
 13  ...................   0.73  0.06 0.67/0.67/0.67 1.00 1.00 1.00 100
 14  ...................   0.80  0.05 0.63/0.63/0.63 1.00 1.00 1.00 100
 15  ...................   0.87  0.04 0.59/0.59/0.59 1.00 1.00 1.00 100
 16  ...................   0.96  0.05 0.55/0.55/0.55 1.00 1.00 1.00 100
 17  ...................   1.04  0.05 0.52/0.52/0.52 1.00 1.00 1.00 100
 18  ...................   1.13  0.05 0.49/0.49/0.49 1.00 1.00 1.00 100
 19  ...................   1.23  0.05 0.47/0.47/0.47 1.00 1.00 1.00 100
 20  ...................   1.32  0.05 0.46/0.46/0.46 1.00 1.00 1.00 100
 21  ...................   1.41  0.05 0.45/0.45/0.45 1.00 1.00 1.00 100
 22  ...................   1.49  0.08 0.45/0.45/0.45 1.00 1.00 1.00 100
 23  ...................   1.56  0.05 0.46/0.46/0.46 1.00 1.00 1.00 100
 24  ...................   1.62  0.06 0.48/0.48/0.48 1.00 1.00 1.00 100
 25  ...................   1.65  0.08 0.50/0.50/0.50 1.00 1.00 1.00 100
 26  ...................   1.67  0.05 0.54/0.54/0.54 1.00 1.00 1.00 100
 27  ...................   1.64  0.05 0.58/0.58/0.58 1.00 0.99 0.99 100
 28  ...................   1.59  0.05 0.63/0.63/0.63 1.00 0.99 0.98 100
 29  ...................   1.48  0.05 0.68/0.68/0.68 1.00 0.95 0.93 100
 30  ...................   1.34  0.04 0.73/0.73/0.73 1.00 0.94 0.87 100
 31  ...................   1.20  0.04 0.77/0.77/0.77 1.00 0.92 0.80 100
 32  ...................   1.06  0.03 0.82/0.82/0.82 1.00 0.91 0.73 100
 33  ...................   0.93  0.03 0.85/0.85/0.85 1.00 0.88 0.64 100
 34  ...................   0.80  0.02 0.88/0.88/0.88 1.00 0.86 0.55 100
 35  ...................   0.68  0.02 0.91/0.91/0.91 1.00 0.82 0.45 100
 36  ...................   0.56  0.01 0.92/0.92/0.92 1.00 0.78 0.35 100
 37  ...................   0.50  0.01 0.93/0.93/0.93 1.00 0.83 0.29 100
 38  ...................   0.47  0.00 0.93/0.93/0.93 1.00 0.88 0.26 100
 39  ...................   0.42  0.00 0.93/0.93/0.93 1.00 0.81 0.21 100
 40  ...................   0.42  0.01 0.92/0.92/0.92 1.00 0.92 0.19 100
 41  ...................   0.41  0.01 0.91/0.91/0.91 1.00 0.87 0.17 100
 42  ...................   0.43  0.00 0.90/0.90/0.90 1.00 0.95 0.16 100
 43  ...................   0.47  0.01 0.88/0.88/0.88 1.00 1.00 0.16 100
 44  ...................   0.51  0.00 0.86/0.86/0.86 1.00 0.97 0.16 100
 45  ...................   0.53  0.01 0.84/0.84/0.84 1.00 0.95 0.15 100
 46  ...................   0.59  0.00 0.82/0.82/0.82 1.00 1.00 0.15 100
 47  ...................   0.65  0.01 0.79/0.79/0.79 1.00 1.00 0.15 100
 48  ...................   0.72  0.00 0.76/0.76/0.76 1.00 1.00 0.15 100
 49  ...................   0.80  0.00 0.73/0.73/0.73 1.00 1.00 0.15 100
 50  ...................   0.88  0.00 0.69/0.69/0.69 1.00 1.00 0.15 100
 51  ...................   0.98  0.00 0.65/0.65/0.65 1.00 1.00 0.15 100
 52  ...................   1.09  0.01 0.62/0.62/0.62 1.00 1.00 0.15 100
 53  ...................   1.21  0.00 0.58/0.58/0.58 1.00 1.00 0.15 100
 54  ...................   1.35  0.01 0.54/0.54/0.54 1.00 1.00 0.15 100
 55  ...................   1.50  0.00 0.51/0.51/0.51 1.00 1.00 0.15 100
 56  ...................   1.67  0.01 0.47/0.47/0.47 1.00 1.00 0.15 100
 57  ...................   1.85  0.00 0.45/0.45/0.45 1.00 1.00 0.15 100
 58  ...................   2.06  0.01 0.42/0.42/0.42 1.00 1.00 0.15 100
 59  ...................   2.28  0.00 0.40/0.40/0.40 1.00 1.00 0.15 100
 60  ...................   2.53  0.01 0.39/0.39/0.39 1.00 1.00 0.15 100
 61  ...................   2.78  0.00 0.38/0.38/0.38 1.00 1.00 0.15 100
 62  ...................   3.06  0.01 0.38/0.38/0.38 1.00 1.00 0.15 100
 63  ...................   3.34  0.00 0.38/0.38/0.38 1.00 1.00 0.15 100
 64  ...................   3.62  0.01 0.38/0.38/0.38 1.00 1.00 0.15 100
 65  ...................   3.69  0.00 0.39/0.39/0.39 1.00 0.95 0.14 100
 66  ...................   3.84  0.01 0.41/0.41/0.41 1.00 0.97 0.14 100
 67  ...................   4.07  0.00 0.43/0.43/0.43 1.00 1.00 0.14 100
 68  ...................   4.14  0.01 0.45/0.45/0.45 1.00 0.97 0.13 100
 69  ...................   4.31  0.00 0.48/0.48/0.48 1.00 1.00 0.13 100
 70  ...................   4.44  0.01 0.50/0.50/0.50 1.00 1.00 0.13 100
 71  ...................   4.12  0.00 0.53/0.53/0.53 1.00 0.91 0.12 100
 72  ...................   3.62  0.01 0.56/0.56/0.56 1.00 0.87 0.10 100
 73  ...................   3.08  0.00 0.59/0.59/0.59 1.00 0.85 0.09 100
 74  ...................   2.93  0.00 0.62/0.62/0.62 1.00 0.95 0.08 100
 75  ...................   2.50  0.01 0.65/0.65/0.65 1.00 0.86 0.07 100
 76  ...................   2.20  0.00 0.67/0.67/0.67 1.00 0.89 0.06 100
 77  ...................   1.91  0.00 0.70/0.70/0.70 1.00 0.87 0.06 100
 78  ...................   1.62  0.00 0.71/0.71/0.71 1.00 0.86 0.05 100
 79  ...................   1.07  0.00 0.73/0.73/0.73 1.00 0.67 0.03 100
 80  ...................   0.93  0.00 0.74/0.74/0.74 1.00 0.87 0.03 100
 81  ...................   0.92  0.00 0.74/0.74/0.74 1.00 1.00 0.03 100
 82  ...................   0.92  0.01 0.75/0.75/0.75 1.00 1.00 0.03 100
 83  ...................   0.92  0.00 0.75/0.75/0.75 1.00 1.00 0.03 100
 84  ...................   0.78  0.00 0.75/0.75/0.75 1.00 0.86 0.02 100
 85  ...................   0.77  0.00 0.75/0.75/0.75 1.00 1.00 0.02 100
 86  ...................   0.50  0.00 0.76/0.76/0.76 1.00 0.67 0.02 100
 87  ...................   0.48  0.00 0.76/0.76/0.76 1.00 1.00 0.02   0
 88  ...................   0.46  0.00 0.77/0.77/0.77 1.00 1.00 0.02   0
 89  ...................   0.42  0.00 0.79/0.79/0.79 1.00 1.00 0.02   0
 90  ...................   0.29  0.00 0.81/0.81/0.81 1.00 0.75 0.01   0
 91  ...................   0.17  0.00 0.83/0.83/0.83 1.00 0.67 0.01   0
 92  ...................   0.15  0.00 0.85/0.85/0.85 1.00 1.00 0.01   0
 93  ...................   0.13  0.01 0.87/0.87/0.87 1.00 1.00 0.01   0
 94  ...................   0.10  0.00 0.90/0.90/0.90 1.00 1.00 0.01   0
 95  ...................   0.08  0.00 0.92/0.92/0.92 1.00 1.00 0.01   0
 96  ...................   0.06  0.00 0.94/0.94/0.94 1.00 1.00 0.01   0
 97  ...................   0.05  0.00 0.95/0.95/0.95 1.00 1.00 0.01   0
 98  ...................   0.03  0.00 0.97/0.97/0.97 1.00 1.00 0.01   0
 99  ...................   0.02  0.00 0.98/0.98/0.98 1.00 1.00 0.01   0
100  ...................   0.01  0.00 0.99/0.99/0.99 1.00 1.00 0.01   0
101  ...................   0.01  0.00 0.99/0.99/0.99 1.00 1.00 0.01   0
102  ...................   0.01  0.00 0.99/0.99/0.99 1.00 1.00 0.01   0
103  ...................   0.00  0.00 1.00/1.00/1.00 1.00 1.00 0.01   0
104  ...................   0.00  0.00 1.00/1.00/1.00 1.00 1.00 0.01   0
105  ...................   0.00  0.00 1.00/1.00/1.00 1.00 1.00 0.01   0
106  ...................   0.00  0.00 1.00/1.00/1.00 1.00 1.00 0.01   0
107  ...................   0.00  0.00 1.00/1.00/1.00 1.00 0.50 0.00   0
[mcl] jury pruning marks: <100,100,100>, out of 100
[mcl] jury pruning synopsis: <100.0 or really really really good> (cf -scheme, -do log)
[mcl] output is in /local/wiwie/ClustEval/repository/results/04_06_2013-15_56_18_paper_run_synthetic/clusters/MCL_norm_synthetic_cuboid250.259.results
[mcl] 1 clusters found
[mcl] output is in /local/wiwie/ClustEval/repository/results/04_06_2013-15_56_18_paper_run_synthetic/clusters/MCL_norm_synthetic_cuboid250.259.results

Please cite:
    Stijn van Dongen, Graph Clustering by Flow Simulation.  PhD thesis,
    University of Utrecht, May 2000.
       (  http://www.library.uu.nl/digiarchief/dip/diss/1895620/full.pdf
       or  http://micans.org/mcl/lit/svdthesis.pdf.gz)
OR
    Stijn van Dongen, A cluster algorithm for graphs. Technical
    Report INS-R0010, National Research Institute for Mathematics
    and Computer Science in the Netherlands, Amsterdam, May 2000.
       (  http://www.cwi.nl/ftp/CWIreports/INS/INS-R0010.ps.Z
       or  http://micans.org/mcl/lit/INS-R0010.ps.Z)

