...[mcl] new tab created
[mcl] pid 33643
 ite -------------------  chaos  time hom(avg,lo,hi) expa expb expc fmv
  1  ...................   0.24  0.06 1.06/0.97/1.19 1.00 1.00 1.00 100
  2  ...................   0.26  0.05 0.96/0.95/0.97 1.00 1.00 1.00 100
  3  ...................   0.29  0.05 0.93/0.93/0.93 1.00 1.00 1.00 100
  4  ...................   0.33  0.05 0.91/0.91/0.91 1.00 1.00 1.00 100
  5  ...................   0.37  0.04 0.89/0.89/0.89 1.00 1.00 1.00 100
  6  ...................   0.42  0.06 0.86/0.86/0.86 1.00 1.00 1.00 100
  7  ...................   0.47  0.05 0.83/0.83/0.83 1.00 1.00 1.00 100
  8  ...................   0.53  0.05 0.79/0.79/0.79 1.00 1.00 1.00 100
  9  ...................   0.60  0.05 0.75/0.75/0.75 1.00 1.00 1.00 100
 10  ...................   0.67  0.04 0.70/0.70/0.70 1.00 1.00 1.00 100
 11  ...................   0.76  0.05 0.65/0.65/0.65 1.00 1.00 1.00 100
 12  ...................   0.85  0.06 0.60/0.60/0.60 1.00 1.00 1.00 100
 13  ...................   0.95  0.05 0.56/0.56/0.56 1.00 1.00 1.00 100
 14  ...................   1.06  0.05 0.52/0.52/0.52 1.00 1.00 1.00 100
 15  ...................   1.17  0.04 0.48/0.48/0.48 1.00 1.00 1.00 100
 16  ...................   1.29  0.05 0.46/0.46/0.46 1.00 1.00 1.00 100
 17  ...................   1.40  0.05 0.45/0.45/0.45 1.00 1.00 1.00 100
 18  ...................   1.50  0.05 0.45/0.45/0.45 1.00 1.00 1.00 100
 19  ...................   1.58  0.05 0.46/0.46/0.46 1.00 1.00 1.00 100
 20  ...................   1.64  0.06 0.49/0.49/0.49 1.00 1.00 1.00 100
 21  ...................   1.67  0.05 0.53/0.53/0.53 1.00 1.00 1.00 100
 22  ...................   1.64  0.05 0.58/0.58/0.58 1.00 0.99 0.99 100
 23  ...................   1.55  0.05 0.64/0.64/0.64 1.00 0.97 0.96 100
 24  ...................   1.37  0.06 0.71/0.71/0.71 1.00 0.92 0.88 100
 25  ...................   1.22  0.04 0.77/0.77/0.77 1.00 0.92 0.81 100
 26  ...................   1.05  0.04 0.82/0.82/0.82 1.00 0.89 0.72 100
 27  ...................   0.90  0.03 0.86/0.86/0.86 1.00 0.86 0.62 100
 28  ...................   0.74  0.02 0.90/0.90/0.90 1.00 0.80 0.50 100
 29  ...................   0.57  0.01 0.92/0.92/0.92 1.00 0.73 0.36 100
 30  ...................   0.49  0.01 0.93/0.93/0.93 1.00 0.79 0.29 100
 31  ...................   0.44  0.01 0.93/0.93/0.93 1.00 0.81 0.23 100
 32  ...................   0.41  0.01 0.93/0.93/0.93 1.00 0.84 0.20 100
 33  ...................   0.42  0.01 0.92/0.92/0.92 1.00 0.90 0.18 100
 34  ...................   0.43  0.00 0.90/0.90/0.90 1.00 0.91 0.16 100
 35  ...................   0.48  0.01 0.88/0.88/0.88 1.00 1.00 0.16 100
 36  ...................   0.52  0.00 0.85/0.85/0.85 1.00 0.95 0.15 100
 37  ...................   0.57  0.01 0.82/0.82/0.82 1.00 0.97 0.15 100
 38  ...................   0.65  0.00 0.79/0.79/0.79 1.00 1.00 0.15 100
 39  ...................   0.74  0.00 0.75/0.75/0.75 1.00 1.00 0.15 100
 40  ...................   0.84  0.00 0.71/0.71/0.71 1.00 1.00 0.15 100
 41  ...................   0.95  0.00 0.66/0.66/0.66 1.00 1.00 0.15 100
 42  ...................   1.09  0.01 0.62/0.62/0.62 1.00 1.00 0.15 100
 43  ...................   1.24  0.00 0.57/0.57/0.57 1.00 1.00 0.15 100
 44  ...................   1.42  0.01 0.52/0.52/0.52 1.00 1.00 0.15 100
 45  ...................   1.62  0.00 0.48/0.48/0.48 1.00 1.00 0.15 100
 46  ...................   1.84  0.01 0.45/0.45/0.45 1.00 1.00 0.15 100
 47  ...................   2.10  0.00 0.42/0.42/0.42 1.00 1.00 0.15 100
 48  ...................   2.38  0.00 0.40/0.40/0.40 1.00 1.00 0.15 100
 49  ...................   2.70  0.00 0.38/0.38/0.38 1.00 1.00 0.15 100
 50  ...................   3.03  0.01 0.38/0.38/0.38 1.00 1.00 0.15 100
 51  ...................   3.38  0.00 0.38/0.38/0.38 1.00 1.00 0.15 100
 52  ...................   3.64  0.01 0.39/0.39/0.39 1.00 0.97 0.14 100
 53  ...................   3.86  0.00 0.40/0.40/0.40 1.00 0.97 0.14 100
 54  ...................   4.04  0.01 0.43/0.43/0.43 1.00 0.97 0.14 100
 55  ...................   4.17  0.00 0.45/0.45/0.45 1.00 0.97 0.13 100
 56  ...................   4.36  0.01 0.49/0.49/0.49 1.00 1.00 0.13 100
 57  ...................   4.23  0.00 0.52/0.52/0.52 1.00 0.94 0.12 100
 58  ...................   3.61  0.01 0.56/0.56/0.56 1.00 0.84 0.10 100
 59  ...................   3.07  0.00 0.59/0.59/0.59 1.00 0.85 0.09 100
 60  ...................   2.92  0.00 0.63/0.63/0.63 1.00 0.95 0.08 100
 61  ...................   2.21  0.01 0.66/0.66/0.66 1.00 0.76 0.06 100
 62  ...................   2.04  0.00 0.69/0.69/0.69 1.00 0.94 0.06 100
 63  ...................   1.61  0.00 0.72/0.72/0.72 1.00 0.80 0.05 100
 64  ...................   1.06  0.00 0.73/0.73/0.73 1.00 0.67 0.03 100
 65  ...................   0.92  0.00 0.74/0.74/0.74 1.00 0.87 0.03 100
 66  ...................   0.92  0.00 0.75/0.75/0.75 1.00 1.00 0.03 100
 67  ...................   0.91  0.01 0.75/0.75/0.75 1.00 1.00 0.03 100
 68  ...................   0.77  0.00 0.75/0.75/0.75 1.00 0.86 0.02 100
 69  ...................   0.76  0.00 0.75/0.75/0.75 1.00 1.00 0.02 100
 70  ...................   0.49  0.00 0.76/0.76/0.76 1.00 0.67 0.02 100
 71  ...................   0.46  0.00 0.77/0.77/0.77 1.00 1.00 0.02   0
 72  ...................   0.42  0.00 0.79/0.79/0.79 1.00 1.00 0.02   0
 73  ...................   0.18  0.00 0.82/0.82/0.82 1.00 0.50 0.01   0
 74  ...................   0.16  0.00 0.84/0.84/0.84 1.00 1.00 0.01   0
 75  ...................   0.13  0.00 0.87/0.87/0.87 1.00 1.00 0.01   0
 76  ...................   0.10  0.00 0.90/0.90/0.90 1.00 1.00 0.01   0
 77  ...................   0.07  0.00 0.93/0.93/0.93 1.00 1.00 0.01   0
 78  ...................   0.05  0.00 0.95/0.95/0.95 1.00 1.00 0.01   0
 79  ...................   0.03  0.00 0.97/0.97/0.97 1.00 1.00 0.01   0
 80  ...................   0.02  0.00 0.98/0.98/0.98 1.00 1.00 0.01   0
 81  ...................   0.01  0.01 0.99/0.99/0.99 1.00 1.00 0.01   0
 82  ...................   0.01  0.00 0.99/0.99/0.99 1.00 1.00 0.01   0
 83  ...................   0.00  0.00 1.00/1.00/1.00 1.00 1.00 0.01   0
 84  ...................   0.00  0.00 1.00/1.00/1.00 1.00 1.00 0.01   0
 85  ...................   0.00  0.00 1.00/1.00/1.00 1.00 1.00 0.01   0
 86  ...................   0.00  0.00 1.00/1.00/1.00 1.00 0.50 0.00   0
[mcl] jury pruning marks: <100,100,100>, out of 100
[mcl] jury pruning synopsis: <100.0 or really really really good> (cf -scheme, -do log)
[mcl] output is in /local/wiwie/ClustEval/repository/results/04_06_2013-15_56_18_paper_run_synthetic/clusters/MCL_norm_synthetic_cuboid250.151.results
[mcl] 1 clusters found
[mcl] output is in /local/wiwie/ClustEval/repository/results/04_06_2013-15_56_18_paper_run_synthetic/clusters/MCL_norm_synthetic_cuboid250.151.results

Please cite:
    Stijn van Dongen, Graph Clustering by Flow Simulation.  PhD thesis,
    University of Utrecht, May 2000.
       (  http://www.library.uu.nl/digiarchief/dip/diss/1895620/full.pdf
       or  http://micans.org/mcl/lit/svdthesis.pdf.gz)
OR
    Stijn van Dongen, A cluster algorithm for graphs. Technical
    Report INS-R0010, National Research Institute for Mathematics
    and Computer Science in the Netherlands, Amsterdam, May 2000.
       (  http://www.cwi.nl/ftp/CWIreports/INS/INS-R0010.ps.Z
       or  http://micans.org/mcl/lit/INS-R0010.ps.Z)

