...[mcl] new tab created
[mcl] pid 27993
 ite -------------------  chaos  time hom(avg,lo,hi) expa expb expc fmv
  1  ...................   0.24  0.09 1.06/0.97/1.19 1.00 1.00 1.00 100
  2  ...................   0.35  0.05 0.92/0.90/0.94 1.00 1.00 1.00 100
  3  ...................   0.54  0.06 0.79/0.79/0.79 1.00 1.00 1.00 100
  4  ...................   0.82  0.05 0.62/0.62/0.62 1.00 1.00 1.00 100
  5  ...................   1.21  0.05 0.47/0.47/0.47 1.00 1.00 1.00 100
  6  ...................   1.58  0.05 0.46/0.46/0.46 1.00 1.00 1.00 100
  7  ...................   1.61  0.50 0.61/0.61/0.61 1.00 0.98 0.98 100
  8  ...................   1.05  0.05 0.82/0.82/0.82 1.00 0.73 0.71 100
  9  ...................   0.54  0.03 0.92/0.92/0.92 1.00 0.45 0.32 100
 10  ...................   0.42  0.01 0.91/0.91/0.91 1.00 0.52 0.17 100
 11  ...................   0.57  0.01 0.83/0.83/0.83 1.00 0.88 0.15 100
 12  ...................   0.90  0.00 0.69/0.69/0.69 1.00 1.00 0.15 100
 13  ...................   1.44  0.01 0.52/0.52/0.52 1.00 1.00 0.15 100
 14  ...................   2.31  0.00 0.40/0.40/0.40 1.00 1.00 0.15 100
 15  ...................   3.50  0.01 0.38/0.38/0.38 1.00 1.00 0.15 100
 16  ...................   4.12  0.00 0.45/0.45/0.45 1.00 0.89 0.13 100
 17  ...................   3.42  0.01 0.58/0.58/0.58 1.00 0.76 0.10 100
 18  ...................   1.84  0.00 0.71/0.71/0.71 1.00 0.56 0.06 100
 19  ...................   0.90  0.00 0.76/0.76/0.76 1.00 0.50 0.03 100
 20  ...................   0.50  0.00 0.76/0.76/0.76 1.00 0.57 0.02 100
 21  ...................   0.20  0.00 0.80/0.80/0.80 1.00 0.50 0.01   0
 22  ...................   0.10  0.00 0.90/0.90/0.90 1.00 1.00 0.01   0
 23  ...................   0.03  0.00 0.97/0.97/0.97 1.00 1.00 0.01   0
 24  ...................   0.00  0.00 1.00/1.00/1.00 1.00 1.00 0.01   0
 25  ...................   0.00  0.00 1.00/1.00/1.00 1.00 0.50 0.00   0
[mcl] jury pruning marks: <100,100,100>, out of 100
[mcl] jury pruning synopsis: <100.0 or really really really good> (cf -scheme, -do log)
[mcl] output is in /local/wiwie/ClustEval/repository/results/04_06_2013-15_56_18_paper_run_synthetic/clusters/MCL_norm_synthetic_cuboid250.38.results
[mcl] 1 clusters found
[mcl] output is in /local/wiwie/ClustEval/repository/results/04_06_2013-15_56_18_paper_run_synthetic/clusters/MCL_norm_synthetic_cuboid250.38.results

Please cite:
    Stijn van Dongen, Graph Clustering by Flow Simulation.  PhD thesis,
    University of Utrecht, May 2000.
       (  http://www.library.uu.nl/digiarchief/dip/diss/1895620/full.pdf
       or  http://micans.org/mcl/lit/svdthesis.pdf.gz)
OR
    Stijn van Dongen, A cluster algorithm for graphs. Technical
    Report INS-R0010, National Research Institute for Mathematics
    and Computer Science in the Netherlands, Amsterdam, May 2000.
       (  http://www.cwi.nl/ftp/CWIreports/INS/INS-R0010.ps.Z
       or  http://micans.org/mcl/lit/INS-R0010.ps.Z)

