...[mcl] new tab created
[mcl] pid 40415
 ite -------------------  chaos  time hom(avg,lo,hi) expa expb expc fmv
  1  ...................   0.24  0.05 1.06/0.97/1.19 1.00 1.00 1.00 100
  2  ...................   0.37  0.05 0.91/0.89/0.93 1.00 1.00 1.00 100
  3  ...................   0.59  0.05 0.76/0.75/0.76 1.00 1.00 1.00 100
  4  ...................   0.94  0.05 0.56/0.56/0.56 1.00 1.00 1.00 100
  5  ...................   1.38  0.05 0.45/0.45/0.45 1.00 1.00 1.00 100
  6  ...................   1.67  0.05 0.52/0.52/0.52 1.00 1.00 1.00 100
  7  ...................   1.28  0.04 0.75/0.75/0.75 1.00 0.84 0.84 100
  8  ...................   0.63  0.03 0.91/0.91/0.91 1.00 0.48 0.40 100
  9  ...................   0.43  0.01 0.92/0.92/0.92 1.00 0.46 0.18 100
 10  ...................   0.56  0.00 0.83/0.83/0.83 1.00 0.80 0.15 100
 11  ...................   0.93  0.01 0.67/0.67/0.67 1.00 1.00 0.15 100
 12  ...................   1.58  0.00 0.49/0.49/0.49 1.00 1.00 0.15 100
 13  ...................   2.63  0.01 0.38/0.38/0.38 1.00 1.00 0.15 100
 14  ...................   3.77  0.00 0.40/0.40/0.40 1.00 0.95 0.14 100
 15  ...................   4.27  0.00 0.51/0.51/0.51 1.00 0.91 0.13 100
 16  ...................   2.27  0.00 0.67/0.67/0.67 1.00 0.53 0.07 100
 17  ...................   0.89  0.00 0.75/0.75/0.75 1.00 0.41 0.03 100
 18  ...................   0.76  0.00 0.75/0.75/0.75 1.00 0.86 0.02 100
 19  ...................   0.21  0.00 0.79/0.79/0.79 1.00 0.33 0.01 100
 20  ...................   0.10  0.00 0.90/0.90/0.90 1.00 1.00 0.01   0
 21  ...................   0.02  0.00 0.98/0.98/0.98 1.00 1.00 0.01   0
 22  ...................   0.00  0.00 1.00/1.00/1.00 1.00 1.00 0.01   0
 23  ...................   0.00  0.00 1.00/1.00/1.00 1.00 0.50 0.00   0
[mcl] jury pruning marks: <100,100,100>, out of 100
[mcl] jury pruning synopsis: <100.0 or really really really good> (cf -scheme, -do log)
[mcl] output is in /local/wiwie/ClustEval/repository/results/04_06_2013-15_56_18_paper_run_synthetic/clusters/MCL_norm_synthetic_cuboid250.92.results
[mcl] 1 clusters found
[mcl] output is in /local/wiwie/ClustEval/repository/results/04_06_2013-15_56_18_paper_run_synthetic/clusters/MCL_norm_synthetic_cuboid250.92.results

Please cite:
    Stijn van Dongen, Graph Clustering by Flow Simulation.  PhD thesis,
    University of Utrecht, May 2000.
       (  http://www.library.uu.nl/digiarchief/dip/diss/1895620/full.pdf
       or  http://micans.org/mcl/lit/svdthesis.pdf.gz)
OR
    Stijn van Dongen, A cluster algorithm for graphs. Technical
    Report INS-R0010, National Research Institute for Mathematics
    and Computer Science in the Netherlands, Amsterdam, May 2000.
       (  http://www.cwi.nl/ftp/CWIreports/INS/INS-R0010.ps.Z
       or  http://micans.org/mcl/lit/INS-R0010.ps.Z)

