...[mcl] new tab created
[mcl] pid 29529
 ite -------------------  chaos  time hom(avg,lo,hi) expa expb expc fmv
  1  ...................   0.20  0.05 1.04/0.98/1.14 1.00 1.00 1.00 100
  2  ...................   0.17  0.06 0.96/0.95/0.97 1.00 1.00 1.00 100
  3  ...................   0.19  0.05 0.94/0.94/0.94 1.00 1.00 1.00 100
  4  ...................   0.20  0.04 0.94/0.94/0.94 1.00 1.00 1.00 100
  5  ...................   0.22  0.05 0.92/0.92/0.92 1.00 1.00 1.00 100
  6  ...................   0.24  0.05 0.91/0.91/0.91 1.00 1.00 1.00 100
  7  ...................   0.27  0.05 0.90/0.90/0.90 1.00 1.00 1.00 100
  8  ...................   0.29  0.05 0.88/0.88/0.88 1.00 1.00 1.00 100
  9  ...................   0.32  0.05 0.87/0.87/0.87 1.00 1.00 1.00 100
 10  ...................   0.34  0.05 0.85/0.85/0.85 1.00 1.00 1.00 100
 11  ...................   0.37  0.05 0.83/0.83/0.83 1.00 1.00 1.00 100
 12  ...................   0.41  0.05 0.81/0.81/0.81 1.00 1.00 1.00 100
 13  ...................   0.44  0.05 0.80/0.80/0.80 1.00 1.00 1.00 100
 14  ...................   0.48  0.05 0.78/0.78/0.78 1.00 1.00 1.00 100
 15  ...................   0.52  0.08 0.76/0.76/0.76 1.00 1.00 1.00 100
 16  ...................   0.56  0.05 0.74/0.74/0.74 1.00 1.00 1.00 100
 17  ...................   0.61  0.05 0.72/0.72/0.72 1.00 1.00 1.00 100
 18  ...................   0.66  0.05 0.71/0.71/0.71 1.00 1.00 1.00 100
 19  ...................   0.71  0.08 0.70/0.70/0.70 1.00 1.00 1.00 100
 20  ...................   0.76  0.05 0.68/0.68/0.68 1.00 1.00 1.00 100
 21  ...................   0.82  0.05 0.67/0.67/0.67 1.00 1.00 1.00 100
 22  ...................   0.88  0.06 0.67/0.67/0.67 1.00 1.00 1.00 100
 23  ...................   0.95  0.06 0.66/0.66/0.66 1.00 1.00 1.00 100
 24  ...................   1.02  0.05 0.65/0.65/0.65 1.00 1.00 1.00 100
 25  ...................   1.10  0.05 0.65/0.65/0.65 1.00 1.00 1.00 100
 26  ...................   1.14  0.05 0.64/0.64/0.64 1.00 0.97 0.97 100
 27  ...................   1.16  0.04 0.64/0.64/0.64 1.00 0.95 0.92 100
 28  ...................   1.19  0.05 0.64/0.64/0.64 1.00 0.95 0.87 100
 29  ...................   1.21  0.05 0.63/0.63/0.63 1.00 0.94 0.82 100
 30  ...................   1.23  0.04 0.63/0.63/0.63 1.00 0.95 0.78 100
 31  ...................   1.27  0.04 0.63/0.63/0.63 1.00 0.96 0.75 100
 32  ...................   1.31  0.05 0.62/0.62/0.62 1.00 0.96 0.72 100
 33  ...................   1.33  0.03 0.62/0.62/0.62 1.00 0.94 0.68 100
 34  ...................   1.37  0.04 0.62/0.62/0.62 1.00 0.95 0.65 100
 35  ...................   1.38  0.04 0.62/0.62/0.62 1.00 0.94 0.61 100
 36  ...................   1.39  0.03 0.61/0.61/0.61 1.00 0.93 0.57 100
 37  ...................   1.43  0.02 0.61/0.61/0.61 1.00 0.96 0.54 100
 38  ...................   1.45  0.02 0.61/0.61/0.61 1.00 0.94 0.51 100
 39  ...................   1.49  0.02 0.61/0.61/0.61 1.00 0.95 0.49 100
 40  ...................   1.53  0.01 0.60/0.60/0.60 1.00 0.95 0.46 100
 41  ...................   1.56  0.02 0.60/0.60/0.60 1.00 0.95 0.44 100
 42  ...................   1.59  0.02 0.60/0.60/0.60 1.00 0.95 0.42 100
 43  ...................   1.62  0.01 0.60/0.60/0.60 1.00 0.94 0.39 100
 44  ...................   1.63  0.01 0.60/0.60/0.60 1.00 0.94 0.37 100
 45  ...................   1.64  0.01 0.59/0.59/0.59 1.00 0.93 0.34 100
 46  ...................   1.69  0.01 0.59/0.59/0.59 1.00 0.95 0.33 100
 47  ...................   1.68  0.01 0.59/0.59/0.59 1.00 0.93 0.30 100
 48  ...................   1.72  0.01 0.59/0.59/0.59 1.00 0.95 0.29 100
 49  ...................   1.74  0.01 0.59/0.59/0.59 1.00 0.94 0.27 100
 50  ...................   1.76  0.02 0.59/0.59/0.59 1.00 0.94 0.26 100
 51  ...................   1.78  0.01 0.59/0.59/0.59 1.00 0.94 0.24 100
 52  ...................   1.78  0.01 0.58/0.58/0.58 1.00 0.93 0.22 100
 53  ...................   1.84  0.01 0.58/0.58/0.58 1.00 0.96 0.22 100
 54  ...................   1.83  0.00 0.58/0.58/0.58 1.00 0.93 0.20 100
 55  ...................   1.80  0.00 0.58/0.58/0.58 1.00 0.92 0.18 100
 56  ...................   1.84  0.01 0.58/0.58/0.58 1.00 0.96 0.18 100
 57  ...................   1.79  0.00 0.58/0.58/0.58 1.00 0.91 0.16 100
 58  ...................   1.81  0.00 0.58/0.58/0.58 1.00 0.95 0.15 100
 59  ...................   1.83  0.00 0.58/0.58/0.58 1.00 0.95 0.14 100
 60  ...................   1.83  0.00 0.58/0.58/0.58 1.00 0.94 0.14 100
 61  ...................   1.83  0.00 0.58/0.58/0.58 1.00 0.94 0.13 100
 62  ...................   1.82  0.00 0.57/0.57/0.57 1.00 0.94 0.12 100
 63  ...................   1.79  0.00 0.58/0.58/0.58 1.00 0.93 0.11 100
 64  ...................   1.74  0.01 0.58/0.58/0.58 1.00 0.93 0.10 100
 65  ...................   1.69  0.00 0.58/0.58/0.58 1.00 0.92 0.10 100
 66  ...................   1.61  0.00 0.58/0.58/0.58 1.00 0.92 0.09 100
 67  ...................   1.52  0.01 0.58/0.58/0.58 1.00 0.91 0.08 100
 68  ...................   1.57  0.00 0.59/0.59/0.59 1.00 1.00 0.08 100
 69  ...................   1.45  0.00 0.59/0.59/0.59 1.00 0.90 0.07 100
 70  ...................   1.31  0.00 0.60/0.60/0.60 1.00 0.89 0.06 100
 71  ...................   1.32  0.01 0.61/0.61/0.61 1.00 1.00 0.06 100
 72  ...................   1.16  0.00 0.62/0.62/0.62 1.00 0.87 0.06 100
 73  ...................   1.14  0.00 0.63/0.63/0.63 1.00 1.00 0.06 100
 74  ...................   0.96  0.00 0.65/0.65/0.65 1.00 0.86 0.05 100
 75  ...................   0.93  0.00 0.67/0.67/0.67 1.00 1.00 0.05 100
 76  ...................   0.88  0.01 0.69/0.69/0.69 1.00 1.00 0.05 100
 77  ...................   0.69  0.00 0.71/0.71/0.71 1.00 0.83 0.04 100
 78  ...................   0.63  0.00 0.74/0.74/0.74 1.00 1.00 0.04 100
 79  ...................   0.45  0.00 0.77/0.77/0.77 1.00 0.80 0.03 100
 80  ...................   0.40  0.00 0.80/0.80/0.80 1.00 1.00 0.03 100
 81  ...................   0.34  0.00 0.83/0.83/0.83 1.00 1.00 0.03 100
 82  ...................   0.29  0.00 0.86/0.86/0.86 1.00 1.00 0.03 100
 83  ...................   0.17  0.00 0.88/0.88/0.88 1.00 0.75 0.02 100
 84  ...................   0.14  0.00 0.91/0.91/0.91 1.00 1.00 0.02 100
 85  ...................   0.10  0.00 0.93/0.93/0.93 1.00 1.00 0.02 100
 86  ...................   0.07  0.01 0.95/0.95/0.95 1.00 1.00 0.02 100
 87  ...................   0.05  0.00 0.97/0.97/0.97 1.00 1.00 0.02 100
 88  ...................   0.02  0.00 0.98/0.98/0.98 1.00 0.67 0.02 100
 89  ...................   0.01  0.00 0.99/0.99/0.99 1.00 1.00 0.02   0
 90  ...................   0.01  0.00 0.99/0.99/0.99 1.00 1.00 0.02   0
 91  ...................   0.01  0.00 0.99/0.99/0.99 1.00 1.00 0.02   0
 92  ...................   0.00  0.00 1.00/1.00/1.00 1.00 1.00 0.02   0
 93  ...................   0.00  0.00 1.00/1.00/1.00 1.00 1.00 0.02   0
 94  ...................   0.00  0.00 1.00/1.00/1.00 1.00 1.00 0.02   0
 95  ...................   0.00  0.00 1.00/1.00/1.00 1.00 0.50 0.01   0
 96  ...................   0.00  0.00 1.00/1.00/1.00 1.00 1.00 0.01   0
[mcl] jury pruning marks: <100,100,100>, out of 100
[mcl] jury pruning synopsis: <100.0 or really really really good> (cf -scheme, -do log)
[mcl] output is in /local/wiwie/ClustEval/repository/results/04_06_2013-15_56_18_paper_run_synthetic/clusters/MCL_norm_synthetic_spirals250.174.results
[mcl] 1 clusters found
[mcl] output is in /local/wiwie/ClustEval/repository/results/04_06_2013-15_56_18_paper_run_synthetic/clusters/MCL_norm_synthetic_spirals250.174.results

Please cite:
    Stijn van Dongen, Graph Clustering by Flow Simulation.  PhD thesis,
    University of Utrecht, May 2000.
       (  http://www.library.uu.nl/digiarchief/dip/diss/1895620/full.pdf
       or  http://micans.org/mcl/lit/svdthesis.pdf.gz)
OR
    Stijn van Dongen, A cluster algorithm for graphs. Technical
    Report INS-R0010, National Research Institute for Mathematics
    and Computer Science in the Netherlands, Amsterdam, May 2000.
       (  http://www.cwi.nl/ftp/CWIreports/INS/INS-R0010.ps.Z
       or  http://micans.org/mcl/lit/INS-R0010.ps.Z)

