...[mcl] new tab created
[mcl] pid 26089
 ite -------------------  chaos  time hom(avg,lo,hi) expa expb expc fmv
  1  ...................   0.20  0.06 1.04/0.98/1.14 1.00 1.00 1.00 100
  2  ...................   0.43  0.05 0.83/0.82/0.85 1.00 1.00 1.00 100
  3  ...................   0.97  0.05 0.66/0.66/0.66 1.00 1.00 1.00 100
  4  ...................   1.37  0.06 0.62/0.62/0.62 1.00 0.62 0.62 100
  5  ...................   1.66  0.02 0.59/0.59/0.59 1.00 0.53 0.33 100
  6  ...................   1.88  0.01 0.58/0.58/0.58 1.00 0.51 0.17 100
  7  ...................   1.58  0.01 0.59/0.59/0.59 1.00 0.48 0.08 100
  8  ...................   0.43  0.00 0.78/0.78/0.78 1.00 0.40 0.03 100
  9  ...................   0.01  0.00 0.99/0.99/0.99 1.00 0.50 0.02 100
 10  ...................  -0.00  0.00 1.00/1.00/1.00 1.00 0.50 0.01   0
[mcl] jury pruning marks: <100,100,100>, out of 100
[mcl] jury pruning synopsis: <100.0 or really really really good> (cf -scheme, -do log)
[mcl] output is in /local/wiwie/ClustEval/repository/results/04_06_2013-15_56_18_paper_run_synthetic/clusters/MCL_norm_synthetic_spirals250.59.results
[mcl] 1 clusters found
[mcl] output is in /local/wiwie/ClustEval/repository/results/04_06_2013-15_56_18_paper_run_synthetic/clusters/MCL_norm_synthetic_spirals250.59.results

Please cite:
    Stijn van Dongen, Graph Clustering by Flow Simulation.  PhD thesis,
    University of Utrecht, May 2000.
       (  http://www.library.uu.nl/digiarchief/dip/diss/1895620/full.pdf
       or  http://micans.org/mcl/lit/svdthesis.pdf.gz)
OR
    Stijn van Dongen, A cluster algorithm for graphs. Technical
    Report INS-R0010, National Research Institute for Mathematics
    and Computer Science in the Netherlands, Amsterdam, May 2000.
       (  http://www.cwi.nl/ftp/CWIreports/INS/INS-R0010.ps.Z
       or  http://micans.org/mcl/lit/INS-R0010.ps.Z)

