...[mcl] new tab created
[mcl] pid 45011
 ite -------------------  chaos  time hom(avg,lo,hi) expa expb expc fmv
  1  ...................   0.24  0.06 1.05/0.98/1.16 1.00 1.00 1.00 100
  2  ...................   0.20  0.05 0.97/0.95/1.00 1.00 1.00 1.00 100
  3  ...................   0.22  0.05 0.94/0.94/0.95 1.00 1.00 1.00 100
  4  ...................   0.24  0.05 0.93/0.93/0.93 1.00 1.00 1.00 100
  5  ...................   0.27  0.05 0.92/0.92/0.92 1.00 1.00 1.00 100
  6  ...................   0.30  0.05 0.90/0.90/0.90 1.00 1.00 1.00 100
  7  ...................   0.33  0.05 0.89/0.89/0.89 1.00 1.00 1.00 100
  8  ...................   0.36  0.05 0.87/0.87/0.87 1.00 1.00 1.00 100
  9  ...................   0.40  0.05 0.85/0.85/0.85 1.00 1.00 1.00 100
 10  ...................   0.44  0.05 0.82/0.82/0.82 1.00 1.00 1.00 100
 11  ...................   0.48  0.05 0.80/0.80/0.80 1.00 1.00 1.00 100
 12  ...................   0.53  0.06 0.77/0.77/0.77 1.00 1.00 1.00 100
 13  ...................   0.59  0.05 0.74/0.74/0.74 1.00 1.00 1.00 100
 14  ...................   0.64  0.05 0.71/0.71/0.71 1.00 1.00 1.00 100
 15  ...................   0.71  0.06 0.69/0.69/0.69 1.00 1.00 1.00 100
 16  ...................   0.77  0.08 0.66/0.66/0.66 1.00 1.00 1.00 100
 17  ...................   0.84  0.05 0.64/0.64/0.64 1.00 1.00 1.00 100
 18  ...................   0.92  0.06 0.62/0.62/0.62 1.00 1.00 1.00 100
 19  ...................   1.00  0.05 0.60/0.60/0.60 1.00 1.00 1.00 100
 20  ...................   1.09  0.05 0.59/0.59/0.59 1.00 1.00 1.00 100
 21  ...................   1.18  0.05 0.58/0.58/0.58 1.00 1.00 1.00 100
 22  ...................   1.28  0.05 0.57/0.57/0.57 1.00 1.00 1.00 100
 23  ...................   1.38  0.05 0.57/0.57/0.57 1.00 1.00 1.00 100
 24  ...................   1.48  0.05 0.58/0.58/0.58 1.00 1.00 1.00 100
 25  ...................   1.60  0.06 0.59/0.59/0.59 1.00 1.00 1.00 100
 26  ...................   1.67  0.06 0.60/0.60/0.60 1.00 0.97 0.97 100
 27  ...................   1.69  0.05 0.61/0.61/0.61 1.00 0.95 0.92 100
 28  ...................   1.72  0.05 0.63/0.63/0.63 1.00 0.95 0.87 100
 29  ...................   1.72  0.04 0.64/0.64/0.64 1.00 0.93 0.81 100
 30  ...................   1.68  0.04 0.65/0.65/0.65 1.00 0.91 0.73 100
 31  ...................   1.69  0.05 0.66/0.66/0.66 1.00 0.93 0.68 100
 32  ...................   1.72  0.03 0.67/0.67/0.67 1.00 0.94 0.64 100
 33  ...................   1.68  0.03 0.68/0.68/0.68 1.00 0.90 0.57 100
 34  ...................   1.68  0.04 0.68/0.68/0.68 1.00 0.91 0.52 100
 35  ...................   1.64  0.02 0.67/0.67/0.67 1.00 0.89 0.46 100
 36  ...................   1.67  0.02 0.66/0.66/0.66 1.00 0.92 0.43 100
 37  ...................   1.73  0.02 0.64/0.64/0.64 1.00 0.93 0.40 100
 38  ...................   1.81  0.02 0.62/0.62/0.62 1.00 0.94 0.38 100
 39  ...................   1.78  0.01 0.60/0.60/0.60 1.00 0.88 0.33 100
 40  ...................   1.77  0.01 0.57/0.57/0.57 1.00 0.89 0.30 100
 41  ...................   1.92  0.02 0.54/0.54/0.54 1.00 0.97 0.29 100
 42  ...................   2.03  0.01 0.51/0.51/0.51 1.00 0.94 0.27 100
 43  ...................   2.13  0.01 0.48/0.48/0.48 1.00 0.94 0.26 100
 44  ...................   2.23  0.01 0.45/0.45/0.45 1.00 0.94 0.24 100
 45  ...................   2.32  0.00 0.43/0.43/0.43 1.00 0.93 0.22 100
 46  ...................   2.40  0.01 0.41/0.41/0.41 1.00 0.93 0.21 100
 47  ...................   2.61  0.01 0.39/0.39/0.39 1.00 0.98 0.20 100
 48  ...................   2.83  0.00 0.38/0.38/0.38 1.00 0.98 0.20 100
 49  ...................   3.10  0.00 0.38/0.38/0.38 1.00 1.00 0.20 100
 50  ...................   3.38  0.00 0.38/0.38/0.38 1.00 1.00 0.20 100
 51  ...................   3.57  0.01 0.39/0.39/0.39 1.00 0.98 0.20 100
 52  ...................   3.65  0.01 0.41/0.41/0.41 1.00 0.96 0.19 100
 53  ...................   3.76  0.00 0.43/0.43/0.43 1.00 0.98 0.18 100
 54  ...................   3.56  0.01 0.46/0.46/0.46 1.00 0.91 0.17 100
 55  ...................   3.21  0.00 0.50/0.50/0.50 1.00 0.88 0.15 100
 56  ...................   3.14  0.00 0.54/0.54/0.54 1.00 0.97 0.14 100
 57  ...................   2.77  0.00 0.59/0.59/0.59 1.00 0.89 0.13 100
 58  ...................   2.64  0.01 0.64/0.64/0.64 1.00 0.97 0.12 100
 59  ...................   2.25  0.00 0.69/0.69/0.69 1.00 0.87 0.11 100
 60  ...................   2.04  0.01 0.73/0.73/0.73 1.00 0.93 0.10 100
 61  ...................   1.76  0.00 0.77/0.77/0.77 1.00 0.88 0.09 100
 62  ...................   1.59  0.00 0.79/0.79/0.79 1.00 0.91 0.08 100
 63  ...................   1.44  0.00 0.82/0.82/0.82 1.00 0.90 0.07 100
 64  ...................   1.15  0.01 0.83/0.83/0.83 1.00 0.78 0.06 100
 65  ...................   1.11  0.00 0.83/0.83/0.83 1.00 0.93 0.05 100
 66  ...................   0.89  0.00 0.83/0.83/0.83 1.00 0.77 0.04 100
 67  ...................   0.75  0.00 0.82/0.82/0.82 1.00 0.80 0.03 100
 68  ...................   0.80  0.00 0.81/0.81/0.81 1.00 1.00 0.03 100
 69  ...................   0.74  0.00 0.79/0.79/0.79 1.00 0.87 0.03 100
 70  ...................   0.68  0.01 0.77/0.77/0.77 1.00 0.86 0.02 100
 71  ...................   0.60  0.00 0.76/0.76/0.76 1.00 0.83 0.02 100
 72  ...................   0.63  0.00 0.74/0.74/0.74 1.00 1.00 0.02 100
 73  ...................   0.53  0.01 0.72/0.72/0.72 1.00 0.80 0.02 100
 74  ...................   0.41  0.00 0.71/0.71/0.71 1.00 0.75 0.01   0
 75  ...................   0.42  0.00 0.70/0.70/0.70 1.00 1.00 0.01   0
 76  ...................   0.43  0.00 0.70/0.70/0.70 1.00 1.00 0.01   0
 77  ...................   0.44  0.00 0.69/0.69/0.69 1.00 1.00 0.01   0
 78  ...................   0.44  0.00 0.69/0.69/0.69 1.00 1.00 0.01   0
 79  ...................   0.44  0.00 0.70/0.70/0.70 1.00 1.00 0.01   0
 80  ...................   0.43  0.00 0.71/0.71/0.71 1.00 1.00 0.01   0
 81  ...................   0.41  0.00 0.72/0.72/0.72 1.00 1.00 0.01   0
 82  ...................   0.39  0.00 0.74/0.74/0.74 1.00 1.00 0.01   0
 83  ...................   0.36  0.00 0.76/0.76/0.76 1.00 1.00 0.01   0
 84  ...................   0.33  0.00 0.78/0.78/0.78 1.00 1.00 0.01   0
 85  ...................   0.29  0.00 0.80/0.80/0.80 1.00 1.00 0.01   0
 86  ...................   0.25  0.00 0.83/0.83/0.83 1.00 1.00 0.01   0
 87  ...................   0.21  0.00 0.86/0.86/0.86 1.00 1.00 0.01   0
 88  ...................   0.17  0.00 0.88/0.88/0.88 1.00 1.00 0.01   0
 89  ...................   0.14  0.00 0.91/0.91/0.91 1.00 1.00 0.01   0
 90  ...................   0.10  0.00 0.93/0.93/0.93 1.00 1.00 0.01   0
 91  ...................   0.07  0.00 0.95/0.95/0.95 1.00 1.00 0.01   0
 92  ...................   0.03  0.00 0.97/0.97/0.97 1.00 0.67 0.01   0
 93  ...................   0.02  0.00 0.98/0.98/0.98 1.00 1.00 0.01   0
 94  ...................   0.01  0.00 0.99/0.99/0.99 1.00 1.00 0.01   0
 95  ...................   0.01  0.00 0.99/0.99/0.99 1.00 1.00 0.01   0
 96  ...................   0.00  0.00 1.00/1.00/1.00 1.00 1.00 0.01   0
 97  ...................   0.00  0.00 1.00/1.00/1.00 1.00 1.00 0.01   0
 98  ...................   0.00  0.00 1.00/1.00/1.00 1.00 1.00 0.01   0
 99  ...................   0.00  0.00 1.00/1.00/1.00 1.00 1.00 0.01   0
100  ...................   0.00  0.00 1.00/1.00/1.00 1.00 1.00 0.01   0
101  ...................   0.00  0.00 1.00/1.00/1.00 1.00 0.50 0.00   0
[mcl] jury pruning marks: <100,100,100>, out of 100
[mcl] jury pruning synopsis: <100.0 or really really really good> (cf -scheme, -do log)
[mcl] output is in /local/wiwie/ClustEval/repository/results/04_06_2013-15_56_18_paper_run_synthetic/clusters/MCL_norm_synthetic_cassini250.190.results
[mcl] 1 clusters found
[mcl] output is in /local/wiwie/ClustEval/repository/results/04_06_2013-15_56_18_paper_run_synthetic/clusters/MCL_norm_synthetic_cassini250.190.results

Please cite:
    Stijn van Dongen, Graph Clustering by Flow Simulation.  PhD thesis,
    University of Utrecht, May 2000.
       (  http://www.library.uu.nl/digiarchief/dip/diss/1895620/full.pdf
       or  http://micans.org/mcl/lit/svdthesis.pdf.gz)
OR
    Stijn van Dongen, A cluster algorithm for graphs. Technical
    Report INS-R0010, National Research Institute for Mathematics
    and Computer Science in the Netherlands, Amsterdam, May 2000.
       (  http://www.cwi.nl/ftp/CWIreports/INS/INS-R0010.ps.Z
       or  http://micans.org/mcl/lit/INS-R0010.ps.Z)

