-----------------------------------
Running ... TransClust v1.0
Sat Apr 06 16:26:47 CEST 2013
-----------------------------------

Clustering Mode: cluster iterativ

Threshold range: 0.7211612903225807 to 0.7211612903225807
Stepsize: 0.01

calculating clusters for threshold 0.7211612903225807

fmeasure: 0.6666666666666666
cluster distribution: 250:1, 

