Press 'q' to abort ...
[?1049h[1;24r(B[m[4l[?7h[H[2J
[24;1H[?1049l
[?1l>[?1049h[1;24r(B[m[4l[?7h[H[2J

[24;1H[?1049l
[?1l>[?1049h[1;24r(B[m[4l[?7h[H[2J


[24;1H[?1049l
[?1l>[?1049h[1;24r(B[m[4l[?7h[H[2J



[24;1H[?1049l
[?1l>[?1049h[1;24r(B[m[4l[?7h[H[2J[6d[24;1H[?1049l
[?1l>[?1049h[1;24r(B[m[4l[?7h[H[2J[7d[24;1H[?1049l
[?1l>[?1049h[1;24r(B[m[4l[?7h[H[2J[8d[24;1H[?1049l
[?1l>[?1049h[1;24r(B[m[4l[?7h[H[2J[9d[24;1H[?1049l
[?1l>[?1049h[1;24r(B[m[4l[?7h[H[2J[10d[24;1H[?1049l
[?1l>[?1049h[1;24r(B[m[4l[?7h[H[2J[11d[24;1H[?1049l
[?1l>[?1049h[1;24r(B[m[4l[?7h[H[2J[12d[24;1H[?1049l
[?1l>[?1049h[1;24r(B[m[4l[?7h[H[2J[13d[24;1H[?1049l
[?1l>[?1049h[1;24r(B[m[4l[?7h[H[2J[14d[24;1H[?1049l
[?1l>[?1049h[1;24r(B[m[4l[?7h[H[2J[15d[24;1H[?1049l
[?1l>[?1049h[1;24r(B[m[4l[?7h[H[2J[16d[24;1H[?1049l
[?1l>[?1049h[1;24r(B[m[4l[?7h[H[2J[17d[24;1H[?1049l
[?1l>[?1049h[1;24r(B[m[4l[?7h[H[2J[18d[24;1H[?1049l
[?1l>[?1049h[1;24r(B[m[4l[?7h[H[2J[19d[24;1H[?1049l
[?1l>[?1049h[1;24r(B[m[4l[?7h[H[2J[20d[24;1H[?1049l
[?1l>[?1049h[1;24r(B[m[4l[?7h[H[2J[21d[24;1H[?1049l
[?1l>[?1049h[1;24r(B[m[4l[?7h[H[2J[22d[24;1H[?1049l
[?1l>[?1049h[1;24r(B[m[4l[?7h[H[2J[23d[24;1H[?1049l
[?1l>[?1049h[1;24r(B[m[4l[?7h[H[2J[24d[24;1H[?1049l
[?1l>[?1049h[1;24r(B[m[4l[?7h[H[2J[24d[24;1H[?1049l
[?1l>[?1049h[1;24r(B[m[4l[?7h[H[2J[24d[24;1H[?1049l
[?1l>[?1049h[1;24r(B[m[4l[?7h[H[2J[24d[24;1H[?1049l
[?1l>[?1049h[1;24r(B[m[4l[?7h[H[2J[24d[24;1H[?1049l
[?1l>[?1049h[1;24r(B[m[4l[?7h[H[2J[24d[24;1H[?1049l
[?1l>[?1049h[1;24r(B[m[4l[?7h[H[2J[24d[24;1H[?1049l
[?1l>[?1049h[1;24r(B[m[4l[?7h[H[2J[24d[24;1H[?1049l
[?1l>[?1049h[1;24r(B[m[4l[?7h[H[2J[24d[24;1H[?1049l
[?1l>[?1049h[1;24r(B[m[4l[?7h[H[2J[24d[24;1H[?1049l
[?1l>[?1049h[1;24r(B[m[4l[?7h[H[2J[24d[24;1H[?1049l
[?1l>[?1049h[1;24r(B[m[4l[?7h[H[2J[24d[24;1H[?1049l
[?1l>[?1049h[1;24r(B[m[4l[?7h[H[2J[24d[24;1H[?1049l
[?1l>[?1049h[1;24r(B[m[4l[?7h[H[2J[24d[24;1H[?1049l
[?1l>[?1049h[1;24r(B[m[4l[?7h[H[2J[24d[24;1H[?1049l
[?1l>[?1049h[1;24r(B[m[4l[?7h[H[2J[24d[24;1H[?1049l
[?1l>[?1049h[1;24r(B[m[4l[?7h[H[2J[24d[24;1H[?1049l
[?1l>[?1049h[1;24r(B[m[4l[?7h[H[2J[24d[24;1H[?1049l
[?1l>[?1049h[1;24r(B[m[4l[?7h[H[2J[24d[24;1H[?1049l
[?1l>[?1049h[1;24r(B[m[4l[?7h[H[2J[24d[24;1H[?1049l
[?1l>[?1049h[1;24r(B[m[4l[?7h[H[2J[24d[24;1H[?1049l
[?1l>[?1049h[1;24r(B[m[4l[?7h[H[2J[24d[24;1H[?1049l
[?1l>[?1049h[1;24r(B[m[4l[?7h[H[2J[24d[24;1H[?1049l
[?1l>[?1049h[1;24r(B[m[4l[?7h[H[2J[24d[24;1H[?1049l
[?1l>[?1049h[1;24r(B[m[4l[?7h[H[2J[24d[24;1H[?1049l
[?1l>[?1049h[1;24r(B[m[4l[?7h[H[2J[24d[24;1H[?1049l
[?1l>[?1049h[1;24r(B[m[4l[?7h[H[2J[24d[24;1H[?1049l
[?1l>[?1049h[1;24r(B[m[4l[?7h[H[2J[24d[24;1H[?1049l
[?1l>[?1049h[1;24r(B[m[4l[?7h[H[2J[24d[24;1H[?1049l
[?1l>[?1049h[1;24r(B[m[4l[?7h[H[2J[24d[24;1H[?1049l
[?1l>[?1049h[1;24r(B[m[4l[?7h[H[2J[24d[24;1H[?1049l
[?1l>[?1049h[1;24r(B[m[4l[?7h[H[2J[24d[24;1H[?1049l
[?1l>[?1049h[1;24r(B[m[4l[?7h[H[2J[24d[24;1H[?1049l
[?1l>[?1049h[1;24r(B[m[4l[?7h[H[2J[24d[24;1H[?1049l
[?1l>[?1049h[1;24r(B[m[4l[?7h[H[2J[24d[24;1H[?1049l
[?1l>[?1049h[1;24r(B[m[4l[?7h[H[2J[24d[24;1H[?1049l
[?1l>[?1049h[1;24r(B[m[4l[?7h[H[2J[24d[24;1H[?1049l
[?1l>[?1049h[1;24r(B[m[4l[?7h[H[2J[24d[24;1H[?1049l
[?1l>[?1049h[1;24r(B[m[4l[?7h[H[2J[24d[24;1H[?1049l
[?1l>[?1049h[1;24r(B[m[4l[?7h[H[2J[24d[24;1H[?1049l
[?1l>[?1049h[1;24r(B[m[4l[?7h[H[2J[24d[24;1H[?1049l
[?1l>[?1049h[1;24r(B[m[4l[?7h[H[2J[24d[24;1H[?1049l
[?1l>[?1049h[1;24r(B[m[4l[?7h[H[2J[24d[24;1H[?1049l
[?1l>[?1049h[1;24r(B[m[4l[?7h[H[2J[24d[24;1H[?1049l
[?1l>[?1049h[1;24r(B[m[4l[?7h[H[2J[24d[24;1H[?1049l
[?1l>[?1049h[1;24r(B[m[4l[?7h[H[2J[24d[24;1H[?1049l
[?1l>[?1049h[1;24r(B[m[4l[?7h[H[2J[24d[24;1H[?1049l
[?1l>[?1049h[1;24r(B[m[4l[?7h[H[2J[24d[24;1H[?1049l
[?1l>[?1049h[1;24r(B[m[4l[?7h[H[2J[24d[24;1H[?1049l
[?1l>[?1049h[1;24r(B[m[4l[?7h[H[2J[24d[24;1H[?1049l
[?1l>[?1049h[1;24r(B[m[4l[?7h[H[2J[24d[24;1H[?1049l
[?1l>[?1049h[1;24r(B[m[4l[?7h[H[2J[24d[24;1H[?1049l
[?1l>[?1049h[1;24r(B[m[4l[?7h[H[2J[24d[24;1H[?1049l
[?1l>[?1049h[1;24r(B[m[4l[?7h[H[2J[24d[24;1H[?1049l
[?1l>[?1049h[1;24r(B[m[4l[?7h[H[2J[24d[24;1H[?1049l
[?1l>[?1049h[1;24r(B[m[4l[?7h[H[2J[24d[24;1H[?1049l
[?1l>[?1049h[1;24r(B[m[4l[?7h[H[2J[24d[24;1H[?1049l
[?1l>[?1049h[1;24r(B[m[4l[?7h[H[2J[24d[24;1H[?1049l
[?1l>[?1049h[1;24r(B[m[4l[?7h[H[2J[24d[24;1H[?1049l
[?1l>[?1049h[1;24r(B[m[4l[?7h[H[2J[24d[24;1H[?1049l
[?1l>[?1049h[1;24r(B[m[4l[?7h[H[2J[24d[24;1H[?1049l
[?1l>[?1049h[1;24r(B[m[4l[?7h[H[2J[24d[24;1H[?1049l
[?1l>[?1049h[1;24r(B[m[4l[?7h[H[2J[24d[24;1H[?1049l
[?1l>[?1049h[1;24r(B[m[4l[?7h[H[2J[24d[24;1H[?1049l
[?1l>[?1049h[1;24r(B[m[4l[?7h[H[2J[24d[24;1H[?1049l
[?1l>[?1049h[1;24r(B[m[4l[?7h[H[2J[24d[24;1H[?1049l
[?1l>[?1049h[1;24r(B[m[4l[?7h[H[2J[24d[24;1H[?1049l
[?1l>[?1049h[1;24r(B[m[4l[?7h[H[2J[24d[24;1H[?1049l
[?1l>[?1049h[1;24r(B[m[4l[?7h[H[2J[24d[24;1H[?1049l
[?1l>[?1049h[1;24r(B[m[4l[?7h[H[2J[24d[24;1H[?1049l
[?1l>[?1049h[1;24r(B[m[4l[?7h[H[2J[24d[24;1H[?1049l
[?1l>[?1049h[1;24r(B[m[4l[?7h[H[2J[24d[24;1H[?1049l
[?1l>[?1049h[1;24r(B[m[4l[?7h[H[2J[24d[24;1H[?1049l
[?1l>[?1049h[1;24r(B[m[4l[?7h[H[2J[24d[24;1H[?1049l
[?1l>[?1049h[1;24r(B[m[4l[?7h[H[2J[24d[24;1H[?1049l
[?1l>[?1049h[1;24r(B[m[4l[?7h[H[2J[24d[24;1H[?1049l
[?1l>[?1049h[1;24r(B[m[4l[?7h[H[2J[24d[24;1H[?1049l
[?1l>[?1049h[1;24r(B[m[4l[?7h[H[2J[24d[24;1H[?1049l
[?1l>[?1049h[1;24r(B[m[4l[?7h[H[2J[24d[24;1H[?1049l
[?1l>[?1049h[1;24r(B[m[4l[?7h[H[2J[24d[24;1H[?1049l
[?1l>[?1049h[1;24r(B[m[4l[?7h[H[2J[24d[24;1H[?1049l
[?1l>[?1049h[1;24r(B[m[4l[?7h[H[2J[24d[24;1H[?1049l
[?1l>[?1049h[1;24r(B[m[4l[?7h[H[2J[24d[24;1H[?1049l
[?1l>[?1049h[1;24r(B[m[4l[?7h[H[2J[24d[24;1H[?1049l
[?1l>[?1049h[1;24r(B[m[4l[?7h[H[2J[24d[24;1H[?1049l
[?1l>[?1049h[1;24r(B[m[4l[?7h[H[2J[24d[24;1H[?1049l
[?1l>[?1049h[1;24r(B[m[4l[?7h[H[2J[24d[24;1H[?1049l
[?1l>[?1049h[1;24r(B[m[4l[?7h[H[2J[24d[24;1H[?1049l
[?1l>[?1049h[1;24r(B[m[4l[?7h[H[2J[24d[24;1H[?1049l
[?1l>[?1049h[1;24r(B[m[4l[?7h[H[2J[24d[24;1H[?1049l
[?1l>[?1049h[1;24r(B[m[4l[?7h[H[2J[24d[24;1H[?1049l
[?1l>[?1049h[1;24r(B[m[4l[?7h[H[2J[24d[24;1H[?1049l
[?1l>[?1049h[1;24r(B[m[4l[?7h[H[2J[24d[24;1H[?1049l
[?1l>[?1049h[1;24r(B[m[4l[?7h[H[2J[24d[24;1H[?1049l
[?1l>[?1049h[1;24r(B[m[4l[?7h[H[2J[24d[24;1H[?1049l
[?1l>[?1049h[1;24r(B[m[4l[?7h[H[2J[24d[24;1H[?1049l
[?1l>[?1049h[1;24r(B[m[4l[?7h[H[2J[24d[24;1H[?1049l
[?1l>[?1049h[1;24r(B[m[4l[?7h[H[2J[24d[24;1H[?1049l
[?1l>[?1049h[1;24r(B[m[4l[?7h[H[2J[24d[24;1H[?1049l
[?1l>[?1049h[1;24r(B[m[4l[?7h[H[2J[24d[24;1H[?1049l
[?1l>[?1049h[1;24r(B[m[4l[?7h[H[2J[24d[24;1H[?1049l
[?1l>[?1049h[1;24r(B[m[4l[?7h[H[2J[24d[24;1H[?1049l
[?1l>[?1049h[1;24r(B[m[4l[?7h[H[2J[24d[24;1H[?1049l
[?1l>[?1049h[1;24r(B[m[4l[?7h[H[2J[24d[24;1H[?1049l
[?1l>[?1049h[1;24r(B[m[4l[?7h[H[2J[24d[24;1H[?1049l
[?1l>[?1049h[1;24r(B[m[4l[?7h[H[2J[24d[24;1H[?1049l
[?1l>[?1049h[1;24r(B[m[4l[?7h[H[2J[24d[24;1H[?1049l
[?1l>[?1049h[1;24r(B[m[4l[?7h[H[2J[24d[24;1H[?1049l
[?1l>[?1049h[1;24r(B[m[4l[?7h[H[2J[24d[24;1H[?1049l
[?1l>[?1049h[1;24r(B[m[4l[?7h[H[2J[24d[24;1H[?1049l
[?1l>[?1049h[1;24r(B[m[4l[?7h[H[2J[24d[24;1H[?1049l
[?1l>[?1049h[1;24r(B[m[4l[?7h[H[2J[24d[24;1H[?1049l
[?1l>[?1049h[1;24r(B[m[4l[?7h[H[2J[24d[24;1H[?1049l
[?1l>[?1049h[1;24r(B[m[4l[?7h[H[2J[24d[24;1H[?1049l
[?1l>[?1049h[1;24r(B[m[4l[?7h[H[2J[24d[24;1H[?1049l
[?1l>[?1049h[1;24r(B[m[4l[?7h[H[2J[24d[24;1H[?1049l
[?1l>[?1049h[1;24r(B[m[4l[?7h[H[2J[24d[24;1H[?1049l
[?1l>[?1049h[1;24r(B[m[4l[?7h[H[2J[24d[24;1H[?1049l
[?1l>[?1049h[1;24r(B[m[4l[?7h[H[2J[24d[24;1H[?1049l
[?1l>[?1049h[1;24r(B[m[4l[?7h[H[2J[24d[24;1H[?1049l
[?1l>[?1049h[1;24r(B[m[4l[?7h[H[2J[24d[24;1H[?1049l
[?1l>[?1049h[1;24r(B[m[4l[?7h[H[2J[24d[24;1H[?1049l
[?1l>[?1049h[1;24r(B[m[4l[?7h[H[2J[24d[24;1H[?1049l
[?1l>[?1049h[1;24r(B[m[4l[?7h[H[2J[24d[24;1H[?1049l
[?1l>[?1049h[1;24r(B[m[4l[?7h[H[2J[24d[24;1H[?1049l
[?1l>[?1049h[1;24r(B[m[4l[?7h[H[2J[24d[24;1H[?1049l
[?1l>[?1049h[1;24r(B[m[4l[?7h[H[2J[24d[24;1H[?1049l
[?1l>[?1049h[1;24r(B[m[4l[?7h[H[2J[24d[24;1H[?1049l
[?1l>[?1049h[1;24r(B[m[4l[?7h[H[2J[24d[24;1H[?1049l
[?1l>[?1049h[1;24r(B[m[4l[?7h[H[2J[24d[24;1H[?1049l
[?1l>[?1049h[1;24r(B[m[4l[?7h[H[2J[24d[24;1H[?1049l
[?1l>[?1049h[1;24r(B[m[4l[?7h[H[2J[24d[24;1H[?1049l
[?1l>[?1049h[1;24r(B[m[4l[?7h[H[2J[24d[24;1H[?1049l
[?1l>[?1049h[1;24r(B[m[4l[?7h[H[2J[24d[24;1H[?1049l
[?1l>[?1049h[1;24r(B[m[4l[?7h[H[2J[24d[24;1H[?1049l
[?1l>[?1049h[1;24r(B[m[4l[?7h[H[2J[24d[24;1H[?1049l
[?1l>[?1049h[1;24r(B[m[4l[?7h[H[2J[24d[24;1H[?1049l
[?1l>[?1049h[1;24r(B[m[4l[?7h[H[2J[24d[24;1H[?1049l
[?1l>[?1049h[1;24r(B[m[4l[?7h[H[2J[24d[24;1H[?1049l
[?1l>[?1049h[1;24r(B[m[4l[?7h[H[2J[24d[24;1H[?1049l
[?1l>[?1049h[1;24r(B[m[4l[?7h[H[2J[24d[24;1H[?1049l
[?1l>[?1049h[1;24r(B[m[4l[?7h[H[2J[24d[24;1H[?1049l
[?1l>[?1049h[1;24r(B[m[4l[?7h[H[2J[24d[24;1H[?1049l
[?1l>[?1049h[1;24r(B[m[4l[?7h[H[2J[24d[24;1H[?1049l
[?1l>[?1049h[1;24r(B[m[4l[?7h[H[2J[24d[24;1H[?1049l
[?1l>[?1049h[1;24r(B[m[4l[?7h[H[2J[24d[24;1H[?1049l
[?1l>[?1049h[1;24r(B[m[4l[?7h[H[2J[24d[24;1H[?1049l
[?1l>[?1049h[1;24r(B[m[4l[?7h[H[2J[24d[24;1H[?1049l
[?1l>[?1049h[1;24r(B[m[4l[?7h[H[2J[24d[24;1H[?1049l
[?1l>[?1049h[1;24r(B[m[4l[?7h[H[2J[24d[24;1H[?1049l
[?1l>[?1049h[1;24r(B[m[4l[?7h[H[2J[24d[24;1H[?1049l
[?1l>[?1049h[1;24r(B[m[4l[?7h[H[2J[24d[24;1H[?1049l
[?1l>[?1049h[1;24r(B[m[4l[?7h[H[2J[24d[24;1H[?1049l
[?1l>[?1049h[1;24r(B[m[4l[?7h[H[2J[24d[24;1H[?1049l
[?1l>[?1049h[1;24r(B[m[4l[?7h[H[2J[24d[24;1H[?1049l
[?1l>[?1049h[1;24r(B[m[4l[?7h[H[2J[24d[24;1H[?1049l
[?1l>[?1049h[1;24r(B[m[4l[?7h[H[2J[24d[24;1H[?1049l
[?1l>[?1049h[1;24r(B[m[4l[?7h[H[2J[24d[24;1H[?1049l
[?1l>[?1049h[1;24r(B[m[4l[?7h[H[2J[24d[24;1H[?1049l
[?1l>[?1049h[1;24r(B[m[4l[?7h[H[2J[24d[24;1H[?1049l
[?1l>[?1049h[1;24r(B[m[4l[?7h[H[2J[24d[24;1H[?1049l
[?1l>[?1049h[1;24r(B[m[4l[?7h[H[2J[24d[24;1H[?1049l
[?1l>[?1049h[1;24r(B[m[4l[?7h[H[2J[24d[24;1H[?1049l
[?1l>[?1049h[1;24r(B[m[4l[?7h[H[2J[24d[24;1H[?1049l
[?1l>[?1049h[1;24r(B[m[4l[?7h[H[2J[24d[24;1H[?1049l
[?1l>[?1049h[1;24r(B[m[4l[?7h[H[2J[24d[24;1H[?1049l
[?1l>[?1049h[1;24r(B[m[4l[?7h[H[2J[24d[24;1H[?1049l
[?1l>[?1049h[1;24r(B[m[4l[?7h[H[2J[24d[24;1H[?1049l
[?1l>[?1049h[1;24r(B[m[4l[?7h[H[2J[24d[24;1H[?1049l
[?1l>[?1049h[1;24r(B[m[4l[?7h[H[2J[24d[24;1H[?1049l
[?1l>[?1049h[1;24r(B[m[4l[?7h[H[2J[24d[24;1H[?1049l
[?1l>[?1049h[1;24r(B[m[4l[?7h[H[2J[24d[24;1H[?1049l
[?1l>[?1049h[1;24r(B[m[4l[?7h[H[2J[24d[24;1H[?1049l
[?1l>[?1049h[1;24r(B[m[4l[?7h[H[2J[24d[24;1H[?1049l
[?1l>[?1049h[1;24r(B[m[4l[?7h[H[2J[24d[24;1H[?1049l
[?1l>[?1049h[1;24r(B[m[4l[?7h[H[2J[24d[24;1H[?1049l
[?1l>[?1049h[1;24r(B[m[4l[?7h[H[2J[24d[24;1H[?1049l
[?1l>[?1049h[1;24r(B[m[4l[?7h[H[2J[24d[24;1H[?1049l
[?1l>[?1049h[1;24r(B[m[4l[?7h[H[2J[24d[24;1H[?1049l
[?1l>[?1049h[1;24r(B[m[4l[?7h[H[2J[24d[24;1H[?1049l
[?1l>[?1049h[1;24r(B[m[4l[?7h[H[2J[24d[24;1H[?1049l
[?1l>[?1049h[1;24r(B[m[4l[?7h[H[2J[24d[24;1H[?1049l
[?1l>[?1049h[1;24r(B[m[4l[?7h[H[2J[24d[24;1H[?1049l
[?1l>[?1049h[1;24r(B[m[4l[?7h[H[2J[24d[24;1H[?1049l
[?1l>[?1049h[1;24r(B[m[4l[?7h[H[2J[24d[24;1H[?1049l
[?1l>[?1049h[1;24r(B[m[4l[?7h[H[2J[24d[24;1H[?1049l
[?1l>[?1049h[1;24r(B[m[4l[?7h[H[2J[24d[24;1H[?1049l
[?1l>[?1049h[1;24r(B[m[4l[?7h[H[2J[24d[24;1H[?1049l
[?1l>[?1049h[1;24r(B[m[4l[?7h[H[2J[24d[24;1H[?1049l
[?1l>[?1049h[1;24r(B[m[4l[?7h[H[2J[24d[24;1H[?1049l
[?1l>[?1049h[1;24r(B[m[4l[?7h[H[2J[24d[24;1H[?1049l
[?1l>[?1049h[1;24r(B[m[4l[?7h[H[2J[24d[24;1H[?1049l
[?1l>[?1049h[1;24r(B[m[4l[?7h[H[2J[24d[24;1H[?1049l
[?1l>[?1049h[1;24r(B[m[4l[?7h[H[2J[24d[24;1H[?1049l
[?1l>[?1049h[1;24r(B[m[4l[?7h[H[2J[24d[24;1H[?1049l
[?1l>[?1049h[1;24r(B[m[4l[?7h[H[2J[24d[24;1H[?1049l
[?1l>[?1049h[1;24r(B[m[4l[?7h[H[2J[24d[24;1H[?1049l
[?1l>[?1049h[1;24r(B[m[4l[?7h[H[2J[24d[24;1H[?1049l
[?1l>[?1049h[1;24r(B[m[4l[?7h[H[2J[24d[24;1H[?1049l
[?1l>[?1049h[1;24r(B[m[4l[?7h[H[2J[24d[24;1H[?1049l
[?1l>[?1049h[1;24r(B[m[4l[?7h[H[2J[24d[24;1H[?1049l
[?1l>[?1049h[1;24r(B[m[4l[?7h[H[2J[24d[24;1H[?1049l
[?1l>[?1049h[1;24r(B[m[4l[?7h[H[2J[24d[24;1H[?1049l
[?1l>[?1049h[1;24r(B[m[4l[?7h[H[2J[24d[24;1H[?1049l
[?1l>[?1049h[1;24r(B[m[4l[?7h[H[2J[24d[24;1H[?1049l
[?1l>[?1049h[1;24r(B[m[4l[?7h[H[2J[24d[24;1H[?1049l
[?1l>[?1049h[1;24r(B[m[4l[?7h[H[2J[24d[24;1H[?1049l
[?1l>[?1049h[1;24r(B[m[4l[?7h[H[2J[24d[24;1H[?1049l
[?1l>[?1049h[1;24r(B[m[4l[?7h[H[2J[24d[24;1H[?1049l
[?1l>[?1049h[1;24r(B[m[4l[?7h[H[2J[24d[24;1H[?1049l
[?1l>[?1049h[1;24r(B[m[4l[?7h[H[2J[24d[24;1H[?1049l
[?1l>[?1049h[1;24r(B[m[4l[?7h[H[2J[24d[24;1H[?1049l
[?1l>[?1049h[1;24r(B[m[4l[?7h[H[2J[24d[24;1H[?1049l
[?1l>[?1049h[1;24r(B[m[4l[?7h[H[2J[24d[24;1H[?1049l
[?1l>[?1049h[1;24r(B[m[4l[?7h[H[2J[24d[24;1H[?1049l
[?1l>[?1049h[1;24r(B[m[4l[?7h[H[2J[24d[24;1H[?1049l
[?1l>[?1049h[1;24r(B[m[4l[?7h[H[2J[24d[24;1H[?1049l
[?1l>[?1049h[1;24r(B[m[4l[?7h[H[2J[24d[24;1H[?1049l
[?1l>[?1049h[1;24r(B[m[4l[?7h[H[2J[24d[24;1H[?1049l
[?1l>[?1049h[1;24r(B[m[4l[?7h[H[2J[24d[24;1H[?1049l
[?1l>[?1049h[1;24r(B[m[4l[?7h[H[2J[24d[24;1H[?1049l
[?1l>[?1049h[1;24r(B[m[4l[?7h[H[2J[24d[24;1H[?1049l
[?1l>[?1049h[1;24r(B[m[4l[?7h[H[2J[24d[24;1H[?1049l
[?1l>[?1049h[1;24r(B[m[4l[?7h[H[2J[24d[24;1H[?1049l
[?1l>[?1049h[1;24r(B[m[4l[?7h[H[2J[24d[24;1H[?1049l
[?1l>[?1049h[1;24r(B[m[4l[?7h[H[2J[24d[24;1H[?1049l
[?1l>[?1049h[1;24r(B[m[4l[?7h[H[2J[24d[24;1H[?1049l
[?1l>[?1049h[1;24r(B[m[4l[?7h[H[2J[24d[24;1H[?1049l
[?1l>[?1049h[1;24r(B[m[4l[?7h[H[2J[24d[24;1H[?1049l
[?1l>[?1049h[1;24r(B[m[4l[?7h[H[2J[24d[24;1H[?1049l
[?1l>[?1049h[1;24r(B[m[4l[?7h[H[2J[24d[24;1H[?1049l
[?1l>[?1049h[1;24r(B[m[4l[?7h[H[2J[24d[24;1H[?1049l
[?1l>[?1049h[1;24r(B[m[4l[?7h[H[2J[24d[24;1H[?1049l
[?1l>[?1049h[1;24r(B[m[4l[?7h[H[2J[24d[24;1H[?1049l
[?1l>[?1049h[1;24r(B[m[4l[?7h[H[2J[24d[24;1H[?1049l
[?1l>[?1049h[1;24r(B[m[4l[?7h[H[2J[24d[24;1H[?1049l
[?1l>
maxits=2000
convits=200
dampfact=0.900000
number of data points: 90
Preferences: 0.265094
	 (median of similarities)

Number of identified clusters: 7
Net similarity:
	 49.020102
Sum of data point-to-exemplar similarities:
	 47.164446
Sum of exemplar preferences:
	 1.855656
Number of iterations: 256

Start:	April 15, 2013, Monday, 16:44:30 CEST
End:	April 15, 2013, Monday, 16:44:31 CEST

For more information, please read the files under "/local/wiwie/ClustEval/repository/results/04_15_2013-16_39_59_baechler2003/clusters/APcluster_1_baechler2003.236.results/" ...

