[mcl] new tab created
[mcl] pid 54464
 ite ------------------  chaos  time hom(avg,lo,hi) expa expb expc fmv
  1  ..................   0.28  0.01 1.02/0.96/1.35 1.00 1.00 1.00 100
  2  ..................   0.20  0.00 0.95/0.94/0.96 1.00 1.00 1.00 100
  3  ..................   0.21  0.00 0.93/0.93/0.94 1.00 1.00 1.00 100
  4  ..................   0.23  0.00 0.93/0.93/0.93 1.00 1.00 1.00 100
  5  ..................   0.25  0.00 0.92/0.92/0.92 1.00 1.00 1.00 100
  6  ..................   0.27  0.00 0.91/0.91/0.91 1.00 1.00 1.00 100
  7  ..................   0.29  0.00 0.89/0.89/0.89 1.00 1.00 1.00 100
  8  ..................   0.32  0.01 0.88/0.88/0.88 1.00 1.00 1.00 100
  9  ..................   0.35  0.00 0.87/0.87/0.87 1.00 1.00 1.00 100
 10  ..................   0.38  0.01 0.86/0.86/0.86 1.00 1.00 1.00 100
 11  ..................   0.41  0.00 0.84/0.84/0.84 1.00 1.00 1.00 100
 12  ..................   0.45  0.01 0.83/0.83/0.83 1.00 1.00 1.00 100
 13  ..................   0.49  0.00 0.82/0.82/0.82 1.00 1.00 1.00 100
 14  ..................   0.54  0.01 0.80/0.80/0.80 1.00 1.00 1.00 100
 15  ..................   0.58  0.00 0.79/0.79/0.79 1.00 1.00 1.00 100
 16  ..................   0.64  0.00 0.77/0.77/0.77 1.00 1.00 1.00 100
 17  ..................   0.70  0.00 0.76/0.76/0.76 1.00 1.00 1.00 100
 18  ..................   0.76  0.01 0.74/0.74/0.74 1.00 1.00 1.00 100
 19  ..................   0.83  0.00 0.72/0.72/0.72 1.00 1.00 1.00 100
 20  ..................   0.91  0.01 0.71/0.71/0.71 1.00 1.00 1.00 100
 21  ..................   1.00  0.00 0.69/0.69/0.69 1.00 1.00 1.00 100
 22  ..................   1.10  0.01 0.67/0.67/0.67 1.00 1.00 1.00 100
 23  ..................   1.21  0.00 0.65/0.65/0.65 1.00 1.00 1.00 100
 24  ..................   1.28  0.01 0.64/0.64/0.64 1.00 0.97 0.97 100
 25  ..................   1.40  0.00 0.62/0.62/0.62 1.00 0.99 0.96 100
 26  ..................   1.53  0.01 0.60/0.60/0.60 1.00 0.99 0.94 100
 27  ..................   1.67  0.00 0.58/0.58/0.58 1.00 0.99 0.93 100
 28  ..................   1.82  0.01 0.56/0.56/0.56 1.00 0.99 0.92 100
 29  ..................   1.90  0.00 0.54/0.54/0.54 1.00 0.94 0.87 100
 30  ..................   2.02  0.01 0.53/0.53/0.53 1.00 0.96 0.83 100
 31  ..................   2.25  0.00 0.51/0.51/0.51 1.00 1.00 0.83 100
 32  ..................   2.39  0.01 0.49/0.49/0.49 1.00 0.96 0.80 100
 33  ..................   2.62  0.00 0.47/0.47/0.47 1.00 0.99 0.79 100
 34  ..................   2.91  0.00 0.46/0.46/0.46 1.00 1.00 0.79 100
 35  ..................   3.05  0.01 0.44/0.44/0.44 1.00 0.94 0.74 100
 36  ..................   3.19  0.00 0.43/0.43/0.43 1.00 0.94 0.70 100
 37  ..................   3.48  0.00 0.42/0.42/0.42 1.00 0.98 0.69 100
 38  ..................   3.72  0.00 0.41/0.41/0.41 1.00 0.97 0.67 100
 39  ..................   3.77  0.00 0.41/0.41/0.41 1.00 0.92 0.61 100
 40  ..................   3.85  0.00 0.40/0.40/0.40 1.00 0.93 0.57 100
 41  ..................   4.05  0.01 0.40/0.40/0.40 1.00 0.96 0.54 100
 42  ..................   4.25  0.00 0.41/0.41/0.41 1.00 0.96 0.52 100
 43  ..................   4.22  0.00 0.41/0.41/0.41 1.00 0.91 0.48 100
 44  ..................   4.46  0.00 0.42/0.42/0.42 1.00 0.98 0.47 100
 45  ..................   4.33  0.00 0.43/0.43/0.43 1.00 0.90 0.42 100
 46  ..................   4.38  0.00 0.45/0.45/0.45 1.00 0.95 0.40 100
 47  ..................   4.39  0.00 0.46/0.46/0.46 1.00 0.94 0.38 100
 48  ..................   3.81  0.00 0.48/0.48/0.48 1.00 0.82 0.31 100
 49  ..................   3.71  0.00 0.50/0.50/0.50 1.00 0.93 0.29 100
 50  ..................   3.56  0.00 0.52/0.52/0.52 1.00 0.92 0.27 100
 51  ..................   3.23  0.00 0.53/0.53/0.53 1.00 0.87 0.23 100
 52  ..................   3.33  0.00 0.55/0.55/0.55 1.00 1.00 0.23 100
 53  ..................   3.41  0.01 0.56/0.56/0.56 1.00 1.00 0.23 100
 54  ..................   2.97  0.00 0.57/0.57/0.57 1.00 0.86 0.20 100
 55  ..................   2.34  0.00 0.59/0.59/0.59 1.00 0.78 0.16 100
 56  ..................   2.35  0.00 0.60/0.60/0.60 1.00 1.00 0.16 100
 57  ..................   2.18  0.00 0.61/0.61/0.61 1.00 0.93 0.14 100
 58  ..................   1.82  0.00 0.63/0.63/0.63 1.00 0.85 0.12 100
 59  ..................   1.45  0.00 0.64/0.64/0.64 1.00 0.82 0.10 100
 60  ..................   0.94  0.00 0.66/0.66/0.66 1.00 0.67 0.07 100
 61  ..................   0.89  0.00 0.69/0.69/0.69 1.00 1.00 0.07 100
 62  ..................   0.83  0.00 0.71/0.71/0.71 1.00 1.00 0.07 100
 63  ..................   0.76  0.01 0.74/0.74/0.74 1.00 1.00 0.07 100
 64  ..................   0.69  0.00 0.76/0.76/0.76 1.00 1.00 0.07 100
 65  ..................   0.40  0.00 0.79/0.79/0.79 1.00 0.67 0.04 100
 66  ..................   0.35  0.00 0.82/0.82/0.82 1.00 1.00 0.04 100
 67  ..................   0.29  0.00 0.85/0.85/0.85 1.00 1.00 0.04 100
 68  ..................   0.18  0.00 0.88/0.88/0.88 1.00 0.75 0.03 100
 69  ..................   0.14  0.00 0.91/0.91/0.91 1.00 1.00 0.03 100
 70  ..................   0.11  0.00 0.93/0.93/0.93 1.00 1.00 0.03 100
 71  ..................   0.08  0.00 0.95/0.95/0.95 1.00 1.00 0.03 100
 72  ..................   0.05  0.00 0.96/0.96/0.96 1.00 1.00 0.03 100
 73  ..................   0.04  0.00 0.98/0.98/0.98 1.00 1.00 0.03 100
 74  ..................   0.02  0.00 0.98/0.98/0.98 1.00 0.66 0.02 100
 75  ..................   0.01  0.00 0.99/0.99/0.99 0.99 0.99 0.02   0
 76  ..................   0.01  0.00 0.99/0.99/0.99 0.99 0.99 0.02   0
 77  ..................   0.00  0.00 1.00/1.00/1.00 0.99 0.99 0.02   0
 78  ..................   0.00  0.00 1.00/1.00/1.00 0.99 0.99 0.02   0
 79  ..................   0.00  0.00 1.00/1.00/1.00 0.99 0.99 0.02   0
 80  ..................   0.00  0.00 1.00/1.00/1.00 0.99 0.99 0.02   0
 81  ..................   0.00  0.00 1.00/1.00/1.00 0.99 0.50 0.01   0
[mcl] jury pruning marks: <100,100,100>, out of 100
[mcl] jury pruning synopsis: <100.0 or really really really good> (cf -scheme, -do log)
[mcl] output is in /local/wiwie/ClustEval/repository/results/04_15_2013-16_39_59_baechler2003/clusters/MCL_norm_baechler2003.200.results
[mcl] 1 clusters found
[mcl] output is in /local/wiwie/ClustEval/repository/results/04_15_2013-16_39_59_baechler2003/clusters/MCL_norm_baechler2003.200.results

Please cite:
    Stijn van Dongen, Graph Clustering by Flow Simulation.  PhD thesis,
    University of Utrecht, May 2000.
       (  http://www.library.uu.nl/digiarchief/dip/diss/1895620/full.pdf
       or  http://micans.org/mcl/lit/svdthesis.pdf.gz)
OR
    Stijn van Dongen, A cluster algorithm for graphs. Technical
    Report INS-R0010, National Research Institute for Mathematics
    and Computer Science in the Netherlands, Amsterdam, May 2000.
       (  http://www.cwi.nl/ftp/CWIreports/INS/INS-R0010.ps.Z
       or  http://micans.org/mcl/lit/INS-R0010.ps.Z)

