[mcl] new tab created
[mcl] pid 60673
 ite ------------------  chaos  time hom(avg,lo,hi) expa expb expc fmv
  1  ..................   0.28  0.01 1.02/0.96/1.35 1.00 1.00 1.00 100
  2  ..................   0.20  0.01 0.95/0.94/0.96 1.00 1.00 1.00 100
  3  ..................   0.21  0.01 0.93/0.93/0.94 1.00 1.00 1.00 100
  4  ..................   0.23  0.00 0.93/0.93/0.93 1.00 1.00 1.00 100
  5  ..................   0.25  0.01 0.92/0.92/0.92 1.00 1.00 1.00 100
  6  ..................   0.27  0.00 0.91/0.91/0.91 1.00 1.00 1.00 100
  7  ..................   0.29  0.01 0.90/0.90/0.90 1.00 1.00 1.00 100
  8  ..................   0.32  0.00 0.88/0.88/0.88 1.00 1.00 1.00 100
  9  ..................   0.35  0.01 0.87/0.87/0.87 1.00 1.00 1.00 100
 10  ..................   0.38  0.00 0.86/0.86/0.86 1.00 1.00 1.00 100
 11  ..................   0.41  0.01 0.84/0.84/0.84 1.00 1.00 1.00 100
 12  ..................   0.45  0.00 0.83/0.83/0.83 1.00 1.00 1.00 100
 13  ..................   0.49  0.01 0.82/0.82/0.82 1.00 1.00 1.00 100
 14  ..................   0.53  0.00 0.80/0.80/0.80 1.00 1.00 1.00 100
 15  ..................   0.58  0.01 0.79/0.79/0.79 1.00 1.00 1.00 100
 16  ..................   0.63  0.00 0.77/0.77/0.77 1.00 1.00 1.00 100
 17  ..................   0.69  0.01 0.76/0.76/0.76 1.00 1.00 1.00 100
 18  ..................   0.75  0.00 0.74/0.74/0.74 1.00 1.00 1.00 100
 19  ..................   0.82  0.01 0.73/0.73/0.73 1.00 1.00 1.00 100
 20  ..................   0.90  0.00 0.71/0.71/0.71 1.00 1.00 1.00 100
 21  ..................   0.99  0.01 0.69/0.69/0.69 1.00 1.00 1.00 100
 22  ..................   1.09  0.00 0.67/0.67/0.67 1.00 1.00 1.00 100
 23  ..................   1.19  0.01 0.66/0.66/0.66 1.00 1.00 1.00 100
 24  ..................   1.28  0.00 0.64/0.64/0.64 1.00 0.98 0.98 100
 25  ..................   1.38  0.00 0.62/0.62/0.62 1.00 0.98 0.96 100
 26  ..................   1.51  0.01 0.60/0.60/0.60 1.00 0.99 0.94 100
 27  ..................   1.65  0.00 0.58/0.58/0.58 1.00 0.99 0.93 100
 28  ..................   1.80  0.00 0.56/0.56/0.56 1.00 0.99 0.92 100
 29  ..................   1.87  0.00 0.55/0.55/0.55 1.00 0.94 0.87 100
 30  ..................   2.00  0.00 0.53/0.53/0.53 1.00 0.96 0.83 100
 31  ..................   2.21  0.01 0.51/0.51/0.51 1.00 1.00 0.83 100
 32  ..................   2.39  0.00 0.49/0.49/0.49 1.00 0.97 0.81 100
 33  ..................   2.58  0.00 0.48/0.48/0.48 1.00 0.97 0.79 100
 34  ..................   2.87  0.00 0.46/0.46/0.46 1.00 1.00 0.79 100
 35  ..................   3.00  0.00 0.45/0.45/0.45 1.00 0.94 0.74 100
 36  ..................   3.13  0.00 0.43/0.43/0.43 1.00 0.94 0.70 100
 37  ..................   3.42  0.00 0.42/0.42/0.42 1.00 0.98 0.69 100
 38  ..................   3.66  0.00 0.41/0.41/0.41 1.00 0.97 0.67 100
 39  ..................   3.77  0.00 0.41/0.41/0.41 1.00 0.93 0.62 100
 40  ..................   3.78  0.01 0.40/0.40/0.40 1.00 0.91 0.57 100
 41  ..................   3.99  0.00 0.40/0.40/0.40 1.00 0.96 0.54 100
 42  ..................   4.27  0.00 0.40/0.40/0.40 1.00 0.98 0.53 100
 43  ..................   4.35  0.00 0.41/0.41/0.41 1.00 0.94 0.50 100
 44  ..................   4.39  0.01 0.42/0.42/0.42 1.00 0.93 0.47 100
 45  ..................   4.38  0.00 0.43/0.43/0.43 1.00 0.93 0.43 100
 46  ..................   4.45  0.00 0.44/0.44/0.44 1.00 0.95 0.41 100
 47  ..................   4.34  0.00 0.46/0.46/0.46 1.00 0.92 0.38 100
 48  ..................   4.17  0.00 0.48/0.48/0.48 1.00 0.91 0.34 100
 49  ..................   3.67  0.01 0.49/0.49/0.49 1.00 0.84 0.29 100
 50  ..................   3.53  0.00 0.51/0.51/0.51 1.00 0.92 0.27 100
 51  ..................   3.36  0.00 0.53/0.53/0.53 1.00 0.92 0.24 100
 52  ..................   3.31  0.00 0.54/0.54/0.54 1.00 0.95 0.23 100
 53  ..................   3.39  0.00 0.56/0.56/0.56 1.00 1.00 0.23 100
 54  ..................   3.13  0.00 0.57/0.57/0.57 1.00 0.90 0.21 100
 55  ..................   2.84  0.00 0.58/0.58/0.58 1.00 0.89 0.19 100
 56  ..................   2.35  0.00 0.60/0.60/0.60 1.00 0.82 0.16 100
 57  ..................   2.18  0.00 0.61/0.61/0.61 1.00 0.93 0.14 100
 58  ..................   1.83  0.00 0.62/0.62/0.62 1.00 0.85 0.12 100
 59  ..................   1.63  0.00 0.64/0.64/0.64 1.00 0.91 0.11 100
 60  ..................   1.10  0.00 0.66/0.66/0.66 1.00 0.70 0.08 100
 61  ..................   0.90  0.00 0.68/0.68/0.68 1.00 0.86 0.07 100
 62  ..................   0.85  0.00 0.70/0.70/0.70 1.00 1.00 0.07 100
 63  ..................   0.79  0.00 0.73/0.73/0.73 1.00 1.00 0.07 100
 64  ..................   0.71  0.00 0.76/0.76/0.76 1.00 1.00 0.07 100
 65  ..................   0.53  0.00 0.79/0.79/0.79 1.00 0.83 0.06 100
 66  ..................   0.36  0.00 0.82/0.82/0.82 1.00 0.80 0.04 100
 67  ..................   0.31  0.00 0.85/0.85/0.85 1.00 1.00 0.04 100
 68  ..................   0.19  0.00 0.87/0.87/0.87 1.00 0.75 0.03 100
 69  ..................   0.15  0.00 0.90/0.90/0.90 1.00 1.00 0.03 100
 70  ..................   0.12  0.00 0.92/0.92/0.92 1.00 1.00 0.03 100
 71  ..................   0.09  0.00 0.94/0.94/0.94 1.00 1.00 0.03 100
 72  ..................   0.06  0.00 0.96/0.96/0.96 1.00 1.00 0.03 100
 73  ..................   0.04  0.00 0.97/0.97/0.97 1.00 1.00 0.03 100
 74  ..................   0.03  0.00 0.98/0.98/0.98 1.00 1.00 0.03 100
 75  ..................   0.01  0.00 0.99/0.99/0.99 1.00 0.66 0.02 100
 76  ..................   0.01  0.00 0.99/0.99/0.99 0.99 0.99 0.02   0
 77  ..................   0.00  0.00 1.00/1.00/1.00 0.99 0.99 0.02   0
 78  ..................   0.00  0.00 1.00/1.00/1.00 0.99 0.99 0.02   0
 79  ..................   0.00  0.00 1.00/1.00/1.00 0.99 0.99 0.02   0
 80  ..................   0.00  0.00 1.00/1.00/1.00 0.99 0.99 0.02   0
 81  ..................   0.00  0.00 1.00/1.00/1.00 0.99 0.99 0.02   0
 82  ..................   0.00  0.00 1.00/1.00/1.00 0.99 0.50 0.01   0
[mcl] jury pruning marks: <100,100,100>, out of 100
[mcl] jury pruning synopsis: <100.0 or really really really good> (cf -scheme, -do log)
[mcl] output is in /local/wiwie/ClustEval/repository/results/04_15_2013-16_39_59_baechler2003/clusters/MCL_norm_baechler2003.577.results
[mcl] 1 clusters found
[mcl] output is in /local/wiwie/ClustEval/repository/results/04_15_2013-16_39_59_baechler2003/clusters/MCL_norm_baechler2003.577.results

Please cite:
    Stijn van Dongen, Graph Clustering by Flow Simulation.  PhD thesis,
    University of Utrecht, May 2000.
       (  http://www.library.uu.nl/digiarchief/dip/diss/1895620/full.pdf
       or  http://micans.org/mcl/lit/svdthesis.pdf.gz)
OR
    Stijn van Dongen, A cluster algorithm for graphs. Technical
    Report INS-R0010, National Research Institute for Mathematics
    and Computer Science in the Netherlands, Amsterdam, May 2000.
       (  http://www.cwi.nl/ftp/CWIreports/INS/INS-R0010.ps.Z
       or  http://micans.org/mcl/lit/INS-R0010.ps.Z)

