[mcl] new tab created
[mcl] pid 54614
 ite ------------------  chaos  time hom(avg,lo,hi) expa expb expc fmv
  1  ..................   0.28  0.01 1.02/0.96/1.35 1.00 1.00 1.00 100
  2  ..................   0.27  0.00 0.91/0.90/0.94 1.00 1.00 1.00 100
  3  ..................   0.40  0.00 0.85/0.84/0.85 1.00 1.00 1.00 100
  4  ..................   0.59  0.01 0.78/0.78/0.78 1.00 1.00 1.00 100
  5  ..................   0.91  0.00 0.71/0.71/0.71 1.00 1.00 1.00 100
  6  ..................   1.35  0.01 0.62/0.62/0.62 1.00 0.96 0.96 100
  7  ..................   1.90  0.00 0.53/0.53/0.53 1.00 0.87 0.83 100
  8  ..................   2.83  0.00 0.46/0.46/0.46 1.00 0.92 0.77 100
  9  ..................   3.52  0.01 0.42/0.42/0.42 1.00 0.78 0.60 100
 10  ..................   3.98  0.00 0.44/0.44/0.44 1.00 0.78 0.47 100
 11  ..................   3.10  0.00 0.53/0.53/0.53 1.00 0.62 0.29 100
 12  ..................   2.49  0.00 0.64/0.64/0.64 1.00 0.73 0.21 100
 13  ..................   1.36  0.00 0.70/0.70/0.70 1.00 0.53 0.11 100
 14  ..................   0.82  0.00 0.73/0.73/0.73 1.00 0.60 0.07 100
 15  ..................   0.48  0.00 0.76/0.76/0.76 1.00 0.67 0.04 100
 16  ..................   0.23  0.00 0.85/0.85/0.85 1.00 0.75 0.03 100
 17  ..................   0.05  0.00 0.95/0.95/0.95 1.00 0.66 0.02 100
 18  ..................   0.01  0.00 0.99/0.99/0.99 0.99 0.99 0.02   0
 19  ..................   0.00  0.00 1.00/1.00/1.00 0.99 0.99 0.02   0
 20  ..................   0.00  0.00 1.00/1.00/1.00 0.99 0.50 0.01   0
[mcl] jury pruning marks: <100,100,100>, out of 100
[mcl] jury pruning synopsis: <100.0 or really really really good> (cf -scheme, -do log)
[mcl] output is in /local/wiwie/ClustEval/repository/results/04_15_2013-16_39_59_baechler2003/clusters/MCL_norm_baechler2003.92.results
[mcl] 1 clusters found
[mcl] output is in /local/wiwie/ClustEval/repository/results/04_15_2013-16_39_59_baechler2003/clusters/MCL_norm_baechler2003.92.results

Please cite:
    Stijn van Dongen, Graph Clustering by Flow Simulation.  PhD thesis,
    University of Utrecht, May 2000.
       (  http://www.library.uu.nl/digiarchief/dip/diss/1895620/full.pdf
       or  http://micans.org/mcl/lit/svdthesis.pdf.gz)
OR
    Stijn van Dongen, A cluster algorithm for graphs. Technical
    Report INS-R0010, National Research Institute for Mathematics
    and Computer Science in the Netherlands, Amsterdam, May 2000.
       (  http://www.cwi.nl/ftp/CWIreports/INS/INS-R0010.ps.Z
       or  http://micans.org/mcl/lit/INS-R0010.ps.Z)

