[mcl] new tab created
[mcl] pid 40778
 ite ------------------  chaos  time hom(avg,lo,hi) expa expb expc fmv
  1  ..................   0.28  0.01 1.02/0.96/1.35 1.00 1.00 1.00 100
  2  ..................   1.07  0.01 0.73/0.70/0.85 1.00 1.00 1.00 100
  3  ..................   3.88  0.00 0.44/0.43/0.56 1.00 0.63 0.63 100
  4  ..................   1.77  0.01 0.64/0.57/0.65 1.00 0.19 0.12 100
  5  ..................   0.00  0.00 1.00/1.00/1.00 1.00 0.09 0.01 100
[mcl] jury pruning marks: <100,100,99>, out of 100
[mcl] jury pruning synopsis: <99.9 or perfect> (cf -scheme, -do log)
[mcl] output is in /local/wiwie/ClustEval/repository/results/04_15_2013-16_39_59_baechler2003/clusters/MCL_norm_baechler2003.19.results
[mcl] 1 clusters found
[mcl] output is in /local/wiwie/ClustEval/repository/results/04_15_2013-16_39_59_baechler2003/clusters/MCL_norm_baechler2003.19.results

Please cite:
    Stijn van Dongen, Graph Clustering by Flow Simulation.  PhD thesis,
    University of Utrecht, May 2000.
       (  http://www.library.uu.nl/digiarchief/dip/diss/1895620/full.pdf
       or  http://micans.org/mcl/lit/svdthesis.pdf.gz)
OR
    Stijn van Dongen, A cluster algorithm for graphs. Technical
    Report INS-R0010, National Research Institute for Mathematics
    and Computer Science in the Netherlands, Amsterdam, May 2000.
       (  http://www.cwi.nl/ftp/CWIreports/INS/INS-R0010.ps.Z
       or  http://micans.org/mcl/lit/INS-R0010.ps.Z)

