-----------------------------------
Running ... TransClust v1.0
Mon Apr 15 16:49:13 CEST 2013
-----------------------------------

Clustering Mode: cluster iterativ

Threshold range: 0.0025855581602161966 to 0.0025855581602161966
Stepsize: 0.01

calculating clusters for threshold 0.0025855581602161966

fmeasure: 0.6679841897233202
cluster distribution: 90:1, 

