-----------------------------------
Running ... TransClust v1.0
Mon Apr 15 16:47:46 CEST 2013
-----------------------------------

Clustering Mode: cluster iterativ

Threshold range: 0.008202460370341037 to 0.008202460370341037
Stepsize: 0.01

calculating clusters for threshold 0.008202460370341037

fmeasure: 0.6679841897233202
cluster distribution: 90:1, 

