-----------------------------------
Running ... TransClust v1.0
Mon Apr 15 17:09:03 CEST 2013
-----------------------------------

Clustering Mode: cluster iterativ

Threshold range: 5.708593859589803E-14 to 5.708593859589803E-14
Stepsize: 0.01

calculating clusters for threshold 5.708593859589803E-14

fmeasure: 0.6679841897233202
cluster distribution: 90:1, 

