-----------------------------------
Running ... TransClust v1.0
Mon Apr 15 17:13:55 CEST 2013
-----------------------------------

Clustering Mode: cluster iterativ

Threshold range: 3.0407992860030907E-16 to 3.0407992860030907E-16
Stepsize: 0.01

calculating clusters for threshold 3.0407992860030907E-16

fmeasure: 0.6679841897233202
cluster distribution: 90:1, 

