-----------------------------------
Running ... TransClust v1.0
Mon Apr 15 16:49:48 CEST 2013
-----------------------------------

Clustering Mode: cluster iterativ

Threshold range: 2.8976082830009097E-4 to 2.8976082830009097E-4
Stepsize: 0.01

calculating clusters for threshold 2.8976082830009097E-4

fmeasure: 0.6679841897233202
cluster distribution: 90:1, 

