-----------------------------------
Running ... TransClust v1.0
Mon Apr 15 17:13:05 CEST 2013
-----------------------------------

Clustering Mode: cluster iterativ

Threshold range: 2.027199524002061E-15 to 2.027199524002061E-15
Stepsize: 0.01

calculating clusters for threshold 2.027199524002061E-15

fmeasure: 0.6679841897233202
cluster distribution: 90:1, 

