-----------------------------------
Running ... TransClust v1.0
Mon Apr 15 17:09:12 CEST 2013
-----------------------------------

Clustering Mode: cluster iterativ

Threshold range: 7.784446172167912E-14 to 7.784446172167912E-14
Stepsize: 0.01

calculating clusters for threshold 7.784446172167912E-14

fmeasure: 0.6679841897233202
cluster distribution: 90:1, 

