-----------------------------------
Running ... TransClust v1.0
Mon Apr 15 16:52:52 CEST 2013
-----------------------------------

Clustering Mode: cluster iterativ

Threshold range: 4.039934625337807E-5 to 4.039934625337807E-5
Stepsize: 0.01

calculating clusters for threshold 4.039934625337807E-5

fmeasure: 0.6679841897233202
cluster distribution: 90:1, 

