-----------------------------------
Running ... TransClust v1.0
Mon Apr 15 17:03:02 CEST 2013
-----------------------------------

Clustering Mode: cluster iterativ

Threshold range: 5.845600112219958E-11 to 5.845600112219958E-11
Stepsize: 0.01

calculating clusters for threshold 5.845600112219958E-11

fmeasure: 0.6679841897233202
cluster distribution: 90:1, 

